-2.1589e-17,-5.9506e-17,-1.5952e-16,-4.1593e-16,-1.0548e-15,-2.6015e-15,-6.2407e-15,-1.4561e-14,-3.3041e-14,-7.2925e-14,-1.5654e-13,-3.2683e-13,-6.6365e-13,-1.3107e-12,-2.5177e-12,-4.7036e-12,-8.5468e-12,-1.5105e-11,-2.5963e-11,-4.3404e-11,-7.0575e-11,-1.1161e-10,-1.7167e-10,-2.5681e-10,-3.7366e-10,-5.2877e-10,-7.2778e-10,-9.7425e-10,-1.2685e-09,-1.6063e-09,-1.9783e-09,-2.3698e-09,-2.761e-09,-3.1286e-09,-3.448e-09,-3.696e-09,-3.8532e-09,-3.9071e-09,-3.8532e-09,-3.696e-09,-3.448e-09,-3.1286e-09,-2.761e-09,-2.3698e-09,-1.9783e-09,-1.6063e-09,-1.2685e-09,-9.7425e-10,-7.2778e-10,-5.2877e-10,-3.7366e-10,-2.5681e-10,-1.7167e-10,-1.1161e-10,-7.0575e-11,-4.3404e-11,-2.5963e-11,-1.5105e-11,-8.5468e-12,-4.7036e-12,-2.5177e-12,-1.3107e-12,-6.6365e-13,-3.2683e-13,-1.5654e-13,-7.2925e-14,-3.3041e-14,-1.4561e-14,-6.2407e-15,-2.6015e-15,-1.0548e-15,-4.1593e-16,-1.5952e-16,-5.9506e-17,-2.1589e-17
-8.4154e-17,-2.3195e-16,-6.2182e-16,-1.6213e-15,-4.1115e-15,-1.0141e-14,-2.4326e-14,-5.6757e-14,-1.2879e-13,-2.8426e-13,-6.1019e-13,-1.274e-12,-2.5869e-12,-5.1091e-12,-9.8139e-12,-1.8335e-11,-3.3315e-11,-5.8878e-11,-1.012e-10,-1.6919e-10,-2.751e-10,-4.3505e-10,-6.6916e-10,-1.001e-09,-1.4565e-09,-2.0612e-09,-2.8369e-09,-3.7976e-09,-4.9445e-09,-6.2612e-09,-7.7115e-09,-9.2374e-09,-1.0762e-08,-1.2195e-08,-1.344e-08,-1.4407e-08,-1.502e-08,-1.523e-08,-1.502e-08,-1.4407e-08,-1.344e-08,-1.2195e-08,-1.0762e-08,-9.2374e-09,-7.7115e-09,-6.2612e-09,-4.9445e-09,-3.7976e-09,-2.8369e-09,-2.0612e-09,-1.4565e-09,-1.001e-09,-6.6916e-10,-4.3505e-10,-2.751e-10,-1.6919e-10,-1.012e-10,-5.8878e-11,-3.3315e-11,-1.8335e-11,-9.8139e-12,-5.1091e-12,-2.5869e-12,-1.274e-12,-6.1019e-13,-2.8426e-13,-1.2879e-13,-5.6757e-14,-2.4326e-14,-1.0141e-14,-4.1115e-15,-1.6213e-15,-6.2182e-16,-2.3195e-16,-8.4154e-17
-1.5952e-16,-4.3969e-16,-1.1787e-15,-3.0733e-15,-7.7937e-15,-1.9223e-14,-4.6113e-14,-1.0759e-13,-2.4414e-13,-5.3884e-13,-1.1567e-12,-2.4149e-12,-4.9038e-12,-9.6848e-12,-1.8603e-11,-3.4755e-11,-6.3153e-11,-1.1161e-10,-1.9184e-10,-3.2072e-10,-5.2148e-10,-8.2469e-10,-1.2685e-09,-1.8976e-09,-2.761e-09,-3.9071e-09,-5.3776e-09,-7.1988e-09,-9.3727e-09,-1.1869e-08,-1.4618e-08,-1.7511e-08,-2.0401e-08,-2.3117e-08,-2.5478e-08,-2.731e-08,-2.8472e-08,-2.887e-08,-2.8472e-08,-2.731e-08,-2.5478e-08,-2.3117e-08,-2.0401e-08,-1.7511e-08,-1.4618e-08,-1.1869e-08,-9.3727e-09,-7.1988e-09,-5.3776e-09,-3.9071e-09,-2.761e-09,-1.8976e-09,-1.2685e-09,-8.2469e-10,-5.2148e-10,-3.2072e-10,-1.9184e-10,-1.1161e-10,-6.3153e-11,-3.4755e-11,-1.8603e-11,-9.6848e-12,-4.9038e-12,-2.4149e-12,-1.1567e-12,-5.3884e-13,-2.4414e-13,-1.0759e-13,-4.6113e-14,-1.9223e-14,-7.7937e-15,-3.0733e-15,-1.1787e-15,-4.3969e-16,-1.5952e-16
-4.3258e-31,-1.1923e-30,-3.1963e-30,-8.3339e-30,-2.1134e-29,-5.2126e-29,-1.2504e-28,-2.9175e-28,-6.6205e-28,-1.4612e-27,-3.1366e-27,-6.5486e-27,-1.3298e-26,-2.6262e-26,-5.0446e-26,-9.4246e-26,-1.7125e-25,-3.0265e-25,-5.2022e-25,-8.6969e-25,-1.4141e-24,-2.2363e-24,-3.4397e-24,-5.1457e-24,-7.4869e-24,-1.0595e-23,-1.4583e-23,-1.9521e-23,-2.5416e-23,-3.2185e-23,-3.9639e-23,-4.7483e-23,-5.5321e-23,-6.2687e-23,-6.9088e-23,-7.4056e-23,-7.7207e-23,-7.8287e-23,-7.7207e-23,-7.4056e-23,-6.9088e-23,-6.2687e-23,-5.5321e-23,-4.7483e-23,-3.9639e-23,-3.2185e-23,-2.5416e-23,-1.9521e-23,-1.4583e-23,-1.0595e-23,-7.4869e-24,-5.1457e-24,-3.4397e-24,-2.2363e-24,-1.4141e-24,-8.6969e-25,-5.2022e-25,-3.0265e-25,-1.7125e-25,-9.4246e-26,-5.0446e-26,-2.6262e-26,-1.3298e-26,-6.5486e-27,-3.1366e-27,-1.4612e-27,-6.6205e-28,-2.9175e-28,-1.2504e-28,-5.2126e-29,-2.1134e-29,-8.3339e-30,-3.1963e-30,-1.1923e-30,-4.3258e-31
1.0548e-15,2.9072e-15,7.7937e-15,2.0321e-14,5.1532e-14,1.271e-13,3.049e-13,7.1138e-13,1.6143e-12,3.5628e-12,7.648e-12,1.5968e-11,3.2424e-11,6.4036e-11,1.2301e-10,2.298e-10,4.1757e-10,7.3796e-10,1.2685e-09,2.1206e-09,3.448e-09,5.4528e-09,8.3871e-09,1.2547e-08,1.8256e-08,2.5834e-08,3.5557e-08,4.7599e-08,6.1973e-08,7.8477e-08,9.6654e-08,1.1578e-07,1.3489e-07,1.5285e-07,1.6846e-07,1.8057e-07,1.8826e-07,1.9089e-07,1.8826e-07,1.8057e-07,1.6846e-07,1.5285e-07,1.3489e-07,1.1578e-07,9.6654e-08,7.8477e-08,6.1973e-08,4.7599e-08,3.5557e-08,2.5834e-08,1.8256e-08,1.2547e-08,8.3871e-09,5.4528e-09,3.448e-09,2.1206e-09,1.2685e-09,7.3796e-10,4.1757e-10,2.298e-10,1.2301e-10,6.4036e-11,3.2424e-11,1.5968e-11,7.648e-12,3.5628e-12,1.6143e-12,7.1138e-13,3.049e-13,1.271e-13,5.1532e-14,2.0321e-14,7.7937e-15,2.9072e-15,1.0548e-15
3.6791e-15,1.0141e-14,2.7185e-14,7.0881e-14,1.7975e-13,4.4334e-13,1.0635e-12,2.4813e-12,5.6308e-12,1.2427e-11,2.6677e-11,5.5696e-11,1.131e-10,2.2336e-10,4.2905e-10,8.0157e-10,1.4565e-09,2.5741e-09,4.4245e-09,7.3968e-09,1.2027e-08,1.902e-08,2.9255e-08,4.3764e-08,6.3677e-08,9.0111e-08,1.2403e-07,1.6603e-07,2.1617e-07,2.7373e-07,3.3714e-07,4.0385e-07,4.7051e-07,5.3316e-07,5.876e-07,6.2985e-07,6.5665e-07,6.6584e-07,6.5665e-07,6.2985e-07,5.876e-07,5.3316e-07,4.7051e-07,4.0385e-07,3.3714e-07,2.7373e-07,2.1617e-07,1.6603e-07,1.2403e-07,9.0111e-08,6.3677e-08,4.3764e-08,2.9255e-08,1.902e-08,1.2027e-08,7.3968e-09,4.4245e-09,2.5741e-09,1.4565e-09,8.0157e-10,4.2905e-10,2.2336e-10,1.131e-10,5.5696e-11,2.6677e-11,1.2427e-11,5.6308e-12,2.4813e-12,1.0635e-12,4.4334e-13,1.7975e-13,7.0881e-14,2.7185e-14,1.0141e-14,3.6791e-15
6.2407e-15,1.7201e-14,4.6113e-14,1.2023e-13,3.049e-13,7.5202e-13,1.804e-12,4.209e-12,9.5512e-12,2.108e-11,4.5251e-11,9.4475e-11,1.9184e-10,3.7888e-10,7.2778e-10,1.3597e-09,2.4706e-09,4.3663e-09,7.5051e-09,1.2547e-08,2.0401e-08,3.2263e-08,4.9624e-08,7.4236e-08,1.0801e-07,1.5285e-07,2.1038e-07,2.8163e-07,3.6667e-07,4.6432e-07,5.7187e-07,6.8504e-07,7.9811e-07,9.0438e-07,9.9672e-07,1.0684e-06,1.1139e-06,1.1294e-06,1.1139e-06,1.0684e-06,9.9672e-07,9.0438e-07,7.9811e-07,6.8504e-07,5.7187e-07,4.6432e-07,3.6667e-07,2.8163e-07,2.1038e-07,1.5285e-07,1.0801e-07,7.4236e-08,4.9624e-08,3.2263e-08,2.0401e-08,1.2547e-08,7.5051e-09,4.3663e-09,2.4706e-09,1.3597e-09,7.2778e-10,3.7888e-10,1.9184e-10,9.4475e-11,4.5251e-11,2.108e-11,9.5512e-12,4.209e-12,1.804e-12,7.5202e-13,3.049e-13,1.2023e-13,4.6113e-14,1.7201e-14,6.2407e-15
-5.5491e-29,-1.5295e-28,-4.1003e-28,-1.0691e-27,-2.7111e-27,-6.6868e-27,-1.6041e-26,-3.7426e-26,-8.4928e-26,-1.8744e-25,-4.0237e-25,-8.4006e-25,-1.7058e-24,-3.369e-24,-6.4713e-24,-1.209e-23,-2.1968e-23,-3.8824e-23,-6.6734e-23,-1.1156e-22,-1.814e-22,-2.8688e-22,-4.4125e-22,-6.6009e-22,-9.6043e-22,-1.3591e-21,-1.8707e-21,-2.5042e-21,-3.2604e-21,-4.1287e-21,-5.085e-21,-6.0912e-21,-7.0967e-21,-8.0416e-21,-8.8627e-21,-9.5e-21,-9.9042e-21,-1.0043e-20,-9.9042e-21,-9.5e-21,-8.8627e-21,-8.0416e-21,-7.0967e-21,-6.0912e-21,-5.085e-21,-4.1287e-21,-3.2604e-21,-2.5042e-21,-1.8707e-21,-1.3591e-21,-9.6043e-22,-6.6009e-22,-4.4125e-22,-2.8688e-22,-1.814e-22,-1.1156e-22,-6.6734e-23,-3.8824e-23,-2.1968e-23,-1.209e-23,-6.4713e-24,-3.369e-24,-1.7058e-24,-8.4006e-25,-4.0237e-25,-1.8744e-25,-8.4928e-26,-3.7426e-26,-1.6041e-26,-6.6868e-27,-2.7111e-27,-1.0691e-27,-4.1003e-28,-1.5295e-28,-5.5491e-29
-3.3041e-14,-9.1072e-14,-2.4414e-13,-6.3657e-13,-1.6143e-12,-3.9815e-12,-9.5512e-12,-2.2285e-11,-5.0569e-11,-1.1161e-10,-2.3958e-10,-5.002e-10,-1.0157e-09,-2.006e-09,-3.8532e-09,-7.1988e-09,-1.3081e-08,-2.3117e-08,-3.9736e-08,-6.6429e-08,-1.0801e-07,-1.7082e-07,-2.6273e-07,-3.9304e-07,-5.7187e-07,-8.0927e-07,-1.1139e-06,-1.4911e-06,-1.9413e-06,-2.4584e-06,-3.0278e-06,-3.6269e-06,-4.2256e-06,-4.7882e-06,-5.2771e-06,-5.6566e-06,-5.8973e-06,-5.9798e-06,-5.8973e-06,-5.6566e-06,-5.2771e-06,-4.7882e-06,-4.2256e-06,-3.6269e-06,-3.0278e-06,-2.4584e-06,-1.9413e-06,-1.4911e-06,-1.1139e-06,-8.0927e-07,-5.7187e-07,-3.9304e-07,-2.6273e-07,-1.7082e-07,-1.0801e-07,-6.6429e-08,-3.9736e-08,-2.3117e-08,-1.3081e-08,-7.1988e-09,-3.8532e-09,-2.006e-09,-1.0157e-09,-5.002e-10,-2.3958e-10,-1.1161e-10,-5.0569e-11,-2.2285e-11,-9.5512e-12,-3.9815e-12,-1.6143e-12,-6.3657e-13,-2.4414e-13,-9.1072e-14,-3.3041e-14
-1.0313e-13,-2.8426e-13,-7.6204e-13,-1.9869e-12,-5.0386e-12,-1.2427e-11,-2.9812e-11,-6.9556e-11,-1.5784e-10,-3.4836e-10,-7.478e-10,-1.5613e-09,-3.1703e-09,-6.2612e-09,-1.2027e-08,-2.2469e-08,-4.0828e-08,-7.2155e-08,-1.2403e-07,-2.0734e-07,-3.3714e-07,-5.3316e-07,-8.2006e-07,-1.2268e-06,-1.785e-06,-2.526e-06,-3.4766e-06,-4.654e-06,-6.0595e-06,-7.6732e-06,-9.4505e-06,-1.1321e-05,-1.3189e-05,-1.4945e-05,-1.6471e-05,-1.7656e-05,-1.8407e-05,-1.8664e-05,-1.8407e-05,-1.7656e-05,-1.6471e-05,-1.4945e-05,-1.3189e-05,-1.1321e-05,-9.4505e-06,-7.6732e-06,-6.0595e-06,-4.654e-06,-3.4766e-06,-2.526e-06,-1.785e-06,-1.2268e-06,-8.2006e-07,-5.3316e-07,-3.3714e-07,-2.0734e-07,-1.2403e-07,-7.2155e-08,-4.0828e-08,-2.2469e-08,-1.2027e-08,-6.2612e-09,-3.1703e-09,-1.5613e-09,-7.478e-10,-3.4836e-10,-1.5784e-10,-6.9556e-11,-2.9812e-11,-1.2427e-11,-5.0386e-12,-1.9869e-12,-7.6204e-13,-2.8426e-13,-1.0313e-13
-1.5654e-13,-4.3147e-13,-1.1567e-12,-3.0159e-12,-7.648e-12,-1.8863e-11,-4.5251e-11,-1.0558e-10,-2.3958e-10,-5.2877e-10,-1.1351e-09,-2.3698e-09,-4.8121e-09,-9.5038e-09,-1.8256e-08,-3.4106e-08,-6.1973e-08,-1.0952e-07,-1.8826e-07,-3.1472e-07,-5.1173e-07,-8.0927e-07,-1.2448e-06,-1.8621e-06,-2.7094e-06,-3.8341e-06,-5.2771e-06,-7.0643e-06,-9.1975e-06,-1.1647e-05,-1.4345e-05,-1.7183e-05,-2.002e-05,-2.2685e-05,-2.5002e-05,-2.6799e-05,-2.794e-05,-2.833e-05,-2.794e-05,-2.6799e-05,-2.5002e-05,-2.2685e-05,-2.002e-05,-1.7183e-05,-1.4345e-05,-1.1647e-05,-9.1975e-06,-7.0643e-06,-5.2771e-06,-3.8341e-06,-2.7094e-06,-1.8621e-06,-1.2448e-06,-8.0927e-07,-5.1173e-07,-3.1472e-07,-1.8826e-07,-1.0952e-07,-6.1973e-08,-3.4106e-08,-1.8256e-08,-9.5038e-09,-4.8121e-09,-2.3698e-09,-1.1351e-09,-5.2877e-10,-2.3958e-10,-1.0558e-10,-4.5251e-11,-1.8863e-11,-7.648e-12,-3.0159e-12,-1.1567e-12,-4.3147e-13,-1.5654e-13
-4.5311e-28,-1.2489e-27,-3.3481e-27,-8.7296e-27,-2.2137e-26,-5.4601e-26,-1.3098e-25,-3.056e-25,-6.9348e-25,-1.5306e-24,-3.2855e-24,-6.8595e-24,-1.3929e-23,-2.7509e-23,-5.2841e-23,-9.8721e-23,-1.7938e-22,-3.1702e-22,-5.4491e-22,-9.1098e-22,-1.4812e-21,-2.3425e-21,-3.603e-21,-5.39e-21,-7.8424e-21,-1.1098e-20,-1.5275e-20,-2.0448e-20,-2.6623e-20,-3.3713e-20,-4.1521e-20,-4.9738e-20,-5.7948e-20,-6.5663e-20,-7.2368e-20,-7.7572e-20,-8.0872e-20,-8.2004e-20,-8.0872e-20,-7.7572e-20,-7.2368e-20,-6.5663e-20,-5.7948e-20,-4.9738e-20,-4.1521e-20,-3.3713e-20,-2.6623e-20,-2.0448e-20,-1.5275e-20,-1.1098e-20,-7.8424e-21,-5.39e-21,-3.603e-21,-2.3425e-21,-1.4812e-21,-9.1098e-22,-5.4491e-22,-3.1702e-22,-1.7938e-22,-9.8721e-23,-5.2841e-23,-2.7509e-23,-1.3929e-23,-6.8595e-24,-3.2855e-24,-1.5306e-24,-6.9348e-25,-3.056e-25,-1.3098e-25,-5.4601e-26,-2.2137e-26,-8.7296e-27,-3.3481e-27,-1.2489e-27,-4.5311e-28
6.6365e-13,1.8292e-12,4.9038e-12,1.2786e-11,3.2424e-11,7.9971e-11,1.9184e-10,4.476e-10,1.0157e-09,2.2417e-09,4.8121e-09,1.0047e-08,2.0401e-08,4.0291e-08,7.7394e-08,1.4459e-07,2.6273e-07,4.6432e-07,7.9811e-07,1.3343e-06,2.1695e-06,3.4309e-06,5.2771e-06,7.8944e-06,1.1486e-05,1.6255e-05,2.2372e-05,2.9949e-05,3.8993e-05,4.9377e-05,6.0814e-05,7.2848e-05,8.4873e-05,9.6174e-05,0.00010599,0.00011362,0.00011845,0.00012011,0.00011845,0.00011362,0.00010599,9.6174e-05,8.4873e-05,7.2848e-05,6.0814e-05,4.9377e-05,3.8993e-05,2.9949e-05,2.2372e-05,1.6255e-05,1.1486e-05,7.8944e-06,5.2771e-06,3.4309e-06,2.1695e-06,1.3343e-06,7.9811e-07,4.6432e-07,2.6273e-07,1.4459e-07,7.7394e-08,4.0291e-08,2.0401e-08,1.0047e-08,4.8121e-09,2.2417e-09,1.0157e-09,4.476e-10,1.9184e-10,7.9971e-11,3.2424e-11,1.2786e-11,4.9038e-12,1.8292e-12,6.6365e-13
1.8536e-12,5.1091e-12,1.3696e-11,3.5711e-11,9.0561e-11,2.2336e-10,5.3582e-10,1.2502e-09,2.8369e-09,6.2612e-09,1.344e-08,2.8061e-08,5.6981e-08,1.1254e-07,2.1617e-07,4.0385e-07,7.3382e-07,1.2969e-06,2.2292e-06,3.7267e-06,6.0595e-06,9.5827e-06,1.4739e-05,2.2049e-05,3.2082e-05,4.54e-05,6.2487e-05,8.3648e-05,0.00010891,0.00013791,0.00016986,0.00020347,0.00023705,0.00026862,0.00029604,0.00031733,0.00033084,0.00033546,0.00033084,0.00031733,0.00029604,0.00026862,0.00023705,0.00020347,0.00016986,0.00013791,0.00010891,8.3648e-05,6.2487e-05,4.54e-05,3.2082e-05,2.2049e-05,1.4739e-05,9.5827e-06,6.0595e-06,3.7267e-06,2.2292e-06,1.2969e-06,7.3382e-07,4.0385e-07,2.1617e-07,1.1254e-07,5.6981e-08,2.8061e-08,1.344e-08,6.2612e-09,2.8369e-09,1.2502e-09,5.3582e-10,2.2336e-10,9.0561e-11,3.5711e-11,1.3696e-11,5.1091e-12,1.8536e-12
2.5177e-12,6.9395e-12,1.8603e-11,4.8505e-11,1.2301e-10,3.0339e-10,7.2778e-10,1.698e-09,3.8532e-09,8.5044e-09,1.8256e-08,3.8114e-08,7.7394e-08,1.5285e-07,2.9361e-07,5.4853e-07,9.9672e-07,1.7615e-06,3.0278e-06,5.0618e-06,8.2303e-06,1.3016e-05,2.002e-05,2.9949e-05,4.3575e-05,6.1665e-05,8.4873e-05,0.00011362,0.00014793,0.00018732,0.00023071,0.00027636,0.00032198,0.00036485,0.00040211,0.00043102,0.00044936,0.00045565,0.00044936,0.00043102,0.00040211,0.00036485,0.00032198,0.00027636,0.00023071,0.00018732,0.00014793,0.00011362,8.4873e-05,6.1665e-05,4.3575e-05,2.9949e-05,2.002e-05,1.3016e-05,8.2303e-06,5.0618e-06,3.0278e-06,1.7615e-06,9.9672e-07,5.4853e-07,2.9361e-07,1.5285e-07,7.7394e-08,3.8114e-08,1.8256e-08,8.5044e-09,3.8532e-09,1.698e-09,7.2778e-10,3.0339e-10,1.2301e-10,4.8505e-11,1.8603e-11,6.9395e-12,2.5177e-12
-1.6297e-26,-4.4919e-26,-1.2042e-25,-3.1397e-25,-7.962e-25,-1.9638e-24,-4.7109e-24,-1.0991e-23,-2.4942e-23,-5.5048e-23,-1.1817e-22,-2.4671e-22,-5.0097e-22,-9.894e-22,-1.9005e-21,-3.5506e-21,-6.4517e-21,-1.1402e-20,-1.9598e-20,-3.2764e-20,-5.3274e-20,-8.425e-20,-1.2959e-19,-1.9386e-19,-2.8206e-19,-3.9915e-19,-5.4938e-19,-7.3543e-19,-9.5751e-19,-1.2125e-18,-1.4934e-18,-1.7889e-18,-2.0842e-18,-2.3617e-18,-2.6028e-18,-2.79e-18,-2.9087e-18,-2.9494e-18,-2.9087e-18,-2.79e-18,-2.6028e-18,-2.3617e-18,-2.0842e-18,-1.7889e-18,-1.4934e-18,-1.2125e-18,-9.5751e-19,-7.3543e-19,-5.4938e-19,-3.9915e-19,-2.8206e-19,-1.9386e-19,-1.2959e-19,-8.425e-20,-5.3274e-20,-3.2764e-20,-1.9598e-20,-1.1402e-20,-6.4517e-21,-3.5506e-21,-1.9005e-21,-9.894e-22,-5.0097e-22,-2.4671e-22,-1.1817e-22,-5.5048e-23,-2.4942e-23,-1.0991e-23,-4.7109e-24,-1.9638e-24,-7.962e-25,-3.1397e-25,-1.2042e-25,-4.4919e-26,-1.6297e-26
-8.5468e-12,-2.3558e-11,-6.3153e-11,-1.6466e-10,-4.1757e-10,-1.0299e-09,-2.4706e-09,-5.7643e-09,-1.3081e-08,-2.887e-08,-6.1973e-08,-1.2939e-07,-2.6273e-07,-5.1889e-07,-9.9672e-07,-1.8621e-06,-3.3836e-06,-5.9798e-06,-1.0278e-05,-1.7183e-05,-2.794e-05,-4.4185e-05,-6.7961e-05,-0.00010167,-0.00014793,-0.00020934,-0.00028812,-0.0003857,-0.00050217,-0.0006359,-0.00078319,-0.00093818,-0.001093,-0.0012386,-0.001365,-0.0014632,-0.0015255,-0.0015468,-0.0015255,-0.0014632,-0.001365,-0.0012386,-0.001093,-0.00093818,-0.00078319,-0.0006359,-0.00050217,-0.0003857,-0.00028812,-0.00020934,-0.00014793,-0.00010167,-6.7961e-05,-4.4185e-05,-2.794e-05,-1.7183e-05,-1.0278e-05,-5.9798e-06,-3.3836e-06,-1.8621e-06,-9.9672e-07,-5.1889e-07,-2.6273e-07,-1.2939e-07,-6.1973e-08,-2.887e-08,-1.3081e-08,-5.7643e-09,-2.4706e-09,-1.0299e-09,-4.1757e-10,-1.6466e-10,-6.3153e-11,-2.3558e-11,-8.5468e-12
-2.1361e-11,-5.8878e-11,-1.5784e-10,-4.1154e-10,-1.0436e-09,-2.5741e-09,-6.1749e-09,-1.4407e-08,-3.2693e-08,-7.2155e-08,-1.5489e-07,-3.2338e-07,-6.5665e-07,-1.2969e-06,-2.4911e-06,-4.654e-06,-8.4567e-06,-1.4945e-05,-2.5689e-05,-4.2946e-05,-6.983e-05,-0.00011043,-0.00016986,-0.0002541,-0.00036972,-0.0005232,-0.00072011,-0.00096398,-0.0012551,-0.0015893,-0.0019575,-0.0023448,-0.0027318,-0.0030956,-0.0034117,-0.003657,-0.0038126,-0.0038659,-0.0038126,-0.003657,-0.0034117,-0.0030956,-0.0027318,-0.0023448,-0.0019575,-0.0015893,-0.0012551,-0.00096398,-0.00072011,-0.0005232,-0.00036972,-0.0002541,-0.00016986,-0.00011043,-6.983e-05,-4.2946e-05,-2.5689e-05,-1.4945e-05,-8.4567e-06,-4.654e-06,-2.4911e-06,-1.2969e-06,-6.5665e-07,-3.2338e-07,-1.5489e-07,-7.2155e-08,-3.2693e-08,-1.4407e-08,-6.1749e-09,-2.5741e-09,-1.0436e-09,-4.1154e-10,-1.5784e-10,-5.8878e-11,-2.1361e-11
-2.5963e-11,-7.1562e-11,-1.9184e-10,-5.002e-10,-1.2685e-09,-3.1286e-09,-7.5051e-09,-1.7511e-08,-3.9736e-08,-8.7699e-08,-1.8826e-07,-3.9304e-07,-7.9811e-07,-1.5762e-06,-3.0278e-06,-5.6566e-06,-1.0278e-05,-1.8165e-05,-3.1223e-05,-5.2198e-05,-8.4873e-05,-0.00013422,-0.00020645,-0.00030884,-0.00044936,-0.0006359,-0.00087524,-0.0011716,-0.0015255,-0.0019317,-0.0023791,-0.0028499,-0.0033204,-0.0037625,-0.0041466,-0.0044448,-0.0046339,-0.0046987,-0.0046339,-0.0044448,-0.0041466,-0.0037625,-0.0033204,-0.0028499,-0.0023791,-0.0019317,-0.0015255,-0.0011716,-0.00087524,-0.0006359,-0.00044936,-0.00030884,-0.00020645,-0.00013422,-8.4873e-05,-5.2198e-05,-3.1223e-05,-1.8165e-05,-1.0278e-05,-5.6566e-06,-3.0278e-06,-1.5762e-06,-7.9811e-07,-3.9304e-07,-1.8826e-07,-8.7699e-08,-3.9736e-08,-1.7511e-08,-7.5051e-09,-3.1286e-09,-1.2685e-09,-5.002e-10,-1.9184e-10,-7.1562e-11,-2.5963e-11
3.3828e-26,9.3239e-26,2.4995e-25,6.5172e-25,1.6527e-24,4.0763e-24,9.7785e-24,2.2815e-23,5.1772e-23,1.1427e-22,2.4528e-22,5.121e-22,1.0399e-21,2.0537e-21,3.9449e-21,7.3701e-21,1.3392e-20,2.3667e-20,4.0681e-20,6.801e-20,1.1058e-19,1.7488e-19,2.6898e-19,4.0239e-19,5.8548e-19,8.2853e-19,1.1404e-18,1.5266e-18,1.9875e-18,2.5169e-18,3.0998e-18,3.7132e-18,4.3261e-18,4.9022e-18,5.4027e-18,5.7912e-18,6.0376e-18,6.1221e-18,6.0376e-18,5.7912e-18,5.4027e-18,4.9022e-18,4.3261e-18,3.7132e-18,3.0998e-18,2.5169e-18,1.9875e-18,1.5266e-18,1.1404e-18,8.2853e-19,5.8548e-19,4.0239e-19,2.6898e-19,1.7488e-19,1.1058e-19,6.801e-20,4.0681e-20,2.3667e-20,1.3392e-20,7.3701e-21,3.9449e-21,2.0537e-21,1.0399e-21,5.121e-22,2.4528e-22,1.1427e-22,5.1772e-23,2.2815e-23,9.7785e-24,4.0763e-24,1.6527e-24,6.5172e-25,2.4995e-25,9.3239e-26,3.3828e-26
7.0575e-11,1.9452e-10,5.2148e-10,1.3597e-09,3.448e-09,8.5044e-09,2.0401e-08,4.7599e-08,1.0801e-07,2.3839e-07,5.1173e-07,1.0684e-06,2.1695e-06,4.2847e-06,8.2303e-06,1.5376e-05,2.794e-05,4.9377e-05,8.4873e-05,0.00014189,0.00023071,0.00036485,0.00056118,0.00083952,0.0012215,0.0017286,0.0023791,0.0031848,0.0041466,0.0052509,0.0064672,0.0077469,0.0090257,0.010227,0.011272,0.012082,0.012596,0.012772,0.012596,0.012082,0.011272,0.010227,0.0090257,0.0077469,0.0064672,0.0052509,0.0041466,0.0031848,0.0023791,0.0017286,0.0012215,0.00083952,0.00056118,0.00036485,0.00023071,0.00014189,8.4873e-05,4.9377e-05,2.794e-05,1.5376e-05,8.2303e-06,4.2847e-06,2.1695e-06,1.0684e-06,5.1173e-07,2.3839e-07,1.0801e-07,4.7599e-08,2.0401e-08,8.5044e-09,3.448e-09,1.3597e-09,5.2148e-10,1.9452e-10,7.0575e-11
1.5784e-10,4.3505e-10,1.1663e-09,3.0409e-09,7.7115e-09,1.902e-08,4.5626e-08,1.0645e-07,2.4157e-07,5.3316e-07,1.1445e-06,2.3895e-06,4.852e-06,9.5827e-06,1.8407e-05,3.4389e-05,6.2487e-05,0.00011043,0.00018982,0.00031733,0.00051598,0.00081599,0.0012551,0.0018776,0.0027318,0.0038659,0.0053209,0.0071229,0.0092739,0.011744,0.014464,0.017326,0.020186,0.022873,0.025209,0.027022,0.028172,0.028566,0.028172,0.027022,0.025209,0.022873,0.020186,0.017326,0.014464,0.011744,0.0092739,0.0071229,0.0053209,0.0038659,0.0027318,0.0018776,0.0012551,0.00081599,0.00051598,0.00031733,0.00018982,0.00011043,6.2487e-05,3.4389e-05,1.8407e-05,9.5827e-06,4.852e-06,2.3895e-06,1.1445e-06,5.3316e-07,2.4157e-07,1.0645e-07,4.5626e-08,1.902e-08,7.7115e-09,3.0409e-09,1.1663e-09,4.3505e-10,1.5784e-10
1.7167e-10,4.7317e-10,1.2685e-09,3.3073e-09,8.3871e-09,2.0686e-08,4.9624e-08,1.1578e-07,2.6273e-07,5.7987e-07,1.2448e-06,2.5988e-06,5.2771e-06,1.0422e-05,2.002e-05,3.7402e-05,6.7961e-05,0.00012011,0.00020645,0.00034514,0.00056118,0.00088748,0.001365,0.0020421,0.0029712,0.0042046,0.0057871,0.0077469,0.010086,0.012772,0.015731,0.018844,0.021954,0.024877,0.027418,0.029389,0.03064,0.031068,0.03064,0.029389,0.027418,0.024877,0.021954,0.018844,0.015731,0.012772,0.010086,0.0077469,0.0057871,0.0042046,0.0029712,0.0020421,0.001365,0.00088748,0.00056118,0.00034514,0.00020645,0.00012011,6.7961e-05,3.7402e-05,2.002e-05,1.0422e-05,5.2771e-06,2.5988e-06,1.2448e-06,5.7987e-07,2.6273e-07,1.1578e-07,4.9624e-08,2.0686e-08,8.3871e-09,3.3073e-09,1.2685e-09,4.7317e-10,1.7167e-10
-1.5567e-25,-4.2907e-25,-1.1503e-24,-2.9991e-24,-7.6055e-24,-1.8759e-23,-4.5e-23,-1.0499e-22,-2.3825e-22,-5.2583e-22,-1.1288e-21,-2.3566e-21,-4.7854e-21,-9.451e-21,-1.8154e-20,-3.3916e-20,-6.1628e-20,-1.0891e-19,-1.8721e-19,-3.1297e-19,-5.0889e-19,-8.0478e-19,-1.2378e-18,-1.8518e-18,-2.6943e-18,-3.8128e-18,-5.2478e-18,-7.025e-18,-9.1464e-18,-1.1582e-17,-1.4265e-17,-1.7088e-17,-1.9908e-17,-2.2559e-17,-2.4863e-17,-2.665e-17,-2.7784e-17,-2.8173e-17,-2.7784e-17,-2.665e-17,-2.4863e-17,-2.2559e-17,-1.9908e-17,-1.7088e-17,-1.4265e-17,-1.1582e-17,-9.1464e-18,-7.025e-18,-5.2478e-18,-3.8128e-18,-2.6943e-18,-1.8518e-18,-1.2378e-18,-8.0478e-19,-5.0889e-19,-3.1297e-19,-1.8721e-19,-1.0891e-19,-6.1628e-20,-3.3916e-20,-1.8154e-20,-9.451e-21,-4.7854e-21,-2.3566e-21,-1.1288e-21,-5.2583e-22,-2.3825e-22,-1.0499e-22,-4.5e-23,-1.8759e-23,-7.6055e-24,-2.9991e-24,-1.1503e-24,-4.2907e-25,-1.5567e-25
-3.7366e-10,-1.0299e-09,-2.761e-09,-7.1988e-09,-1.8256e-08,-4.5026e-08,-1.0801e-07,-2.5201e-07,-5.7187e-07,-1.2622e-06,-2.7094e-06,-5.6566e-06,-1.1486e-05,-2.2685e-05,-4.3575e-05,-8.141e-05,-0.00014793,-0.00026143,-0.00044936,-0.00075123,-0.0012215,-0.0019317,-0.0029712,-0.0044448,-0.0064672,-0.0091519,-0.012596,-0.016862,-0.021954,-0.027801,-0.03424,-0.041016,-0.047786,-0.054149,-0.059678,-0.063969,-0.066691,-0.067624,-0.066691,-0.063969,-0.059678,-0.054149,-0.047786,-0.041016,-0.03424,-0.027801,-0.021954,-0.016862,-0.012596,-0.0091519,-0.0064672,-0.0044448,-0.0029712,-0.0019317,-0.0012215,-0.00075123,-0.00044936,-0.00026143,-0.00014793,-8.141e-05,-4.3575e-05,-2.2685e-05,-1.1486e-05,-5.6566e-06,-2.7094e-06,-1.2622e-06,-5.7187e-07,-2.5201e-07,-1.0801e-07,-4.5026e-08,-1.8256e-08,-7.1988e-09,-2.761e-09,-1.0299e-09,-3.7366e-10
-7.478e-10,-2.0612e-09,-5.5255e-09,-1.4407e-08,-3.6535e-08,-9.0111e-08,-2.1617e-07,-5.0435e-07,-1.1445e-06,-2.526e-06,-5.4222e-06,-1.1321e-05,-2.2988e-05,-4.54e-05,-8.7207e-05,-0.00016292,-0.00029604,-0.0005232,-0.0008993,-0.0015034,-0.0024446,-0.0038659,-0.0059462,-0.0088954,-0.012943,-0.018316,-0.025209,-0.033746,-0.043937,-0.055638,-0.068525,-0.082085,-0.095634,-0.10837,-0.11943,-0.12802,-0.13347,-0.13534,-0.13347,-0.12802,-0.11943,-0.10837,-0.095634,-0.082085,-0.068525,-0.055638,-0.043937,-0.033746,-0.025209,-0.018316,-0.012943,-0.0088954,-0.0059462,-0.0038659,-0.0024446,-0.0015034,-0.0008993,-0.0005232,-0.00029604,-0.00016292,-8.7207e-05,-4.54e-05,-2.2988e-05,-1.1321e-05,-5.4222e-06,-2.526e-06,-1.1445e-06,-5.0435e-07,-2.1617e-07,-9.0111e-08,-3.6535e-08,-1.4407e-08,-5.5255e-09,-2.0612e-09,-7.478e-10
-7.2778e-10,-2.006e-09,-5.3776e-09,-1.4021e-08,-3.5557e-08,-8.7699e-08,-2.1038e-07,-4.9085e-07,-1.1139e-06,-2.4584e-06,-5.2771e-06,-1.1018e-05,-2.2372e-05,-4.4185e-05,-8.4873e-05,-0.00015856,-0.00028812,-0.00050919,-0.00087524,-0.0014632,-0.0023791,-0.0037625,-0.0057871,-0.0086573,-0.012596,-0.017825,-0.024534,-0.032843,-0.042761,-0.054149,-0.066691,-0.079888,-0.093075,-0.10547,-0.11624,-0.1246,-0.1299,-0.13171,-0.1299,-0.1246,-0.11624,-0.10547,-0.093075,-0.079888,-0.066691,-0.054149,-0.042761,-0.032843,-0.024534,-0.017825,-0.012596,-0.0086573,-0.0057871,-0.0037625,-0.0023791,-0.0014632,-0.00087524,-0.00050919,-0.00028812,-0.00015856,-8.4873e-05,-4.4185e-05,-2.2372e-05,-1.1018e-05,-5.2771e-06,-2.4584e-06,-1.1139e-06,-4.9085e-07,-2.1038e-07,-8.7699e-08,-3.5557e-08,-1.4021e-08,-5.3776e-09,-2.006e-09,-7.2778e-10
4.2183e-25,1.1627e-24,3.1169e-24,8.1269e-24,2.0609e-23,5.0831e-23,1.2194e-22,2.845e-22,6.456e-22,1.4249e-21,3.0587e-21,6.3859e-21,1.2967e-20,2.561e-20,4.9193e-20,9.1905e-20,1.67e-19,2.9513e-19,5.0729e-19,8.4808e-19,1.379e-18,2.1808e-18,3.3542e-18,5.0179e-18,7.3009e-18,1.0332e-17,1.422e-17,1.9036e-17,2.4785e-17,3.1385e-17,3.8655e-17,4.6304e-17,5.3947e-17,6.113e-17,6.7372e-17,7.2217e-17,7.5289e-17,7.6342e-17,7.5289e-17,7.2217e-17,6.7372e-17,6.113e-17,5.3947e-17,4.6304e-17,3.8655e-17,3.1385e-17,2.4785e-17,1.9036e-17,1.422e-17,1.0332e-17,7.3009e-18,5.0179e-18,3.3542e-18,2.1808e-18,1.379e-18,8.4808e-19,5.0729e-19,2.9513e-19,1.67e-19,9.1905e-20,4.9193e-20,2.561e-20,1.2967e-20,6.3859e-21,3.0587e-21,1.4249e-21,6.456e-22,2.845e-22,1.2194e-22,5.0831e-23,2.0609e-23,8.1269e-24,3.1169e-24,1.1627e-24,4.2183e-25
1.2685e-09,3.4963e-09,9.3727e-09,2.4438e-08,6.1973e-08,1.5285e-07,3.6667e-07,8.5551e-07,1.9413e-06,4.2847e-06,9.1975e-06,1.9203e-05,3.8993e-05,7.701e-05,0.00014793,0.00027636,0.00050217,0.00088748,0.0015255,0.0025502,0.0041466,0.0065576,0.010086,0.015089,0.021954,0.031068,0.042761,0.057242,0.074529,0.094377,0.11624,0.13924,0.16222,0.18382,0.20259,0.21716,0.2264,0.22956,0.2264,0.21716,0.20259,0.18382,0.16222,0.13924,0.11624,0.094377,0.074529,0.057242,0.042761,0.031068,0.021954,0.015089,0.010086,0.0065576,0.0041466,0.0025502,0.0015255,0.00088748,0.00050217,0.00027636,0.00014793,7.701e-05,3.8993e-05,1.9203e-05,9.1975e-06,4.2847e-06,1.9413e-06,8.5551e-07,3.6667e-07,1.5285e-07,6.1973e-08,2.4438e-08,9.3727e-09,3.4963e-09,1.2685e-09
2.2716e-09,6.2612e-09,1.6785e-08,4.3764e-08,1.1098e-07,2.7373e-07,6.5665e-07,1.5321e-06,3.4766e-06,7.6732e-06,1.6471e-05,3.4389e-05,6.983e-05,0.00013791,0.00026491,0.00049492,0.0008993,0.0015893,0.0027318,0.004567,0.0074259,0.011744,0.018063,0.027022,0.039316,0.055638,0.076578,0.10251,0.13347,0.16901,0.20816,0.24935,0.29051,0.32919,0.36281,0.3889,0.40544,0.41111,0.40544,0.3889,0.36281,0.32919,0.29051,0.24935,0.20816,0.16901,0.13347,0.10251,0.076578,0.055638,0.039316,0.027022,0.018063,0.011744,0.0074259,0.004567,0.0027318,0.0015893,0.0008993,0.00049492,0.00026491,0.00013791,6.983e-05,3.4389e-05,1.6471e-05,7.6732e-06,3.4766e-06,1.5321e-06,6.5665e-07,2.7373e-07,1.1098e-07,4.3764e-08,1.6785e-08,6.2612e-09,2.2716e-09
1.9783e-09,5.4528e-09,1.4618e-08,3.8114e-08,9.6654e-08,2.3839e-07,5.7187e-07,1.3343e-06,3.0278e-06,6.6825e-06,1.4345e-05,2.9949e-05,6.0814e-05,0.00012011,0.00023071,0.00043102,0.00078319,0.0013841,0.0023791,0.0039774,0.0064672,0.010227,0.015731,0.023533,0.03424,0.048455,0.066691,0.089276,0.11624,0.14719,0.18129,0.21716,0.253,0.28669,0.31596,0.33869,0.3531,0.35803,0.3531,0.33869,0.31596,0.28669,0.253,0.21716,0.18129,0.14719,0.11624,0.089276,0.066691,0.048455,0.03424,0.023533,0.015731,0.010227,0.0064672,0.0039774,0.0023791,0.0013841,0.00078319,0.00043102,0.00023071,0.00012011,6.0814e-05,2.9949e-05,1.4345e-05,6.6825e-06,3.0278e-06,1.3343e-06,5.7187e-07,2.3839e-07,9.6654e-08,3.8114e-08,1.4618e-08,5.4528e-09,1.9783e-09
-6.1564e-25,-1.6969e-24,-4.549e-24,-1.1861e-23,-3.0078e-23,-7.4186e-23,-1.7796e-22,-4.1522e-22,-9.4222e-22,-2.0796e-21,-4.464e-21,-9.3199e-21,-1.8925e-20,-3.7377e-20,-7.1795e-20,-1.3413e-19,-2.4373e-19,-4.3073e-19,-7.4037e-19,-1.2377e-18,-2.0125e-18,-3.1827e-18,-4.8954e-18,-7.3233e-18,-1.0655e-17,-1.5079e-17,-2.0754e-17,-2.7782e-17,-3.6172e-17,-4.5805e-17,-5.6415e-17,-6.7578e-17,-7.8733e-17,-8.9216e-17,-9.8326e-17,-1.054e-16,-1.0988e-16,-1.1142e-16,-1.0988e-16,-1.054e-16,-9.8326e-17,-8.9216e-17,-7.8733e-17,-6.7578e-17,-5.6415e-17,-4.5805e-17,-3.6172e-17,-2.7782e-17,-2.0754e-17,-1.5079e-17,-1.0655e-17,-7.3233e-18,-4.8954e-18,-3.1827e-18,-2.0125e-18,-1.2377e-18,-7.4037e-19,-4.3073e-19,-2.4373e-19,-1.3413e-19,-7.1795e-20,-3.7377e-20,-1.8925e-20,-9.3199e-21,-4.464e-21,-2.0796e-21,-9.4222e-22,-4.1522e-22,-1.7796e-22,-7.4186e-23,-3.0078e-23,-1.1861e-23,-4.549e-24,-1.6969e-24,-6.1564e-25
-2.761e-09,-7.6101e-09,-2.0401e-08,-5.3192e-08,-1.3489e-07,-3.327e-07,-7.9811e-07,-1.8621e-06,-4.2256e-06,-9.3262e-06,-2.002e-05,-4.1797e-05,-8.4873e-05,-0.00016762,-0.00032198,-0.00060154,-0.001093,-0.0019317,-0.0033204,-0.0055509,-0.0090257,-0.014273,-0.021954,-0.032843,-0.047786,-0.067624,-0.093075,-0.1246,-0.16222,-0.20542,-0.253,-0.30307,-0.3531,-0.40011,-0.44096,-0.47267,-0.49278,-0.49968,-0.49278,-0.47267,-0.44096,-0.40011,-0.3531,-0.30307,-0.253,-0.20542,-0.16222,-0.1246,-0.093075,-0.067624,-0.047786,-0.032843,-0.021954,-0.014273,-0.0090257,-0.0055509,-0.0033204,-0.0019317,-0.001093,-0.00060154,-0.00032198,-0.00016762,-8.4873e-05,-4.1797e-05,-2.002e-05,-9.3262e-06,-4.2256e-06,-1.8621e-06,-7.9811e-07,-3.327e-07,-1.3489e-07,-5.3192e-08,-2.0401e-08,-7.6101e-09,-2.761e-09
-4.4245e-09,-1.2195e-08,-3.2693e-08,-8.5241e-08,-2.1617e-07,-5.3316e-07,-1.279e-06,-2.9841e-06,-6.7716e-06,-1.4945e-05,-3.2082e-05,-6.698e-05,-0.00013601,-0.00026862,-0.00051598,-0.00096398,-0.0017516,-0.0030956,-0.0053209,-0.0088954,-0.014464,-0.022873,-0.035182,-0.052631,-0.076578,-0.10837,-0.14915,-0.19967,-0.25996,-0.32919,-0.40544,-0.48567,-0.56584,-0.64118,-0.70665,-0.75747,-0.78969,-0.80074,-0.78969,-0.75747,-0.70665,-0.64118,-0.56584,-0.48567,-0.40544,-0.32919,-0.25996,-0.19967,-0.14915,-0.10837,-0.076578,-0.052631,-0.035182,-0.022873,-0.014464,-0.0088954,-0.0053209,-0.0030956,-0.0017516,-0.00096398,-0.00051598,-0.00026862,-0.00013601,-6.698e-05,-3.2082e-05,-1.4945e-05,-6.7716e-06,-2.9841e-06,-1.279e-06,-5.3316e-07,-2.1617e-07,-8.5241e-08,-3.2693e-08,-1.2195e-08,-4.4245e-09
-3.448e-09,-9.5038e-09,-2.5478e-08,-6.6429e-08,-1.6846e-07,-4.1549e-07,-9.9672e-07,-2.3255e-06,-5.2771e-06,-1.1647e-05,-2.5002e-05,-5.2198e-05,-0.00010599,-0.00020934,-0.00040211,-0.00075123,-0.001365,-0.0024124,-0.0041466,-0.0069322,-0.011272,-0.017825,-0.027418,-0.041016,-0.059678,-0.084452,-0.11624,-0.1556,-0.20259,-0.25654,-0.31596,-0.37849,-0.44096,-0.49968,-0.5507,-0.5903,-0.61541,-0.62402,-0.61541,-0.5903,-0.5507,-0.49968,-0.44096,-0.37849,-0.31596,-0.25654,-0.20259,-0.1556,-0.11624,-0.084452,-0.059678,-0.041016,-0.027418,-0.017825,-0.011272,-0.0069322,-0.0041466,-0.0024124,-0.001365,-0.00075123,-0.00040211,-0.00020934,-0.00010599,-5.2198e-05,-2.5002e-05,-1.1647e-05,-5.2771e-06,-2.3255e-06,-9.9672e-07,-4.1549e-07,-1.6846e-07,-6.6429e-08,-2.5478e-08,-9.5038e-09,-3.448e-09
3.2006e-25,8.8217e-25,2.3649e-24,6.1662e-24,1.5637e-23,3.8567e-23,9.2518e-23,2.1586e-22,4.8984e-22,1.0811e-21,2.3207e-21,4.8452e-21,9.8387e-21,1.9431e-20,3.7325e-20,6.9732e-20,1.2671e-19,2.2393e-19,3.849e-19,6.4347e-19,1.0463e-18,1.6546e-18,2.545e-18,3.8072e-18,5.5395e-18,7.8391e-18,1.0789e-17,1.4443e-17,1.8805e-17,2.3813e-17,2.9329e-17,3.5132e-17,4.0931e-17,4.6381e-17,5.1117e-17,5.4793e-17,5.7124e-17,5.7923e-17,5.7124e-17,5.4793e-17,5.1117e-17,4.6381e-17,4.0931e-17,3.5132e-17,2.9329e-17,2.3813e-17,1.8805e-17,1.4443e-17,1.0789e-17,7.8391e-18,5.5395e-18,3.8072e-18,2.545e-18,1.6546e-18,1.0463e-18,6.4347e-19,3.849e-19,2.2393e-19,1.2671e-19,6.9732e-20,3.7325e-20,1.9431e-20,9.8387e-21,4.8452e-21,2.3207e-21,1.0811e-21,4.8984e-22,2.1586e-22,9.2518e-23,3.8567e-23,1.5637e-23,6.1662e-24,2.3649e-24,8.8217e-25,3.2006e-25
3.8532e-09,1.0621e-08,2.8472e-08,7.4236e-08,1.8826e-07,4.6432e-07,1.1139e-06,2.5988e-06,5.8973e-06,1.3016e-05,2.794e-05,5.8332e-05,0.00011845,0.00023394,0.00044936,0.00083952,0.0015255,0.0026959,0.0046339,0.0077469,0.012596,0.01992,0.03064,0.045836,0.066691,0.094377,0.1299,0.17389,0.2264,0.28669,0.3531,0.42297,0.49278,0.5584,0.61541,0.65967,0.68774,0.69735,0.68774,0.65967,0.61541,0.5584,0.49278,0.42297,0.3531,0.28669,0.2264,0.17389,0.1299,0.094377,0.066691,0.045836,0.03064,0.01992,0.012596,0.0077469,0.0046339,0.0026959,0.0015255,0.00083952,0.00044936,0.00023394,0.00011845,5.8332e-05,2.794e-05,1.3016e-05,5.8973e-06,2.5988e-06,1.1139e-06,4.6432e-07,1.8826e-07,7.4236e-08,2.8472e-08,1.0621e-08,3.8532e-09
5.5255e-09,1.523e-08,4.0828e-08,1.0645e-07,2.6996e-07,6.6584e-07,1.5973e-06,3.7267e-06,8.4567e-06,1.8664e-05,4.0065e-05,8.3648e-05,0.00016986,0.00033546,0.00064438,0.0012039,0.0021875,0.0038659,0.006645,0.011109,0.018063,0.028566,0.043937,0.065729,0.095634,0.13534,0.18627,0.24935,0.32465,0.41111,0.50634,0.60653,0.70665,0.80074,0.8825,0.94596,0.98621,1,0.98621,0.94596,0.8825,0.80074,0.70665,0.60653,0.50634,0.41111,0.32465,0.24935,0.18627,0.13534,0.095634,0.065729,0.043937,0.028566,0.018063,0.011109,0.006645,0.0038659,0.0021875,0.0012039,0.00064438,0.00033546,0.00016986,8.3648e-05,4.0065e-05,1.8664e-05,8.4567e-06,3.7267e-06,1.5973e-06,6.6584e-07,2.6996e-07,1.0645e-07,4.0828e-08,1.523e-08,5.5255e-09
3.8532e-09,1.0621e-08,2.8472e-08,7.4236e-08,1.8826e-07,4.6432e-07,1.1139e-06,2.5988e-06,5.8973e-06,1.3016e-05,2.794e-05,5.8332e-05,0.00011845,0.00023394,0.00044936,0.00083952,0.0015255,0.0026959,0.0046339,0.0077469,0.012596,0.01992,0.03064,0.045836,0.066691,0.094377,0.1299,0.17389,0.2264,0.28669,0.3531,0.42297,0.49278,0.5584,0.61541,0.65967,0.68774,0.69735,0.68774,0.65967,0.61541,0.5584,0.49278,0.42297,0.3531,0.28669,0.2264,0.17389,0.1299,0.094377,0.066691,0.045836,0.03064,0.01992,0.012596,0.0077469,0.0046339,0.0026959,0.0015255,0.00083952,0.00044936,0.00023394,0.00011845,5.8332e-05,2.794e-05,1.3016e-05,5.8973e-06,2.5988e-06,1.1139e-06,4.6432e-07,1.8826e-07,7.4236e-08,2.8472e-08,1.0621e-08,3.8532e-09
3.2006e-25,8.8217e-25,2.3649e-24,6.1662e-24,1.5637e-23,3.8567e-23,9.2518e-23,2.1586e-22,4.8984e-22,1.0811e-21,2.3207e-21,4.8452e-21,9.8387e-21,1.9431e-20,3.7325e-20,6.9732e-20,1.2671e-19,2.2393e-19,3.849e-19,6.4347e-19,1.0463e-18,1.6546e-18,2.545e-18,3.8072e-18,5.5395e-18,7.8391e-18,1.0789e-17,1.4443e-17,1.8805e-17,2.3813e-17,2.9329e-17,3.5132e-17,4.0931e-17,4.6381e-17,5.1117e-17,5.4793e-17,5.7124e-17,5.7923e-17,5.7124e-17,5.4793e-17,5.1117e-17,4.6381e-17,4.0931e-17,3.5132e-17,2.9329e-17,2.3813e-17,1.8805e-17,1.4443e-17,1.0789e-17,7.8391e-18,5.5395e-18,3.8072e-18,2.545e-18,1.6546e-18,1.0463e-18,6.4347e-19,3.849e-19,2.2393e-19,1.2671e-19,6.9732e-20,3.7325e-20,1.9431e-20,9.8387e-21,4.8452e-21,2.3207e-21,1.0811e-21,4.8984e-22,2.1586e-22,9.2518e-23,3.8567e-23,1.5637e-23,6.1662e-24,2.3649e-24,8.8217e-25,3.2006e-25
-3.448e-09,-9.5038e-09,-2.5478e-08,-6.6429e-08,-1.6846e-07,-4.1549e-07,-9.9672e-07,-2.3255e-06,-5.2771e-06,-1.1647e-05,-2.5002e-05,-5.2198e-05,-0.00010599,-0.00020934,-0.00040211,-0.00075123,-0.001365,-0.0024124,-0.0041466,-0.0069322,-0.011272,-0.017825,-0.027418,-0.041016,-0.059678,-0.084452,-0.11624,-0.1556,-0.20259,-0.25654,-0.31596,-0.37849,-0.44096,-0.49968,-0.5507,-0.5903,-0.61541,-0.62402,-0.61541,-0.5903,-0.5507,-0.49968,-0.44096,-0.37849,-0.31596,-0.25654,-0.20259,-0.1556,-0.11624,-0.084452,-0.059678,-0.041016,-0.027418,-0.017825,-0.011272,-0.0069322,-0.0041466,-0.0024124,-0.001365,-0.00075123,-0.00040211,-0.00020934,-0.00010599,-5.2198e-05,-2.5002e-05,-1.1647e-05,-5.2771e-06,-2.3255e-06,-9.9672e-07,-4.1549e-07,-1.6846e-07,-6.6429e-08,-2.5478e-08,-9.5038e-09,-3.448e-09
-4.4245e-09,-1.2195e-08,-3.2693e-08,-8.5241e-08,-2.1617e-07,-5.3316e-07,-1.279e-06,-2.9841e-06,-6.7716e-06,-1.4945e-05,-3.2082e-05,-6.698e-05,-0.00013601,-0.00026862,-0.00051598,-0.00096398,-0.0017516,-0.0030956,-0.0053209,-0.0088954,-0.014464,-0.022873,-0.035182,-0.052631,-0.076578,-0.10837,-0.14915,-0.19967,-0.25996,-0.32919,-0.40544,-0.48567,-0.56584,-0.64118,-0.70665,-0.75747,-0.78969,-0.80074,-0.78969,-0.75747,-0.70665,-0.64118,-0.56584,-0.48567,-0.40544,-0.32919,-0.25996,-0.19967,-0.14915,-0.10837,-0.076578,-0.052631,-0.035182,-0.022873,-0.014464,-0.0088954,-0.0053209,-0.0030956,-0.0017516,-0.00096398,-0.00051598,-0.00026862,-0.00013601,-6.698e-05,-3.2082e-05,-1.4945e-05,-6.7716e-06,-2.9841e-06,-1.279e-06,-5.3316e-07,-2.1617e-07,-8.5241e-08,-3.2693e-08,-1.2195e-08,-4.4245e-09
-2.761e-09,-7.6101e-09,-2.0401e-08,-5.3192e-08,-1.3489e-07,-3.327e-07,-7.9811e-07,-1.8621e-06,-4.2256e-06,-9.3262e-06,-2.002e-05,-4.1797e-05,-8.4873e-05,-0.00016762,-0.00032198,-0.00060154,-0.001093,-0.0019317,-0.0033204,-0.0055509,-0.0090257,-0.014273,-0.021954,-0.032843,-0.047786,-0.067624,-0.093075,-0.1246,-0.16222,-0.20542,-0.253,-0.30307,-0.3531,-0.40011,-0.44096,-0.47267,-0.49278,-0.49968,-0.49278,-0.47267,-0.44096,-0.40011,-0.3531,-0.30307,-0.253,-0.20542,-0.16222,-0.1246,-0.093075,-0.067624,-0.047786,-0.032843,-0.021954,-0.014273,-0.0090257,-0.0055509,-0.0033204,-0.0019317,-0.001093,-0.00060154,-0.00032198,-0.00016762,-8.4873e-05,-4.1797e-05,-2.002e-05,-9.3262e-06,-4.2256e-06,-1.8621e-06,-7.9811e-07,-3.327e-07,-1.3489e-07,-5.3192e-08,-2.0401e-08,-7.6101e-09,-2.761e-09
-6.1564e-25,-1.6969e-24,-4.549e-24,-1.1861e-23,-3.0078e-23,-7.4186e-23,-1.7796e-22,-4.1522e-22,-9.4222e-22,-2.0796e-21,-4.464e-21,-9.3199e-21,-1.8925e-20,-3.7377e-20,-7.1795e-20,-1.3413e-19,-2.4373e-19,-4.3073e-19,-7.4037e-19,-1.2377e-18,-2.0125e-18,-3.1827e-18,-4.8954e-18,-7.3233e-18,-1.0655e-17,-1.5079e-17,-2.0754e-17,-2.7782e-17,-3.6172e-17,-4.5805e-17,-5.6415e-17,-6.7578e-17,-7.8733e-17,-8.9216e-17,-9.8326e-17,-1.054e-16,-1.0988e-16,-1.1142e-16,-1.0988e-16,-1.054e-16,-9.8326e-17,-8.9216e-17,-7.8733e-17,-6.7578e-17,-5.6415e-17,-4.5805e-17,-3.6172e-17,-2.7782e-17,-2.0754e-17,-1.5079e-17,-1.0655e-17,-7.3233e-18,-4.8954e-18,-3.1827e-18,-2.0125e-18,-1.2377e-18,-7.4037e-19,-4.3073e-19,-2.4373e-19,-1.3413e-19,-7.1795e-20,-3.7377e-20,-1.8925e-20,-9.3199e-21,-4.464e-21,-2.0796e-21,-9.4222e-22,-4.1522e-22,-1.7796e-22,-7.4186e-23,-3.0078e-23,-1.1861e-23,-4.549e-24,-1.6969e-24,-6.1564e-25
1.9783e-09,5.4528e-09,1.4618e-08,3.8114e-08,9.6654e-08,2.3839e-07,5.7187e-07,1.3343e-06,3.0278e-06,6.6825e-06,1.4345e-05,2.9949e-05,6.0814e-05,0.00012011,0.00023071,0.00043102,0.00078319,0.0013841,0.0023791,0.0039774,0.0064672,0.010227,0.015731,0.023533,0.03424,0.048455,0.066691,0.089276,0.11624,0.14719,0.18129,0.21716,0.253,0.28669,0.31596,0.33869,0.3531,0.35803,0.3531,0.33869,0.31596,0.28669,0.253,0.21716,0.18129,0.14719,0.11624,0.089276,0.066691,0.048455,0.03424,0.023533,0.015731,0.010227,0.0064672,0.0039774,0.0023791,0.0013841,0.00078319,0.00043102,0.00023071,0.00012011,6.0814e-05,2.9949e-05,1.4345e-05,6.6825e-06,3.0278e-06,1.3343e-06,5.7187e-07,2.3839e-07,9.6654e-08,3.8114e-08,1.4618e-08,5.4528e-09,1.9783e-09
2.2716e-09,6.2612e-09,1.6785e-08,4.3764e-08,1.1098e-07,2.7373e-07,6.5665e-07,1.5321e-06,3.4766e-06,7.6732e-06,1.6471e-05,3.4389e-05,6.983e-05,0.00013791,0.00026491,0.00049492,0.0008993,0.0015893,0.0027318,0.004567,0.0074259,0.011744,0.018063,0.027022,0.039316,0.055638,0.076578,0.10251,0.13347,0.16901,0.20816,0.24935,0.29051,0.32919,0.36281,0.3889,0.40544,0.41111,0.40544,0.3889,0.36281,0.32919,0.29051,0.24935,0.20816,0.16901,0.13347,0.10251,0.076578,0.055638,0.039316,0.027022,0.018063,0.011744,0.0074259,0.004567,0.0027318,0.0015893,0.0008993,0.00049492,0.00026491,0.00013791,6.983e-05,3.4389e-05,1.6471e-05,7.6732e-06,3.4766e-06,1.5321e-06,6.5665e-07,2.7373e-07,1.1098e-07,4.3764e-08,1.6785e-08,6.2612e-09,2.2716e-09
1.2685e-09,3.4963e-09,9.3727e-09,2.4438e-08,6.1973e-08,1.5285e-07,3.6667e-07,8.5551e-07,1.9413e-06,4.2847e-06,9.1975e-06,1.9203e-05,3.8993e-05,7.701e-05,0.00014793,0.00027636,0.00050217,0.00088748,0.0015255,0.0025502,0.0041466,0.0065576,0.010086,0.015089,0.021954,0.031068,0.042761,0.057242,0.074529,0.094377,0.11624,0.13924,0.16222,0.18382,0.20259,0.21716,0.2264,0.22956,0.2264,0.21716,0.20259,0.18382,0.16222,0.13924,0.11624,0.094377,0.074529,0.057242,0.042761,0.031068,0.021954,0.015089,0.010086,0.0065576,0.0041466,0.0025502,0.0015255,0.00088748,0.00050217,0.00027636,0.00014793,7.701e-05,3.8993e-05,1.9203e-05,9.1975e-06,4.2847e-06,1.9413e-06,8.5551e-07,3.6667e-07,1.5285e-07,6.1973e-08,2.4438e-08,9.3727e-09,3.4963e-09,1.2685e-09
4.2183e-25,1.1627e-24,3.1169e-24,8.1269e-24,2.0609e-23,5.0831e-23,1.2194e-22,2.845e-22,6.456e-22,1.4249e-21,3.0587e-21,6.3859e-21,1.2967e-20,2.561e-20,4.9193e-20,9.1905e-20,1.67e-19,2.9513e-19,5.0729e-19,8.4808e-19,1.379e-18,2.1808e-18,3.3542e-18,5.0179e-18,7.3009e-18,1.0332e-17,1.422e-17,1.9036e-17,2.4785e-17,3.1385e-17,3.8655e-17,4.6304e-17,5.3947e-17,6.113e-17,6.7372e-17,7.2217e-17,7.5289e-17,7.6342e-17,7.5289e-17,7.2217e-17,6.7372e-17,6.113e-17,5.3947e-17,4.6304e-17,3.8655e-17,3.1385e-17,2.4785e-17,1.9036e-17,1.422e-17,1.0332e-17,7.3009e-18,5.0179e-18,3.3542e-18,2.1808e-18,1.379e-18,8.4808e-19,5.0729e-19,2.9513e-19,1.67e-19,9.1905e-20,4.9193e-20,2.561e-20,1.2967e-20,6.3859e-21,3.0587e-21,1.4249e-21,6.456e-22,2.845e-22,1.2194e-22,5.0831e-23,2.0609e-23,8.1269e-24,3.1169e-24,1.1627e-24,4.2183e-25
-7.2778e-10,-2.006e-09,-5.3776e-09,-1.4021e-08,-3.5557e-08,-8.7699e-08,-2.1038e-07,-4.9085e-07,-1.1139e-06,-2.4584e-06,-5.2771e-06,-1.1018e-05,-2.2372e-05,-4.4185e-05,-8.4873e-05,-0.00015856,-0.00028812,-0.00050919,-0.00087524,-0.0014632,-0.0023791,-0.0037625,-0.0057871,-0.0086573,-0.012596,-0.017825,-0.024534,-0.032843,-0.042761,-0.054149,-0.066691,-0.079888,-0.093075,-0.10547,-0.11624,-0.1246,-0.1299,-0.13171,-0.1299,-0.1246,-0.11624,-0.10547,-0.093075,-0.079888,-0.066691,-0.054149,-0.042761,-0.032843,-0.024534,-0.017825,-0.012596,-0.0086573,-0.0057871,-0.0037625,-0.0023791,-0.0014632,-0.00087524,-0.00050919,-0.00028812,-0.00015856,-8.4873e-05,-4.4185e-05,-2.2372e-05,-1.1018e-05,-5.2771e-06,-2.4584e-06,-1.1139e-06,-4.9085e-07,-2.1038e-07,-8.7699e-08,-3.5557e-08,-1.4021e-08,-5.3776e-09,-2.006e-09,-7.2778e-10
-7.478e-10,-2.0612e-09,-5.5255e-09,-1.4407e-08,-3.6535e-08,-9.0111e-08,-2.1617e-07,-5.0435e-07,-1.1445e-06,-2.526e-06,-5.4222e-06,-1.1321e-05,-2.2988e-05,-4.54e-05,-8.7207e-05,-0.00016292,-0.00029604,-0.0005232,-0.0008993,-0.0015034,-0.0024446,-0.0038659,-0.0059462,-0.0088954,-0.012943,-0.018316,-0.025209,-0.033746,-0.043937,-0.055638,-0.068525,-0.082085,-0.095634,-0.10837,-0.11943,-0.12802,-0.13347,-0.13534,-0.13347,-0.12802,-0.11943,-0.10837,-0.095634,-0.082085,-0.068525,-0.055638,-0.043937,-0.033746,-0.025209,-0.018316,-0.012943,-0.0088954,-0.0059462,-0.0038659,-0.0024446,-0.0015034,-0.0008993,-0.0005232,-0.00029604,-0.00016292,-8.7207e-05,-4.54e-05,-2.2988e-05,-1.1321e-05,-5.4222e-06,-2.526e-06,-1.1445e-06,-5.0435e-07,-2.1617e-07,-9.0111e-08,-3.6535e-08,-1.4407e-08,-5.5255e-09,-2.0612e-09,-7.478e-10
-3.7366e-10,-1.0299e-09,-2.761e-09,-7.1988e-09,-1.8256e-08,-4.5026e-08,-1.0801e-07,-2.5201e-07,-5.7187e-07,-1.2622e-06,-2.7094e-06,-5.6566e-06,-1.1486e-05,-2.2685e-05,-4.3575e-05,-8.141e-05,-0.00014793,-0.00026143,-0.00044936,-0.00075123,-0.0012215,-0.0019317,-0.0029712,-0.0044448,-0.0064672,-0.0091519,-0.012596,-0.016862,-0.021954,-0.027801,-0.03424,-0.041016,-0.047786,-0.054149,-0.059678,-0.063969,-0.066691,-0.067624,-0.066691,-0.063969,-0.059678,-0.054149,-0.047786,-0.041016,-0.03424,-0.027801,-0.021954,-0.016862,-0.012596,-0.0091519,-0.0064672,-0.0044448,-0.0029712,-0.0019317,-0.0012215,-0.00075123,-0.00044936,-0.00026143,-0.00014793,-8.141e-05,-4.3575e-05,-2.2685e-05,-1.1486e-05,-5.6566e-06,-2.7094e-06,-1.2622e-06,-5.7187e-07,-2.5201e-07,-1.0801e-07,-4.5026e-08,-1.8256e-08,-7.1988e-09,-2.761e-09,-1.0299e-09,-3.7366e-10
-1.5567e-25,-4.2907e-25,-1.1503e-24,-2.9991e-24,-7.6055e-24,-1.8759e-23,-4.5e-23,-1.0499e-22,-2.3825e-22,-5.2583e-22,-1.1288e-21,-2.3566e-21,-4.7854e-21,-9.451e-21,-1.8154e-20,-3.3916e-20,-6.1628e-20,-1.0891e-19,-1.8721e-19,-3.1297e-19,-5.0889e-19,-8.0478e-19,-1.2378e-18,-1.8518e-18,-2.6943e-18,-3.8128e-18,-5.2478e-18,-7.025e-18,-9.1464e-18,-1.1582e-17,-1.4265e-17,-1.7088e-17,-1.9908e-17,-2.2559e-17,-2.4863e-17,-2.665e-17,-2.7784e-17,-2.8173e-17,-2.7784e-17,-2.665e-17,-2.4863e-17,-2.2559e-17,-1.9908e-17,-1.7088e-17,-1.4265e-17,-1.1582e-17,-9.1464e-18,-7.025e-18,-5.2478e-18,-3.8128e-18,-2.6943e-18,-1.8518e-18,-1.2378e-18,-8.0478e-19,-5.0889e-19,-3.1297e-19,-1.8721e-19,-1.0891e-19,-6.1628e-20,-3.3916e-20,-1.8154e-20,-9.451e-21,-4.7854e-21,-2.3566e-21,-1.1288e-21,-5.2583e-22,-2.3825e-22,-1.0499e-22,-4.5e-23,-1.8759e-23,-7.6055e-24,-2.9991e-24,-1.1503e-24,-4.2907e-25,-1.5567e-25
1.7167e-10,4.7317e-10,1.2685e-09,3.3073e-09,8.3871e-09,2.0686e-08,4.9624e-08,1.1578e-07,2.6273e-07,5.7987e-07,1.2448e-06,2.5988e-06,5.2771e-06,1.0422e-05,2.002e-05,3.7402e-05,6.7961e-05,0.00012011,0.00020645,0.00034514,0.00056118,0.00088748,0.001365,0.0020421,0.0029712,0.0042046,0.0057871,0.0077469,0.010086,0.012772,0.015731,0.018844,0.021954,0.024877,0.027418,0.029389,0.03064,0.031068,0.03064,0.029389,0.027418,0.024877,0.021954,0.018844,0.015731,0.012772,0.010086,0.0077469,0.0057871,0.0042046,0.0029712,0.0020421,0.001365,0.00088748,0.00056118,0.00034514,0.00020645,0.00012011,6.7961e-05,3.7402e-05,2.002e-05,1.0422e-05,5.2771e-06,2.5988e-06,1.2448e-06,5.7987e-07,2.6273e-07,1.1578e-07,4.9624e-08,2.0686e-08,8.3871e-09,3.3073e-09,1.2685e-09,4.7317e-10,1.7167e-10
1.5784e-10,4.3505e-10,1.1663e-09,3.0409e-09,7.7115e-09,1.902e-08,4.5626e-08,1.0645e-07,2.4157e-07,5.3316e-07,1.1445e-06,2.3895e-06,4.852e-06,9.5827e-06,1.8407e-05,3.4389e-05,6.2487e-05,0.00011043,0.00018982,0.00031733,0.00051598,0.00081599,0.0012551,0.0018776,0.0027318,0.0038659,0.0053209,0.0071229,0.0092739,0.011744,0.014464,0.017326,0.020186,0.022873,0.025209,0.027022,0.028172,0.028566,0.028172,0.027022,0.025209,0.022873,0.020186,0.017326,0.014464,0.011744,0.0092739,0.0071229,0.0053209,0.0038659,0.0027318,0.0018776,0.0012551,0.00081599,0.00051598,0.00031733,0.00018982,0.00011043,6.2487e-05,3.4389e-05,1.8407e-05,9.5827e-06,4.852e-06,2.3895e-06,1.1445e-06,5.3316e-07,2.4157e-07,1.0645e-07,4.5626e-08,1.902e-08,7.7115e-09,3.0409e-09,1.1663e-09,4.3505e-10,1.5784e-10
7.0575e-11,1.9452e-10,5.2148e-10,1.3597e-09,3.448e-09,8.5044e-09,2.0401e-08,4.7599e-08,1.0801e-07,2.3839e-07,5.1173e-07,1.0684e-06,2.1695e-06,4.2847e-06,8.2303e-06,1.5376e-05,2.794e-05,4.9377e-05,8.4873e-05,0.00014189,0.00023071,0.00036485,0.00056118,0.00083952,0.0012215,0.0017286,0.0023791,0.0031848,0.0041466,0.0052509,0.0064672,0.0077469,0.0090257,0.010227,0.011272,0.012082,0.012596,0.012772,0.012596,0.012082,0.011272,0.010227,0.0090257,0.0077469,0.0064672,0.0052509,0.0041466,0.0031848,0.0023791,0.0017286,0.0012215,0.00083952,0.00056118,0.00036485,0.00023071,0.00014189,8.4873e-05,4.9377e-05,2.794e-05,1.5376e-05,8.2303e-06,4.2847e-06,2.1695e-06,1.0684e-06,5.1173e-07,2.3839e-07,1.0801e-07,4.7599e-08,2.0401e-08,8.5044e-09,3.448e-09,1.3597e-09,5.2148e-10,1.9452e-10,7.0575e-11
3.3828e-26,9.3239e-26,2.4995e-25,6.5172e-25,1.6527e-24,4.0763e-24,9.7785e-24,2.2815e-23,5.1772e-23,1.1427e-22,2.4528e-22,5.121e-22,1.0399e-21,2.0537e-21,3.9449e-21,7.3701e-21,1.3392e-20,2.3667e-20,4.0681e-20,6.801e-20,1.1058e-19,1.7488e-19,2.6898e-19,4.0239e-19,5.8548e-19,8.2853e-19,1.1404e-18,1.5266e-18,1.9875e-18,2.5169e-18,3.0998e-18,3.7132e-18,4.3261e-18,4.9022e-18,5.4027e-18,5.7912e-18,6.0376e-18,6.1221e-18,6.0376e-18,5.7912e-18,5.4027e-18,4.9022e-18,4.3261e-18,3.7132e-18,3.0998e-18,2.5169e-18,1.9875e-18,1.5266e-18,1.1404e-18,8.2853e-19,5.8548e-19,4.0239e-19,2.6898e-19,1.7488e-19,1.1058e-19,6.801e-20,4.0681e-20,2.3667e-20,1.3392e-20,7.3701e-21,3.9449e-21,2.0537e-21,1.0399e-21,5.121e-22,2.4528e-22,1.1427e-22,5.1772e-23,2.2815e-23,9.7785e-24,4.0763e-24,1.6527e-24,6.5172e-25,2.4995e-25,9.3239e-26,3.3828e-26
-2.5963e-11,-7.1562e-11,-1.9184e-10,-5.002e-10,-1.2685e-09,-3.1286e-09,-7.5051e-09,-1.7511e-08,-3.9736e-08,-8.7699e-08,-1.8826e-07,-3.9304e-07,-7.9811e-07,-1.5762e-06,-3.0278e-06,-5.6566e-06,-1.0278e-05,-1.8165e-05,-3.1223e-05,-5.2198e-05,-8.4873e-05,-0.00013422,-0.00020645,-0.00030884,-0.00044936,-0.0006359,-0.00087524,-0.0011716,-0.0015255,-0.0019317,-0.0023791,-0.0028499,-0.0033204,-0.0037625,-0.0041466,-0.0044448,-0.0046339,-0.0046987,-0.0046339,-0.0044448,-0.0041466,-0.0037625,-0.0033204,-0.0028499,-0.0023791,-0.0019317,-0.0015255,-0.0011716,-0.00087524,-0.0006359,-0.00044936,-0.00030884,-0.00020645,-0.00013422,-8.4873e-05,-5.2198e-05,-3.1223e-05,-1.8165e-05,-1.0278e-05,-5.6566e-06,-3.0278e-06,-1.5762e-06,-7.9811e-07,-3.9304e-07,-1.8826e-07,-8.7699e-08,-3.9736e-08,-1.7511e-08,-7.5051e-09,-3.1286e-09,-1.2685e-09,-5.002e-10,-1.9184e-10,-7.1562e-11,-2.5963e-11
-2.1361e-11,-5.8878e-11,-1.5784e-10,-4.1154e-10,-1.0436e-09,-2.5741e-09,-6.1749e-09,-1.4407e-08,-3.2693e-08,-7.2155e-08,-1.5489e-07,-3.2338e-07,-6.5665e-07,-1.2969e-06,-2.4911e-06,-4.654e-06,-8.4567e-06,-1.4945e-05,-2.5689e-05,-4.2946e-05,-6.983e-05,-0.00011043,-0.00016986,-0.0002541,-0.00036972,-0.0005232,-0.00072011,-0.00096398,-0.0012551,-0.0015893,-0.0019575,-0.0023448,-0.0027318,-0.0030956,-0.0034117,-0.003657,-0.0038126,-0.0038659,-0.0038126,-0.003657,-0.0034117,-0.0030956,-0.0027318,-0.0023448,-0.0019575,-0.0015893,-0.0012551,-0.00096398,-0.00072011,-0.0005232,-0.00036972,-0.0002541,-0.00016986,-0.00011043,-6.983e-05,-4.2946e-05,-2.5689e-05,-1.4945e-05,-8.4567e-06,-4.654e-06,-2.4911e-06,-1.2969e-06,-6.5665e-07,-3.2338e-07,-1.5489e-07,-7.2155e-08,-3.2693e-08,-1.4407e-08,-6.1749e-09,-2.5741e-09,-1.0436e-09,-4.1154e-10,-1.5784e-10,-5.8878e-11,-2.1361e-11
-8.5468e-12,-2.3558e-11,-6.3153e-11,-1.6466e-10,-4.1757e-10,-1.0299e-09,-2.4706e-09,-5.7643e-09,-1.3081e-08,-2.887e-08,-6.1973e-08,-1.2939e-07,-2.6273e-07,-5.1889e-07,-9.9672e-07,-1.8621e-06,-3.3836e-06,-5.9798e-06,-1.0278e-05,-1.7183e-05,-2.794e-05,-4.4185e-05,-6.7961e-05,-0.00010167,-0.00014793,-0.00020934,-0.00028812,-0.0003857,-0.00050217,-0.0006359,-0.00078319,-0.00093818,-0.001093,-0.0012386,-0.001365,-0.0014632,-0.0015255,-0.0015468,-0.0015255,-0.0014632,-0.001365,-0.0012386,-0.001093,-0.00093818,-0.00078319,-0.0006359,-0.00050217,-0.0003857,-0.00028812,-0.00020934,-0.00014793,-0.00010167,-6.7961e-05,-4.4185e-05,-2.794e-05,-1.7183e-05,-1.0278e-05,-5.9798e-06,-3.3836e-06,-1.8621e-06,-9.9672e-07,-5.1889e-07,-2.6273e-07,-1.2939e-07,-6.1973e-08,-2.887e-08,-1.3081e-08,-5.7643e-09,-2.4706e-09,-1.0299e-09,-4.1757e-10,-1.6466e-10,-6.3153e-11,-2.3558e-11,-8.5468e-12
-1.6297e-26,-4.4919e-26,-1.2042e-25,-3.1397e-25,-7.962e-25,-1.9638e-24,-4.7109e-24,-1.0991e-23,-2.4942e-23,-5.5048e-23,-1.1817e-22,-2.4671e-22,-5.0097e-22,-9.894e-22,-1.9005e-21,-3.5506e-21,-6.4517e-21,-1.1402e-20,-1.9598e-20,-3.2764e-20,-5.3274e-20,-8.425e-20,-1.2959e-19,-1.9386e-19,-2.8206e-19,-3.9915e-19,-5.4938e-19,-7.3543e-19,-9.5751e-19,-1.2125e-18,-1.4934e-18,-1.7889e-18,-2.0842e-18,-2.3617e-18,-2.6028e-18,-2.79e-18,-2.9087e-18,-2.9494e-18,-2.9087e-18,-2.79e-18,-2.6028e-18,-2.3617e-18,-2.0842e-18,-1.7889e-18,-1.4934e-18,-1.2125e-18,-9.5751e-19,-7.3543e-19,-5.4938e-19,-3.9915e-19,-2.8206e-19,-1.9386e-19,-1.2959e-19,-8.425e-20,-5.3274e-20,-3.2764e-20,-1.9598e-20,-1.1402e-20,-6.4517e-21,-3.5506e-21,-1.9005e-21,-9.894e-22,-5.0097e-22,-2.4671e-22,-1.1817e-22,-5.5048e-23,-2.4942e-23,-1.0991e-23,-4.7109e-24,-1.9638e-24,-7.962e-25,-3.1397e-25,-1.2042e-25,-4.4919e-26,-1.6297e-26
2.5177e-12,6.9395e-12,1.8603e-11,4.8505e-11,1.2301e-10,3.0339e-10,7.2778e-10,1.698e-09,3.8532e-09,8.5044e-09,1.8256e-08,3.8114e-08,7.7394e-08,1.5285e-07,2.9361e-07,5.4853e-07,9.9672e-07,1.7615e-06,3.0278e-06,5.0618e-06,8.2303e-06,1.3016e-05,2.002e-05,2.9949e-05,4.3575e-05,6.1665e-05,8.4873e-05,0.00011362,0.00014793,0.00018732,0.00023071,0.00027636,0.00032198,0.00036485,0.00040211,0.00043102,0.00044936,0.00045565,0.00044936,0.00043102,0.00040211,0.00036485,0.00032198,0.00027636,0.00023071,0.00018732,0.00014793,0.00011362,8.4873e-05,6.1665e-05,4.3575e-05,2.9949e-05,2.002e-05,1.3016e-05,8.2303e-06,5.0618e-06,3.0278e-06,1.7615e-06,9.9672e-07,5.4853e-07,2.9361e-07,1.5285e-07,7.7394e-08,3.8114e-08,1.8256e-08,8.5044e-09,3.8532e-09,1.698e-09,7.2778e-10,3.0339e-10,1.2301e-10,4.8505e-11,1.8603e-11,6.9395e-12,2.5177e-12
1.8536e-12,5.1091e-12,1.3696e-11,3.5711e-11,9.0561e-11,2.2336e-10,5.3582e-10,1.2502e-09,2.8369e-09,6.2612e-09,1.344e-08,2.8061e-08,5.6981e-08,1.1254e-07,2.1617e-07,4.0385e-07,7.3382e-07,1.2969e-06,2.2292e-06,3.7267e-06,6.0595e-06,9.5827e-06,1.4739e-05,2.2049e-05,3.2082e-05,4.54e-05,6.2487e-05,8.3648e-05,0.00010891,0.00013791,0.00016986,0.00020347,0.00023705,0.00026862,0.00029604,0.00031733,0.00033084,0.00033546,0.00033084,0.00031733,0.00029604,0.00026862,0.00023705,0.00020347,0.00016986,0.00013791,0.00010891,8.3648e-05,6.2487e-05,4.54e-05,3.2082e-05,2.2049e-05,1.4739e-05,9.5827e-06,6.0595e-06,3.7267e-06,2.2292e-06,1.2969e-06,7.3382e-07,4.0385e-07,2.1617e-07,1.1254e-07,5.6981e-08,2.8061e-08,1.344e-08,6.2612e-09,2.8369e-09,1.2502e-09,5.3582e-10,2.2336e-10,9.0561e-11,3.5711e-11,1.3696e-11,5.1091e-12,1.8536e-12
6.6365e-13,1.8292e-12,4.9038e-12,1.2786e-11,3.2424e-11,7.9971e-11,1.9184e-10,4.476e-10,1.0157e-09,2.2417e-09,4.8121e-09,1.0047e-08,2.0401e-08,4.0291e-08,7.7394e-08,1.4459e-07,2.6273e-07,4.6432e-07,7.9811e-07,1.3343e-06,2.1695e-06,3.4309e-06,5.2771e-06,7.8944e-06,1.1486e-05,1.6255e-05,2.2372e-05,2.9949e-05,3.8993e-05,4.9377e-05,6.0814e-05,7.2848e-05,8.4873e-05,9.6174e-05,0.00010599,0.00011362,0.00011845,0.00012011,0.00011845,0.00011362,0.00010599,9.6174e-05,8.4873e-05,7.2848e-05,6.0814e-05,4.9377e-05,3.8993e-05,2.9949e-05,2.2372e-05,1.6255e-05,1.1486e-05,7.8944e-06,5.2771e-06,3.4309e-06,2.1695e-06,1.3343e-06,7.9811e-07,4.6432e-07,2.6273e-07,1.4459e-07,7.7394e-08,4.0291e-08,2.0401e-08,1.0047e-08,4.8121e-09,2.2417e-09,1.0157e-09,4.476e-10,1.9184e-10,7.9971e-11,3.2424e-11,1.2786e-11,4.9038e-12,1.8292e-12,6.6365e-13
-4.5311e-28,-1.2489e-27,-3.3481e-27,-8.7296e-27,-2.2137e-26,-5.4601e-26,-1.3098e-25,-3.056e-25,-6.9348e-25,-1.5306e-24,-3.2855e-24,-6.8595e-24,-1.3929e-23,-2.7509e-23,-5.2841e-23,-9.8721e-23,-1.7938e-22,-3.1702e-22,-5.4491e-22,-9.1098e-22,-1.4812e-21,-2.3425e-21,-3.603e-21,-5.39e-21,-7.8424e-21,-1.1098e-20,-1.5275e-20,-2.0448e-20,-2.6623e-20,-3.3713e-20,-4.1521e-20,-4.9738e-20,-5.7948e-20,-6.5663e-20,-7.2368e-20,-7.7572e-20,-8.0872e-20,-8.2004e-20,-8.0872e-20,-7.7572e-20,-7.2368e-20,-6.5663e-20,-5.7948e-20,-4.9738e-20,-4.1521e-20,-3.3713e-20,-2.6623e-20,-2.0448e-20,-1.5275e-20,-1.1098e-20,-7.8424e-21,-5.39e-21,-3.603e-21,-2.3425e-21,-1.4812e-21,-9.1098e-22,-5.4491e-22,-3.1702e-22,-1.7938e-22,-9.8721e-23,-5.2841e-23,-2.7509e-23,-1.3929e-23,-6.8595e-24,-3.2855e-24,-1.5306e-24,-6.9348e-25,-3.056e-25,-1.3098e-25,-5.4601e-26,-2.2137e-26,-8.7296e-27,-3.3481e-27,-1.2489e-27,-4.5311e-28
-1.5654e-13,-4.3147e-13,-1.1567e-12,-3.0159e-12,-7.648e-12,-1.8863e-11,-4.5251e-11,-1.0558e-10,-2.3958e-10,-5.2877e-10,-1.1351e-09,-2.3698e-09,-4.8121e-09,-9.5038e-09,-1.8256e-08,-3.4106e-08,-6.1973e-08,-1.0952e-07,-1.8826e-07,-3.1472e-07,-5.1173e-07,-8.0927e-07,-1.2448e-06,-1.8621e-06,-2.7094e-06,-3.8341e-06,-5.2771e-06,-7.0643e-06,-9.1975e-06,-1.1647e-05,-1.4345e-05,-1.7183e-05,-2.002e-05,-2.2685e-05,-2.5002e-05,-2.6799e-05,-2.794e-05,-2.833e-05,-2.794e-05,-2.6799e-05,-2.5002e-05,-2.2685e-05,-2.002e-05,-1.7183e-05,-1.4345e-05,-1.1647e-05,-9.1975e-06,-7.0643e-06,-5.2771e-06,-3.8341e-06,-2.7094e-06,-1.8621e-06,-1.2448e-06,-8.0927e-07,-5.1173e-07,-3.1472e-07,-1.8826e-07,-1.0952e-07,-6.1973e-08,-3.4106e-08,-1.8256e-08,-9.5038e-09,-4.8121e-09,-2.3698e-09,-1.1351e-09,-5.2877e-10,-2.3958e-10,-1.0558e-10,-4.5251e-11,-1.8863e-11,-7.648e-12,-3.0159e-12,-1.1567e-12,-4.3147e-13,-1.5654e-13
-1.0313e-13,-2.8426e-13,-7.6204e-13,-1.9869e-12,-5.0386e-12,-1.2427e-11,-2.9812e-11,-6.9556e-11,-1.5784e-10,-3.4836e-10,-7.478e-10,-1.5613e-09,-3.1703e-09,-6.2612e-09,-1.2027e-08,-2.2469e-08,-4.0828e-08,-7.2155e-08,-1.2403e-07,-2.0734e-07,-3.3714e-07,-5.3316e-07,-8.2006e-07,-1.2268e-06,-1.785e-06,-2.526e-06,-3.4766e-06,-4.654e-06,-6.0595e-06,-7.6732e-06,-9.4505e-06,-1.1321e-05,-1.3189e-05,-1.4945e-05,-1.6471e-05,-1.7656e-05,-1.8407e-05,-1.8664e-05,-1.8407e-05,-1.7656e-05,-1.6471e-05,-1.4945e-05,-1.3189e-05,-1.1321e-05,-9.4505e-06,-7.6732e-06,-6.0595e-06,-4.654e-06,-3.4766e-06,-2.526e-06,-1.785e-06,-1.2268e-06,-8.2006e-07,-5.3316e-07,-3.3714e-07,-2.0734e-07,-1.2403e-07,-7.2155e-08,-4.0828e-08,-2.2469e-08,-1.2027e-08,-6.2612e-09,-3.1703e-09,-1.5613e-09,-7.478e-10,-3.4836e-10,-1.5784e-10,-6.9556e-11,-2.9812e-11,-1.2427e-11,-5.0386e-12,-1.9869e-12,-7.6204e-13,-2.8426e-13,-1.0313e-13
-3.3041e-14,-9.1072e-14,-2.4414e-13,-6.3657e-13,-1.6143e-12,-3.9815e-12,-9.5512e-12,-2.2285e-11,-5.0569e-11,-1.1161e-10,-2.3958e-10,-5.002e-10,-1.0157e-09,-2.006e-09,-3.8532e-09,-7.1988e-09,-1.3081e-08,-2.3117e-08,-3.9736e-08,-6.6429e-08,-1.0801e-07,-1.7082e-07,-2.6273e-07,-3.9304e-07,-5.7187e-07,-8.0927e-07,-1.1139e-06,-1.4911e-06,-1.9413e-06,-2.4584e-06,-3.0278e-06,-3.6269e-06,-4.2256e-06,-4.7882e-06,-5.2771e-06,-5.6566e-06,-5.8973e-06,-5.9798e-06,-5.8973e-06,-5.6566e-06,-5.2771e-06,-4.7882e-06,-4.2256e-06,-3.6269e-06,-3.0278e-06,-2.4584e-06,-1.9413e-06,-1.4911e-06,-1.1139e-06,-8.0927e-07,-5.7187e-07,-3.9304e-07,-2.6273e-07,-1.7082e-07,-1.0801e-07,-6.6429e-08,-3.9736e-08,-2.3117e-08,-1.3081e-08,-7.1988e-09,-3.8532e-09,-2.006e-09,-1.0157e-09,-5.002e-10,-2.3958e-10,-1.1161e-10,-5.0569e-11,-2.2285e-11,-9.5512e-12,-3.9815e-12,-1.6143e-12,-6.3657e-13,-2.4414e-13,-9.1072e-14,-3.3041e-14
-5.5491e-29,-1.5295e-28,-4.1003e-28,-1.0691e-27,-2.7111e-27,-6.6868e-27,-1.6041e-26,-3.7426e-26,-8.4928e-26,-1.8744e-25,-4.0237e-25,-8.4006e-25,-1.7058e-24,-3.369e-24,-6.4713e-24,-1.209e-23,-2.1968e-23,-3.8824e-23,-6.6734e-23,-1.1156e-22,-1.814e-22,-2.8688e-22,-4.4125e-22,-6.6009e-22,-9.6043e-22,-1.3591e-21,-1.8707e-21,-2.5042e-21,-3.2604e-21,-4.1287e-21,-5.085e-21,-6.0912e-21,-7.0967e-21,-8.0416e-21,-8.8627e-21,-9.5e-21,-9.9042e-21,-1.0043e-20,-9.9042e-21,-9.5e-21,-8.8627e-21,-8.0416e-21,-7.0967e-21,-6.0912e-21,-5.085e-21,-4.1287e-21,-3.2604e-21,-2.5042e-21,-1.8707e-21,-1.3591e-21,-9.6043e-22,-6.6009e-22,-4.4125e-22,-2.8688e-22,-1.814e-22,-1.1156e-22,-6.6734e-23,-3.8824e-23,-2.1968e-23,-1.209e-23,-6.4713e-24,-3.369e-24,-1.7058e-24,-8.4006e-25,-4.0237e-25,-1.8744e-25,-8.4928e-26,-3.7426e-26,-1.6041e-26,-6.6868e-27,-2.7111e-27,-1.0691e-27,-4.1003e-28,-1.5295e-28,-5.5491e-29
6.2407e-15,1.7201e-14,4.6113e-14,1.2023e-13,3.049e-13,7.5202e-13,1.804e-12,4.209e-12,9.5512e-12,2.108e-11,4.5251e-11,9.4475e-11,1.9184e-10,3.7888e-10,7.2778e-10,1.3597e-09,2.4706e-09,4.3663e-09,7.5051e-09,1.2547e-08,2.0401e-08,3.2263e-08,4.9624e-08,7.4236e-08,1.0801e-07,1.5285e-07,2.1038e-07,2.8163e-07,3.6667e-07,4.6432e-07,5.7187e-07,6.8504e-07,7.9811e-07,9.0438e-07,9.9672e-07,1.0684e-06,1.1139e-06,1.1294e-06,1.1139e-06,1.0684e-06,9.9672e-07,9.0438e-07,7.9811e-07,6.8504e-07,5.7187e-07,4.6432e-07,3.6667e-07,2.8163e-07,2.1038e-07,1.5285e-07,1.0801e-07,7.4236e-08,4.9624e-08,3.2263e-08,2.0401e-08,1.2547e-08,7.5051e-09,4.3663e-09,2.4706e-09,1.3597e-09,7.2778e-10,3.7888e-10,1.9184e-10,9.4475e-11,4.5251e-11,2.108e-11,9.5512e-12,4.209e-12,1.804e-12,7.5202e-13,3.049e-13,1.2023e-13,4.6113e-14,1.7201e-14,6.2407e-15
3.6791e-15,1.0141e-14,2.7185e-14,7.0881e-14,1.7975e-13,4.4334e-13,1.0635e-12,2.4813e-12,5.6308e-12,1.2427e-11,2.6677e-11,5.5696e-11,1.131e-10,2.2336e-10,4.2905e-10,8.0157e-10,1.4565e-09,2.5741e-09,4.4245e-09,7.3968e-09,1.2027e-08,1.902e-08,2.9255e-08,4.3764e-08,6.3677e-08,9.0111e-08,1.2403e-07,1.6603e-07,2.1617e-07,2.7373e-07,3.3714e-07,4.0385e-07,4.7051e-07,5.3316e-07,5.876e-07,6.2985e-07,6.5665e-07,6.6584e-07,6.5665e-07,6.2985e-07,5.876e-07,5.3316e-07,4.7051e-07,4.0385e-07,3.3714e-07,2.7373e-07,2.1617e-07,1.6603e-07,1.2403e-07,9.0111e-08,6.3677e-08,4.3764e-08,2.9255e-08,1.902e-08,1.2027e-08,7.3968e-09,4.4245e-09,2.5741e-09,1.4565e-09,8.0157e-10,4.2905e-10,2.2336e-10,1.131e-10,5.5696e-11,2.6677e-11,1.2427e-11,5.6308e-12,2.4813e-12,1.0635e-12,4.4334e-13,1.7975e-13,7.0881e-14,2.7185e-14,1.0141e-14,3.6791e-15
1.0548e-15,2.9072e-15,7.7937e-15,2.0321e-14,5.1532e-14,1.271e-13,3.049e-13,7.1138e-13,1.6143e-12,3.5628e-12,7.648e-12,1.5968e-11,3.2424e-11,6.4036e-11,1.2301e-10,2.298e-10,4.1757e-10,7.3796e-10,1.2685e-09,2.1206e-09,3.448e-09,5.4528e-09,8.3871e-09,1.2547e-08,1.8256e-08,2.5834e-08,3.5557e-08,4.7599e-08,6.1973e-08,7.8477e-08,9.6654e-08,1.1578e-07,1.3489e-07,1.5285e-07,1.6846e-07,1.8057e-07,1.8826e-07,1.9089e-07,1.8826e-07,1.8057e-07,1.6846e-07,1.5285e-07,1.3489e-07,1.1578e-07,9.6654e-08,7.8477e-08,6.1973e-08,4.7599e-08,3.5557e-08,2.5834e-08,1.8256e-08,1.2547e-08,8.3871e-09,5.4528e-09,3.448e-09,2.1206e-09,1.2685e-09,7.3796e-10,4.1757e-10,2.298e-10,1.2301e-10,6.4036e-11,3.2424e-11,1.5968e-11,7.648e-12,3.5628e-12,1.6143e-12,7.1138e-13,3.049e-13,1.271e-13,5.1532e-14,2.0321e-14,7.7937e-15,2.9072e-15,1.0548e-15
-4.3258e-31,-1.1923e-30,-3.1963e-30,-8.3339e-30,-2.1134e-29,-5.2126e-29,-1.2504e-28,-2.9175e-28,-6.6205e-28,-1.4612e-27,-3.1366e-27,-6.5486e-27,-1.3298e-26,-2.6262e-26,-5.0446e-26,-9.4246e-26,-1.7125e-25,-3.0265e-25,-5.2022e-25,-8.6969e-25,-1.4141e-24,-2.2363e-24,-3.4397e-24,-5.1457e-24,-7.4869e-24,-1.0595e-23,-1.4583e-23,-1.9521e-23,-2.5416e-23,-3.2185e-23,-3.9639e-23,-4.7483e-23,-5.5321e-23,-6.2687e-23,-6.9088e-23,-7.4056e-23,-7.7207e-23,-7.8287e-23,-7.7207e-23,-7.4056e-23,-6.9088e-23,-6.2687e-23,-5.5321e-23,-4.7483e-23,-3.9639e-23,-3.2185e-23,-2.5416e-23,-1.9521e-23,-1.4583e-23,-1.0595e-23,-7.4869e-24,-5.1457e-24,-3.4397e-24,-2.2363e-24,-1.4141e-24,-8.6969e-25,-5.2022e-25,-3.0265e-25,-1.7125e-25,-9.4246e-26,-5.0446e-26,-2.6262e-26,-1.3298e-26,-6.5486e-27,-3.1366e-27,-1.4612e-27,-6.6205e-28,-2.9175e-28,-1.2504e-28,-5.2126e-29,-2.1134e-29,-8.3339e-30,-3.1963e-30,-1.1923e-30,-4.3258e-31
-1.5952e-16,-4.3969e-16,-1.1787e-15,-3.0733e-15,-7.7937e-15,-1.9223e-14,-4.6113e-14,-1.0759e-13,-2.4414e-13,-5.3884e-13,-1.1567e-12,-2.4149e-12,-4.9038e-12,-9.6848e-12,-1.8603e-11,-3.4755e-11,-6.3153e-11,-1.1161e-10,-1.9184e-10,-3.2072e-10,-5.2148e-10,-8.2469e-10,-1.2685e-09,-1.8976e-09,-2.761e-09,-3.9071e-09,-5.3776e-09,-7.1988e-09,-9.3727e-09,-1.1869e-08,-1.4618e-08,-1.7511e-08,-2.0401e-08,-2.3117e-08,-2.5478e-08,-2.731e-08,-2.8472e-08,-2.887e-08,-2.8472e-08,-2.731e-08,-2.5478e-08,-2.3117e-08,-2.0401e-08,-1.7511e-08,-1.4618e-08,-1.1869e-08,-9.3727e-09,-7.1988e-09,-5.3776e-09,-3.9071e-09,-2.761e-09,-1.8976e-09,-1.2685e-09,-8.2469e-10,-5.2148e-10,-3.2072e-10,-1.9184e-10,-1.1161e-10,-6.3153e-11,-3.4755e-11,-1.8603e-11,-9.6848e-12,-4.9038e-12,-2.4149e-12,-1.1567e-12,-5.3884e-13,-2.4414e-13,-1.0759e-13,-4.6113e-14,-1.9223e-14,-7.7937e-15,-3.0733e-15,-1.1787e-15,-4.3969e-16,-1.5952e-16
-8.4154e-17,-2.3195e-16,-6.2182e-16,-1.6213e-15,-4.1115e-15,-1.0141e-14,-2.4326e-14,-5.6757e-14,-1.2879e-13,-2.8426e-13,-6.1019e-13,-1.274e-12,-2.5869e-12,-5.1091e-12,-9.8139e-12,-1.8335e-11,-3.3315e-11,-5.8878e-11,-1.012e-10,-1.6919e-10,-2.751e-10,-4.3505e-10,-6.6916e-10,-1.001e-09,-1.4565e-09,-2.0612e-09,-2.8369e-09,-3.7976e-09,-4.9445e-09,-6.2612e-09,-7.7115e-09,-9.2374e-09,-1.0762e-08,-1.2195e-08,-1.344e-08,-1.4407e-08,-1.502e-08,-1.523e-08,-1.502e-08,-1.4407e-08,-1.344e-08,-1.2195e-08,-1.0762e-08,-9.2374e-09,-7.7115e-09,-6.2612e-09,-4.9445e-09,-3.7976e-09,-2.8369e-09,-2.0612e-09,-1.4565e-09,-1.001e-09,-6.6916e-10,-4.3505e-10,-2.751e-10,-1.6919e-10,-1.012e-10,-5.8878e-11,-3.3315e-11,-1.8335e-11,-9.8139e-12,-5.1091e-12,-2.5869e-12,-1.274e-12,-6.1019e-13,-2.8426e-13,-1.2879e-13,-5.6757e-14,-2.4326e-14,-1.0141e-14,-4.1115e-15,-1.6213e-15,-6.2182e-16,-2.3195e-16,-8.4154e-17
-2.1589e-17,-5.9506e-17,-1.5952e-16,-4.1593e-16,-1.0548e-15,-2.6015e-15,-6.2407e-15,-1.4561e-14,-3.3041e-14,-7.2925e-14,-1.5654e-13,-3.2683e-13,-6.6365e-13,-1.3107e-12,-2.5177e-12,-4.7036e-12,-8.5468e-12,-1.5105e-11,-2.5963e-11,-4.3404e-11,-7.0575e-11,-1.1161e-10,-1.7167e-10,-2.5681e-10,-3.7366e-10,-5.2877e-10,-7.2778e-10,-9.7425e-10,-1.2685e-09,-1.6063e-09,-1.9783e-09,-2.3698e-09,-2.761e-09,-3.1286e-09,-3.448e-09,-3.696e-09,-3.8532e-09,-3.9071e-09,-3.8532e-09,-3.696e-09,-3.448e-09,-3.1286e-09,-2.761e-09,-2.3698e-09,-1.9783e-09,-1.6063e-09,-1.2685e-09,-9.7425e-10,-7.2778e-10,-5.2877e-10,-3.7366e-10,-2.5681e-10,-1.7167e-10,-1.1161e-10,-7.0575e-11,-4.3404e-11,-2.5963e-11,-1.5105e-11,-8.5468e-12,-4.7036e-12,-2.5177e-12,-1.3107e-12,-6.6365e-13,-3.2683e-13,-1.5654e-13,-7.2925e-14,-3.3041e-14,-1.4561e-14,-6.2407e-15,-2.6015e-15,-1.0548e-15,-4.1593e-16,-1.5952e-16,-5.9506e-17,-2.1589e-17
