8.1218e-18,-2.6337e-18,-7.35e-17,-3.4769e-16,-1.1984e-15,-3.4718e-15,-8.8197e-15,-1.9879e-14,-3.948e-14,-6.6897e-14,-8.7282e-14,-4.8305e-14,1.8265e-13,8.8283e-13,2.5467e-12,5.9208e-12,1.1907e-11,2.1187e-11,3.3399e-11,4.5783e-11,5.1423e-11,3.7627e-11,-1.4522e-11,-1.2808e-10,-3.2439e-10,-6.1324e-10,-9.8059e-10,-1.3778e-09,-1.7177e-09,-1.8838e-09,-1.7533e-09,-1.2329e-09,-2.9706e-10,9.8457e-10,2.4439e-09,3.8413e-09,4.9193e-09,5.4682e-09,5.3828e-09,4.6906e-09,3.5428e-09,2.1704e-09,8.2218e-10,-2.9589e-10,-1.061e-09,-1.4451e-09,-1.4998e-09,-1.3241e-09,-1.029e-09,-7.0961e-10,-4.2961e-10,-2.1942e-10,-8.2827e-11,-7.5105e-12,2.4979e-11,3.2268e-11,2.7683e-11,1.9538e-11,1.2006e-11,6.5385e-12,3.1491e-12,1.3098e-12,4.3686e-13,8.4386e-14,-2.5832e-14,-4.1818e-14,-3.0744e-14,-1.7532e-14,-8.5478e-15,-3.6747e-15,-1.4015e-15,-4.6824e-16,-1.3111e-16,-2.6441e-17,-5.816e-19
-3.7085e-17,-1.5928e-16,-5.4167e-16,-1.5847e-15,-4.0956e-15,-9.3855e-15,-1.8778e-14,-3.1167e-14,-3.5688e-14,5.6259e-15,1.9215e-13,7.4116e-13,2.0605e-12,4.8015e-12,9.8025e-12,1.7754e-11,2.8351e-11,3.8705e-11,4.0968e-11,1.9618e-11,-5.0427e-11,-2.0279e-10,-4.732e-10,-8.857e-10,-1.4319e-09,-2.0472e-09,-2.5939e-09,-2.8614e-09,-2.5961e-09,-1.5625e-09,3.7265e-10,3.158e-09,6.5085e-09,9.9199e-09,1.2757e-08,1.4404e-08,1.4431e-08,1.2727e-08,9.5466e-09,5.4536e-09,1.1767e-09,-2.5768e-09,-5.2863e-09,-6.7161e-09,-6.9228e-09,-6.1855e-09,-4.8926e-09,-3.427e-09,-2.0834e-09,-1.0317e-09,-3.2306e-10,7.6899e-11,2.4662e-10,2.7288e-10,2.2825e-10,1.6204e-10,1.012e-10,5.6081e-11,2.7307e-11,1.1245e-11,3.4541e-12,3.0182e-13,-6.1856e-13,-6.5718e-13,-4.5542e-13,-2.5866e-13,-1.2776e-13,-5.5905e-14,-2.1644e-14,-7.2478e-15,-1.9555e-15,-3.1433e-16,6.5446e-17,9.1608e-17,5.4634e-17
-2.0876e-16,-6.1939e-16,-1.6295e-15,-3.7872e-15,-7.5724e-15,-1.1991e-14,-1.015e-14,2.1878e-14,1.4858e-13,5.1687e-13,1.4156e-12,3.3297e-12,6.9148e-12,1.2735e-11,2.05e-11,2.7462e-11,2.5733e-11,-1.3075e-12,-8.2465e-11,-2.5961e-10,-5.8223e-10,-1.0914e-09,-1.7907e-09,-2.6061e-09,-3.3462e-09,-3.68e-09,-3.1584e-09,-1.2967e-09,2.2796e-09,7.6525e-09,1.445e-08,2.1776e-08,2.83e-08,3.2513e-08,3.311e-08,2.9391e-08,2.1534e-08,1.0643e-08,-1.4828e-09,-1.2785e-08,-2.1458e-08,-2.6373e-08,-2.7278e-08,-2.4752e-08,-1.9927e-08,-1.4132e-08,-8.542e-09,-3.962e-09,-7.5296e-10,1.1053e-09,1.8786e-09,1.9298e-09,1.6012e-09,1.15e-09,7.3093e-10,4.1152e-10,2.0135e-10,8.0572e-11,2.0811e-11,-3.2115e-12,-9.4142e-12,-8.4677e-12,-5.709e-12,-3.2595e-12,-1.6358e-12,-7.2847e-13,-2.8526e-13,-9.4692e-14,-2.3654e-14,-1.9182e-15,2.5121e-15,2.1991e-15,1.2313e-15,5.6281e-16,2.2343e-16
-5.5517e-16,-1.303e-15,-2.5708e-15,-3.6972e-15,-9.13e-16,1.8823e-14,9.1662e-14,3.032e-13,8.2906e-13,1.977e-12,4.1794e-12,7.8089e-12,1.2573e-11,1.612e-11,1.1455e-11,-1.6966e-11,-9.7781e-11,-2.7564e-10,-6.0806e-10,-1.1499e-09,-1.9188e-09,-2.8402e-09,-3.678e-09,-3.9759e-09,-3.0454e-09,-4.6452e-11,5.8094e-09,1.4942e-08,2.7039e-08,4.0774e-08,5.3765e-08,6.2877e-08,6.4909e-08,5.7499e-08,3.9997e-08,1.3975e-08,-1.6864e-08,-4.744e-08,-7.2513e-08,-8.7995e-08,-9.1935e-08,-8.4871e-08,-6.9465e-08,-4.9614e-08,-2.9349e-08,-1.1894e-08,8.752e-10,8.4982e-09,1.1625e-08,1.1523e-08,9.5868e-09,6.9907e-09,4.5226e-09,2.5789e-09,1.256e-09,4.7273e-10,7.8132e-11,-7.7675e-11,-1.0968e-10,-9.1126e-11,-6.0869e-11,-3.5143e-11,-1.7948e-11,-8.1219e-12,-3.1981e-12,-1.0338e-12,-2.1983e-13,2.1364e-14,5.9012e-14,4.3177e-14,2.3468e-14,1.0776e-14,4.3459e-15,1.5552e-15,4.8975e-16
-7.2611e-16,-8.4838e-16,1.0205e-15,1.1013e-14,4.6604e-14,1.5071e-13,4.1489e-13,1.0057e-12,2.1632e-12,4.0837e-12,6.4974e-12,7.6124e-12,1.9841e-12,-2.3043e-11,-9.2083e-11,-2.4595e-10,-5.4115e-10,-1.0372e-09,-1.7618e-09,-2.6463e-09,-3.4308e-09,-3.56e-09,-2.1152e-09,2.1466e-09,1.057e-08,2.4156e-08,4.2926e-08,6.5267e-08,8.7518e-08,1.0411e-07,1.0845e-07,9.4584e-08,5.9155e-08,3.1846e-09,-6.7171e-08,-1.4131e-07,-2.0637e-07,-2.5037e-07,-2.6532e-07,-2.4933e-07,-2.0694e-07,-1.4764e-07,-8.3199e-08,-2.4588e-08,2.0403e-08,4.8312e-08,5.9801e-08,5.844e-08,4.9087e-08,3.6413e-08,2.3953e-08,1.3764e-08,6.5724e-09,2.181e-09,-6.7378e-11,-9.2735e-10,-1.0349e-09,-8.2746e-10,-5.5376e-10,-3.2451e-10,-1.687e-10,-7.735e-11,-3.0349e-11,-9.2644e-12,-1.3183e-12,8.94e-13,1.0521e-12,7.0716e-13,3.803e-13,1.7651e-13,7.2434e-14,2.6346e-14,8.3479e-15,2.1796e-15,3.8087e-16
7.9289e-16,5.0191e-15,1.9845e-14,6.3766e-14,1.7769e-13,4.3841e-13,9.5774e-13,1.815e-12,2.7973e-12,2.7041e-12,-2.1641e-12,-2.075e-11,-7.1319e-11,-1.8586e-10,-4.1146e-10,-8.015e-10,-1.3854e-09,-2.1034e-09,-2.6984e-09,-2.5735e-09,-6.5865e-10,4.6276e-09,1.5199e-08,3.2789e-08,5.8055e-08,8.9433e-08,1.2207e-07,1.4739e-07,1.5384e-07,1.2915e-07,6.3935e-08,-4.4239e-08,-1.8769e-07,-3.4789e-07,-4.9805e-07,-6.0888e-07,-6.5608e-07,-6.272e-07,-5.2557e-07,-3.6973e-07,-1.8863e-07,-1.3989e-08,1.2746e-07,2.1959e-07,2.5886e-07,2.5268e-07,2.1521e-07,1.6251e-07,1.0843e-07,6.2299e-08,2.8429e-08,7.0695e-09,-4.0334e-09,-8.0819e-09,-8.1046e-09,-6.379e-09,-4.3077e-09,-2.5677e-09,-1.3575e-09,-6.2758e-10,-2.4184e-10,-6.5635e-11,2.6122e-13,1.6612e-11,1.5138e-11,9.7655e-12,5.2573e-12,2.476e-12,1.0343e-12,3.8129e-13,1.2051e-13,2.9822e-14,3.6237e-15,-1.6843e-15,-1.6578e-15
7.1419e-15,2.3034e-14,6.519e-14,1.637e-13,3.6202e-13,6.8185e-13,9.827e-13,5.6375e-13,-2.759e-12,-1.4456e-11,-4.621e-11,-1.1952e-10,-2.6772e-10,-5.3075e-10,-9.3197e-10,-1.4215e-09,-1.7706e-09,-1.4129e-09,7.3922e-10,6.4208e-09,1.7935e-08,3.7672e-08,6.7068e-08,1.0499e-07,1.4583e-07,1.7806e-07,1.8415e-07,1.4286e-07,3.4355e-08,-1.5242e-07,-4.1221e-07,-7.184e-07,-1.0236e-06,-1.2675e-06,-1.3901e-06,-1.3493e-06,-1.1337e-06,-7.6978e-07,-3.1651e-07,1.4822e-07,5.4737e-07,8.2333e-07,9.4973e-07,9.3361e-07,8.0838e-07,6.2105e-07,4.1859e-07,2.3749e-07,9.8745e-08,8.1582e-09,-3.9684e-08,-5.6066e-08,-5.3364e-08,-4.1912e-08,-2.869e-08,-1.7408e-08,-9.338e-09,-4.3201e-09,-1.5958e-09,-3.3243e-10,1.3016e-10,2.2208e-10,1.805e-10,1.1444e-10,6.2134e-11,2.976e-11,1.2645e-11,4.7027e-12,1.4622e-12,3.2419e-13,3.9664e-15,-4.8843e-14,-3.6386e-14,-1.8941e-14,-8.2034e-15
2.0494e-14,5.2316e-14,1.1649e-13,2.1457e-13,2.6923e-13,-7.3547e-14,-1.93e-12,-8.1906e-12,-2.5288e-11,-6.5599e-11,-1.492e-10,-3.0107e-10,-5.3538e-10,-8.125e-10,-9.5042e-10,-4.7627e-10,1.5732e-09,6.8407e-09,1.7683e-08,3.6818e-08,6.6294e-08,1.0561e-07,1.4905e-07,1.8297e-07,1.8413e-07,1.2104e-07,-4.0374e-08,-3.2627e-07,-7.4113e-07,-1.2549e-06,-1.7968e-06,-2.2602e-06,-2.5229e-06,-2.4774e-06,-2.0652e-06,-1.3022e-06,-2.8568e-07,8.2326e-07,1.8367e-06,2.5868e-06,2.9665e-06,2.9524e-06,2.602e-06,2.0301e-06,1.3731e-06,7.5376e-07,2.5672e-07,-8.0508e-08,-2.6218e-07,-3.202e-07,-2.9765e-07,-2.3528e-07,-1.6371e-07,-1.0107e-07,-5.4791e-08,-2.5067e-08,-8.4871e-09,-7.0937e-10,2.0271e-09,2.3521e-09,1.8079e-09,1.1426e-09,6.2865e-10,3.0651e-10,1.3217e-10,4.9232e-11,1.4715e-11,2.5582e-12,-6.8478e-13,-1.0024e-12,-6.6065e-13,-3.3741e-13,-1.473e-13,-5.6693e-14,-1.9358e-14
3.1767e-14,5.5671e-14,5.0374e-14,-1.3821e-13,-1.0026e-12,-3.8597e-12,-1.1756e-11,-3.0793e-11,-7.125e-11,-1.4618e-10,-2.619e-10,-3.8943e-10,-4.0031e-10,5.1446e-11,1.7074e-09,5.9091e-09,1.4716e-08,3.0706e-08,5.6125e-08,9.1008e-08,1.3013e-07,1.591e-07,1.5097e-07,6.5365e-08,-1.4693e-07,-5.318e-07,-1.1121e-06,-1.8641e-06,-2.6982e-06,-3.4538e-06,-3.918e-06,-3.8703e-06,-3.1461e-06,-1.7007e-06,3.4829e-07,2.7224e-06,5.0327e-06,6.8707e-06,7.9117e-06,7.9978e-06,7.1739e-06,5.6649e-06,3.8059e-06,1.9495e-06,3.8194e-07,-7.2896e-07,-1.3446e-06,-1.5307e-06,-1.413e-06,-1.1304e-06,-8.0047e-07,-5.02e-07,-2.7329e-07,-1.2126e-07,-3.4128e-08,7.0615e-09,2.0624e-08,2.0464e-08,1.5331e-08,9.7458e-09,5.4492e-09,2.7036e-09,1.1787e-09,4.3476e-10,1.1978e-10,9.5854e-12,-1.6985e-11,-1.6213e-11,-1.0066e-11,-5.1197e-12,-2.264e-12,-8.8699e-13,-3.0747e-13,-9.2202e-14,-2.2293e-14
2.2608e-15,-7.8184e-14,-4.171e-13,-1.5311e-12,-4.6593e-12,-1.2377e-11,-2.9153e-11,-6.0664e-11,-1.0863e-10,-1.5418e-10,-1.1761e-10,2.2193e-10,1.3595e-09,4.2392e-09,1.0398e-08,2.1898e-08,4.0715e-08,6.7136e-08,9.677e-08,1.1613e-07,9.7674e-08,-3.5334e-09,-2.4797e-07,-7.0052e-07,-1.4074e-06,-2.3623e-06,-3.4701e-06,-4.5215e-06,-5.1981e-06,-5.1198e-06,-3.9391e-06,-1.4605e-06,2.2467e-06,6.7917e-06,1.1493e-05,1.5512e-05,1.805e-05,1.8565e-05,1.6927e-05,1.3455e-05,8.8321e-06,3.9198e-06,-4.6388e-07,-3.7297e-06,-5.6157e-06,-6.1823e-06,-5.7258e-06,-4.6515e-06,-3.3528e-06,-2.1289e-06,-1.1526e-06,-4.793e-07,-8.2543e-08,1.0578e-07,1.6172e-07,1.4886e-07,1.1061e-07,7.1129e-08,4.0475e-08,2.0402e-08,8.9393e-09,3.2051e-09,7.4382e-10,-9.943e-11,-2.6643e-10,-2.1492e-10,-1.2979e-10,-6.6349e-11,-2.9812e-11,-1.1886e-11,-4.1675e-12,-1.2391e-12,-2.7758e-13,-2.0527e-14,2.3339e-14
-1.4324e-13,-5.1486e-13,-1.5783e-12,-4.2626e-12,-1.0214e-11,-2.1466e-11,-3.7937e-11,-4.8946e-11,-1.1325e-11,1.9739e-10,8.631e-10,2.5578e-09,6.2629e-09,1.3371e-08,2.5307e-08,4.2336e-08,6.1046e-08,7.0147e-08,4.4894e-08,-5.8194e-08,-3.028e-07,-7.6513e-07,-1.5117e-06,-2.5595e-06,-3.824e-06,-5.0676e-06,-5.8763e-06,-5.6903e-06,-3.9115e-06,-8.0398e-08,5.9112e-06,1.3646e-05,2.2121e-05,2.9871e-05,3.5264e-05,3.6922e-05,3.4127e-05,2.7075e-05,1.6882e-05,5.3219e-06,-5.6217e-06,-1.4249e-05,-1.9521e-05,-2.1215e-05,-1.9846e-05,-1.6402e-05,-1.202e-05,-7.6873e-06,-4.0739e-06,-1.4823e-06,9.0685e-08,8.3895e-07,1.0297e-06,9.1425e-07,6.8108e-07,4.4465e-07,2.5754e-07,1.3149e-07,5.7357e-08,1.9354e-08,2.8941e-09,-2.5149e-09,-3.1955e-09,-2.3791e-09,-1.4232e-09,-7.3567e-10,-3.3637e-10,-1.3629e-10,-4.8055e-11,-1.3919e-11,-2.6585e-12,2.2262e-13,5.6518e-13,3.709e-13,1.8058e-13
-4.5758e-13,-1.2579e-12,-3.0608e-12,-6.4533e-12,-1.1025e-11,-1.1583e-11,1.215e-11,1.1898e-10,4.5147e-10,1.3076e-09,3.2232e-09,6.9952e-09,1.3471e-08,2.277e-08,3.2451e-08,3.4104e-08,8.2204e-09,-8.1764e-08,-2.9345e-07,-7.0224e-07,-1.3836e-06,-2.3742e-06,-3.6108e-06,-4.8559e-06,-5.6377e-06,-5.2427e-06,-2.804e-06,2.489e-06,1.1078e-05,2.2694e-05,3.6119e-05,4.9171e-05,5.9031e-05,6.287e-05,5.8644e-05,4.5815e-05,2.5711e-05,1.3709e-06,-2.3128e-05,-4.3676e-05,-5.7143e-05,-6.2079e-05,-5.89e-05,-4.9555e-05,-3.6824e-05,-2.3529e-05,-1.1884e-05,-3.1663e-06,2.3002e-06,4.911e-06,5.4487e-06,4.7687e-06,3.5864e-06,2.3818e-06,1.4028e-06,7.2181e-07,3.0877e-07,9.1974e-08,-2.2252e-09,-3.098e-08,-3.1023e-08,-2.222e-08,-1.3315e-08,-6.9861e-09,-3.2515e-09,-1.3348e-09,-4.6907e-10,-1.2836e-10,-1.6504e-11,9.7913e-12,1.0373e-11,6.2487e-12,3.0095e-12,1.2506e-12,4.5947e-13
-7.8293e-13,-1.6389e-12,-2.6081e-12,-1.5351e-12,9.8079e-12,5.5814e-11,1.9775e-10,5.69e-10,1.4196e-09,3.1358e-09,6.1334e-09,1.0409e-08,1.4375e-08,1.2491e-08,-8.6983e-09,-7.5869e-08,-2.3383e-07,-5.458e-07,-1.0819e-06,-1.8868e-06,-2.9199e-06,-3.9695e-06,-4.5613e-06,-3.9017e-06,-9.1648e-07,5.5559e-06,1.6393e-05,3.1686e-05,5.0238e-05,6.929e-05,8.4674e-05,9.1539e-05,8.5564e-05,6.4371e-05,2.8671e-05,-1.7336e-05,-6.6567e-05,-0.00011062,-0.00014184,-0.00015526,-0.00014978,-0.00012819,-9.6187e-05,-6.0614e-05,-2.7744e-05,-1.9479e-06,1.485e-05,2.297e-05,2.426e-05,2.1205e-05,1.617e-05,1.0931e-05,6.5306e-06,3.3603e-06,1.3743e-06,3.0789e-07,-1.5376e-07,-2.7804e-07,-2.4993e-07,-1.7617e-07,-1.0652e-07,-5.6846e-08,-2.6907e-08,-1.1139e-08,-3.8452e-09,-9.366e-10,9.3776e-13,1.878e-10,1.5359e-10,8.8755e-11,4.2786e-11,1.8041e-11,6.7472e-12,2.2271e-12,6.304e-13
-4.7843e-13,2.0174e-13,4.5683e-12,2.1344e-11,7.3196e-11,2.1138e-10,5.356e-10,1.2042e-09,2.3844e-09,4.0222e-09,5.1976e-09,2.7039e-09,-1.1546e-08,-5.4407e-08,-1.5584e-07,-3.6096e-07,-7.2391e-07,-1.2849e-06,-2.02e-06,-2.7591e-06,-3.0793e-06,-2.2081e-06,1.0022e-06,7.9448e-06,1.9901e-05,3.7443e-05,5.9686e-05,8.3648e-05,0.00010403,0.00011373,0.00010536,7.3296e-05,1.6097e-05,-6.1919e-05,-0.00015047,-0.00023497,-0.00029981,-0.00033237,-0.00032636,-0.00028362,-0.00021341,-0.00012985,-4.8015e-05,1.9624e-05,6.57e-05,8.8605e-05,9.1542e-05,8.0574e-05,6.2461e-05,4.2963e-05,2.5928e-05,1.3177e-05,4.9149e-06,3.7752e-07,-1.5645e-06,-1.9849e-06,-1.6926e-06,-1.1904e-06,-7.2959e-07,-3.9634e-07,-1.9035e-07,-7.8865e-08,-2.6109e-08,-4.897e-09,1.6777e-09,2.5857e-09,1.8839e-09,1.0697e-09,5.2002e-10,2.23e-10,8.4829e-11,2.825e-11,7.8684e-12,1.5655e-12,2.0122e-14
1.5952e-12,6.7973e-12,2.3023e-11,6.7166e-11,1.7315e-10,3.9576e-10,7.8912e-10,1.3022e-09,1.467e-09,-3.3656e-10,-8.3304e-09,-3.1717e-08,-8.7717e-08,-2.0375e-07,-4.1489e-07,-7.4956e-07,-1.1934e-06,-1.6222e-06,-1.7012e-06,-7.7172e-07,2.2273e-06,8.7131e-06,2.0184e-05,3.7635e-05,6.0673e-05,8.6532e-05,0.00010935,0.0001202,0.00010838,6.4004e-05,-1.8437e-05,-0.00013662,-0.00027834,-0.00042216,-0.00054121,-0.00060952,-0.00060912,-0.00053557,-0.00039988,-0.00022611,-4.5142e-05,0.00011315,0.00022691,0.00028635,0.00029407,0.00026204,0.00020675,0.00014443,8.7479e-05,4.3031e-05,1.3176e-05,-3.5995e-06,-1.065e-05,-1.1663e-05,-9.7102e-06,-6.8727e-06,-4.2813e-06,-2.3665e-06,-1.1487e-06,-4.7072e-07,-1.4295e-07,-1.1001e-08,2.7041e-08,2.8183e-08,1.9409e-08,1.0984e-08,5.4108e-09,2.3619e-09,9.1188e-10,3.0418e-10,8.1481e-11,1.2747e-11,-2.9833e-12,-3.9497e-12,-2.3337e-12
6.1759e-12,1.8276e-11,4.7962e-11,1.1115e-10,2.2133e-10,3.4767e-10,2.8369e-10,-6.8145e-10,-4.4561e-09,-1.5375e-08,-4.1938e-08,-9.8359e-08,-2.0375e-07,-3.7428e-07,-6.0046e-07,-7.9985e-07,-7.3808e-07,7.669e-08,2.4939e-06,7.7444e-06,1.7276e-05,3.2279e-05,5.2824e-05,7.6687e-05,9.8176e-05,0.00010751,9.1455e-05,3.5794e-05,-7.0369e-05,-0.00022924,-0.00042962,-0.00064492,-0.00083579,-0.00095782,-0.00097282,-0.00086054,-0.00062671,-0.00030428,5.3444e-05,0.00038577,0.00063969,0.00078226,0.00080657,0.00072999,0.00058622,0.00041449,0.00024941,0.00011455,2.0372e-05,-3.3897e-05,-5.6219e-05,-5.735e-05,-4.7407e-05,-3.3955e-05,-2.1528e-05,-1.2088e-05,-5.8929e-06,-2.3429e-06,-5.9261e-07,1.0654e-07,2.8351e-07,2.5227e-07,1.6928e-07,9.6351e-08,4.8232e-08,2.1425e-08,8.3638e-09,2.7632e-09,6.8274e-10,5.0004e-11,-7.6663e-11,-6.5746e-11,-3.6576e-11,-1.6658e-11,-6.5955e-12
1.1375e-11,2.6612e-11,5.2234e-11,7.4166e-11,1.3924e-11,-3.9828e-10,-1.9076e-09,-6.2732e-09,-1.7095e-08,-4.0657e-08,-8.5736e-08,-1.5974e-07,-2.5616e-07,-3.2587e-07,-2.2399e-07,3.7002e-07,2.0448e-06,5.7153e-06,1.2555e-05,2.3674e-05,3.9408e-05,5.8178e-05,7.509e-05,8.0727e-05,6.094e-05,-1.4715e-06,-0.00012256,-0.00031072,-0.00055922,-0.00084051,-0.0011054,-0.0012895,-0.0013274,-0.0011709,-0.00080754,-0.00027037,0.00036397,0.00099085,0.0015028,0.0018164,0.0018923,0.0017426,0.0014225,0.0010125,0.00059546,0.0002373,-2.3802e-05,-0.00017886,-0.00024158,-0.00023823,-0.00019757,-0.0001437,-9.2729e-05,-5.2721e-05,-2.5563e-05,-9.5312e-06,-1.4871e-06,1.6641e-06,2.2884e-06,1.8876e-06,1.2561e-06,7.2318e-07,3.6842e-07,1.6627e-07,6.5239e-08,2.0958e-08,4.37e-09,-5.0569e-10,-1.2394e-09,-8.9668e-10,-4.8502e-10,-2.2201e-10,-8.931e-11,-3.188e-11,-1.0009e-11
1.0245e-11,1.1677e-11,-1.5901e-11,-1.6082e-10,-6.7395e-10,-2.1696e-09,-5.955e-09,-1.4399e-08,-3.0892e-08,-5.8132e-08,-9.2027e-08,-1.0651e-07,-2.3036e-08,3.4025e-07,1.3359e-06,3.5469e-06,7.777e-06,1.4866e-05,2.519e-05,3.773e-05,4.8722e-05,5.0176e-05,2.892e-05,-3.2806e-05,-0.00015413,-0.00034913,-0.00061777,-0.00093655,-0.0012527,-0.0014863,-0.0015433,-0.0013387,-0.00082582,-2.0239e-05,0.00098871,0.0020485,0.002975,0.0035971,0.003802,0.003564,0.0029495,0.0020957,0.0011713,0.0003331,-0.00030803,-0.00070355,-0.00086386,-0.00084079,-0.0007042,-0.00052108,-0.00034187,-0.00019579,-9.2958e-05,-3.0364e-05,1.537e-06,1.3614e-05,1.4992e-05,1.1924e-05,7.9539e-06,4.6491e-06,2.4108e-06,1.1021e-06,4.3057e-07,1.3025e-07,1.7618e-08,-1.3384e-08,-1.5303e-08,-1.0211e-08,-5.4698e-09,-2.5316e-09,-1.0363e-09,-3.7592e-10,-1.187e-10,-3.0803e-11,-5.2847e-12
-8.2065e-12,-5.0809e-11,-1.9957e-10,-6.3889e-10,-1.7755e-09,-4.3698e-09,-9.5201e-09,-1.7975e-08,-2.7517e-08,-2.5994e-08,2.3771e-08,2.1131e-07,7.1892e-07,1.865e-06,4.1162e-06,7.9978e-06,1.3789e-05,2.087e-05,2.6642e-05,2.5115e-05,5.591e-06,-4.769e-05,-0.00015373,-0.00032959,-0.00058151,-0.00089341,-0.0012164,-0.0014647,-0.0015229,-0.0012692,-0.00061097,0.00047431,0.0019084,0.0035048,0.0049958,0.0060896,0.0065452,0.006241,0.0052128,0.0036481,0.0018369,9.6018e-05,-0.001309,-0.0022191,-0.002601,-0.0025302,-0.0021493,-0.001619,-0.0010772,-0.00061639,-0.00027905,-6.7018e-05,4.2622e-05,8.2063e-05,8.1608e-05,6.3966e-05,4.3072e-05,2.561e-05,1.3504e-05,6.2222e-06,2.3845e-06,6.3755e-07,-1.1856e-08,-1.7013e-07,-1.5287e-07,-9.8084e-08,-5.2631e-08,-2.4723e-08,-1.0302e-08,-3.7867e-09,-1.1918e-09,-2.9235e-10,-3.3959e-11,1.7626e-11,1.6812e-11
-4.9966e-11,-1.6064e-10,-4.5348e-10,-1.1359e-09,-2.5045e-09,-4.6956e-09,-6.7003e-09,-3.583e-09,1.9942e-08,1.0203e-07,3.2391e-07,8.3462e-07,1.8644e-06,3.6871e-06,6.4568e-06,9.8125e-06,1.2142e-05,9.4837e-06,-5.7446e-06,-4.5598e-05,-0.00012602,-0.00026347,-0.00046762,-0.00073014,-0.0010116,-0.0012314,-0.0012674,-0.00097236,-0.00020944,0.0010965,0.0029065,0.0050334,0.0071464,0.0088248,0.0096549,0.0093452,0.0078227,0.0052739,0.0021133,-0.0011165,-0.0038809,-0.0057819,-0.0066399,-0.0065078,-0.0056207,-0.0043071,-0.0028937,-0.0016335,-0.00067076,-4.4427e-05,0.0002844,0.00039499,0.00037373,0.00029252,0.00019971,0.00012088,6.4656e-05,2.9794e-05,1.0921e-05,2.204e-06,-9.6345e-07,-1.5723e-06,-1.2669e-06,-7.9982e-07,-4.33e-07,-2.0688e-07,-8.767e-08,-3.2498e-08,-1.005e-08,-2.1969e-09,-3.0109e-12,3.4898e-10,2.5614e-10,1.326e-10,5.7239e-11
-9.9249e-11,-2.5269e-10,-5.6074e-10,-1.0267e-09,-1.2664e-09,4.5498e-10,9.5779e-09,4.0144e-08,1.2331e-07,3.1887e-07,7.2337e-07,1.456e-06,2.5815e-06,3.9003e-06,4.5189e-06,2.1312e-06,-7.9426e-06,-3.3659e-05,-8.6397e-05,-0.0001792,-0.00032178,-0.00051133,-0.00071974,-0.00088034,-0.00088032,-0.00056722,0.00022321,0.0016159,0.0036301,0.0061174,0.0087316,0.010956,0.012198,0.011941,0.009908,0.0061816,0.0012391,-0.0041346,-0.0090286,-0.012633,-0.014435,-0.014327,-0.012595,-0.0097999,-0.0066037,-0.0036004,-0.0011973,0.00042698,0.0012963,0.0015674,0.0014504,0.0011431,0.00079335,0.00048855,0.00026401,0.00012019,4.0212e-05,2.8667e-06,-1.0139e-05,-1.1552e-05,-8.8255e-06,-5.5582e-06,-3.0499e-06,-1.4833e-06,-6.3784e-07,-2.3667e-07,-7.0216e-08,-1.1857e-08,3.5538e-09,4.9486e-09,3.2322e-09,1.6437e-09,7.1545e-10,2.7468e-10,9.3548e-11
-1.0635e-10,-1.8483e-10,-1.607e-10,4.9148e-10,3.4435e-09,1.3151e-08,3.9892e-08,1.042e-07,2.4049e-07,4.9213e-07,8.787e-07,1.299e-06,1.314e-06,-2.5229e-07,-5.9105e-06,-2.0189e-05,-5.0016e-05,-0.00010403,-0.00018965,-0.00030676,-0.00043732,-0.00053238,-0.00050055,-0.00020551,0.00051831,0.0018243,0.0037872,0.0063237,0.0091279,0.011655,0.013186,0.01298,0.010486,0.0055631,-0.0013828,-0.0094037,-0.017183,-0.023344,-0.026797,-0.027019,-0.024175,-0.019032,-0.012728,-0.0064536,-0.001172,0.0025563,0.004608,0.0052105,0.0047919,0.003823,0.0027006,0.001689,0.00091614,0.00040381,0.00011115,-2.6445e-05,-7.111e-05,-6.9829e-05,-5.2072e-05,-3.3e-05,-1.8405e-05,-9.1082e-06,-3.9587e-06,-1.4531e-06,-3.9581e-07,-2.8016e-08,5.9294e-08,5.551e-08,3.4251e-08,1.7358e-08,7.6555e-09,2.9918e-09,1.0342e-09,3.0895e-10,7.4163e-11
-3.3329e-12,1.8931e-10,9.9415e-10,3.6285e-09,1.1005e-08,2.9157e-08,6.8505e-08,1.4214e-07,2.535e-07,3.5691e-07,2.626e-07,-5.5222e-07,-3.2554e-06,-1.0068e-05,-2.4594e-05,-5.1645e-05,-9.5782e-05,-0.00015753,-0.0002263,-0.00027005,-0.0002237,1.8602e-05,0.00059879,0.0016684,0.0033341,0.0055781,0.0081726,0.010622,0.012176,0.011942,0.0091067,0.0032215,-0.0055395,-0.016244,-0.027283,-0.036677,-0.042558,-0.043665,-0.039706,-0.031452,-0.020522,-0.0089489,0.0013462,0.0089858,0.013366,0.014641,0.013517,0.010952,0.0078746,0.0049852,0.0026868,0.0011065,0.00017856,-0.00025909,-0.00038639,-0.0003532,-0.00026146,-0.00016767,-9.5172e-05,-4.7845e-05,-2.0888e-05,-7.4409e-06,-1.6915e-06,2.6411e-07,6.4064e-07,5.112e-07,3.0725e-07,1.5659e-07,7.0178e-08,2.7909e-08,9.7555e-09,2.8869e-09,6.3972e-10,4.285e-11,-5.6877e-11
2.3725e-10,8.4901e-10,2.5949e-09,6.9906e-09,1.6708e-08,3.5002e-08,6.1542e-08,7.8399e-08,1.4026e-08,-3.3351e-07,-1.4341e-06,-4.2251e-06,-1.031e-05,-2.1954e-05,-4.1447e-05,-6.914e-05,-9.9299e-05,-0.00011322,-7.012e-05,0.0001014,0.00050557,0.0012666,0.002492,0.0042072,0.0062699,0.0082874,0.009578,0.0092245,0.0062499,-8.9541e-05,-0.0099582,-0.022656,-0.036527,-0.049159,-0.057884,-0.060455,-0.055717,-0.044019,-0.027214,-0.008226,0.0096916,0.023762,0.0323,0.034962,0.032613,0.026887,0.019651,0.012525,0.0065992,0.0023615,-0.00020026,-0.0014098,-0.0017083,-0.0015091,-0.0011206,-0.0007297,-0.00042159,-0.00021461,-9.3203e-05,-3.1156e-05,-4.4028e-06,4.3031e-06,5.3229e-06,3.9346e-06,2.3447e-06,1.2087e-06,5.5127e-07,2.2275e-07,7.8265e-08,2.2527e-08,4.2203e-09,-4.2247e-10,-9.4781e-10,-6.1497e-10,-2.9795e-10
5.2374e-10,1.4362e-09,3.4851e-09,7.3203e-09,1.242e-08,1.2732e-08,-1.5137e-08,-1.3873e-07,-5.2124e-07,-1.5029e-06,-3.6935e-06,-7.9958e-06,-1.5358e-05,-2.5878e-05,-3.6696e-05,-3.8102e-05,-7.6854e-06,9.6408e-05,0.00033992,0.00080854,0.0015875,0.0027169,0.0041216,0.0055273,0.0063922,0.0058997,0.0030621,-0.0030395,-0.012897,-0.026188,-0.0415,-0.056332,-0.067459,-0.071659,-0.066625,-0.051774,-0.02866,-0.00078369,0.027183,0.050551,0.065767,0.071207,0.067384,0.056551,0.041904,0.026665,0.013358,0.0034268,-0.002774,-0.0057101,-0.0062841,-0.0054775,-0.0041076,-0.0027212,-0.0015984,-0.00081973,-0.00034867,-0.00010224,4.2582e-06,3.6316e-05,3.588e-05,2.5564e-05,1.5269e-05,7.9906e-06,3.7097e-06,1.5185e-06,5.3131e-07,1.4409e-07,1.7626e-08,-1.1708e-08,-1.2047e-08,-7.2033e-09,-3.4557e-09,-1.432e-09,-5.2482e-10
6.2041e-10,1.2927e-09,2.036e-09,1.1054e-09,-8.1068e-09,-4.5111e-08,-1.5876e-07,-4.5515e-07,-1.1325e-06,-2.4954e-06,-4.8675e-06,-8.2299e-06,-1.129e-05,-9.5888e-06,7.6426e-06,6.1687e-05,0.00018818,0.00043724,0.00086408,0.0015031,0.0023202,0.0031444,0.0035956,0.0030403,0.0006243,-0.0045723,-0.013238,-0.025429,-0.040175,-0.055262,-0.067365,-0.072624,-0.067622,-0.050505,-0.021882,0.014855,0.05404,0.088975,0.11359,0.12397,0.11929,0.10184,0.076167,0.047749,0.021573,0.0010962,-0.012178,-0.018534,-0.019461,-0.016952,-0.012893,-0.0086946,-0.0051796,-0.0026544,-0.0010771,-0.00023315,0.00012981,0.00022541,0.00020092,0.00014104,8.5034e-05,4.5266e-05,2.137e-05,8.817e-06,3.0269e-06,7.2645e-07,-1.0126e-08,-1.5357e-07,-1.2383e-07,-7.1172e-08,-3.4197e-08,-1.4382e-08,-5.3653e-09,-1.7658e-09,-4.9772e-10
2.575e-10,-1.3524e-10,-2.5953e-09,-1.1982e-08,-4.0884e-08,-1.177e-07,-2.9746e-07,-6.6708e-07,-1.3169e-06,-2.2115e-06,-2.8296e-06,-1.3742e-06,6.665e-06,3.0657e-05,8.7213e-05,0.00020124,0.0004025,0.00071263,0.0011173,0.0015206,0.001686,0.0011836,-0.00062337,-0.0045049,-0.011165,-0.020907,-0.033225,-0.046445,-0.057613,-0.062795,-0.057892,-0.039833,-0.0078617,0.03557,0.084706,0.13143,0.16711,0.18475,0.18097,0.15683,0.11756,0.071027,0.025604,-0.011818,-0.037192,-0.049678,-0.051097,-0.044841,-0.034673,-0.023788,-0.014311,-0.0072361,-0.0026657,-0.00016605,0.00089533,0.0011165,0.00094643,0.00066333,0.00040546,0.00021971,0.00010523,4.3424e-05,1.4266e-05,2.5933e-06,-9.9219e-07,-1.4616e-06,-1.0557e-06,-5.9689e-07,-2.8933e-07,-1.2376e-07,-4.6956e-08,-1.5586e-08,-4.3179e-09,-8.4708e-10,-2.7386e-12
-6.2736e-10,-2.6527e-09,-8.9493e-09,-2.6034e-08,-6.695e-08,-1.5261e-07,-3.0326e-07,-4.9748e-07,-5.5102e-07,1.6836e-07,3.3009e-06,1.2411e-05,3.415e-05,7.907e-05,0.0001606,0.00028941,0.00045943,0.0006217,0.00064583,0.00027605,-0.00089807,-0.003423,-0.0078733,-0.014624,-0.023512,-0.033449,-0.042155,-0.046172,-0.041369,-0.023951,0.0081672,0.054026,0.10885,0.1643,0.20997,0.23588,0.23513,0.2061,0.15317,0.085699,0.01567,-0.045381,-0.089054,-0.11165,-0.11424,-0.10152,-0.079902,-0.055662,-0.033589,-0.01641,-0.0049075,0.0015267,0.0042042,0.0045581,0.0037777,0.0026658,0.0016564,0.00091325,0.0004419,0.00018019,5.408e-05,3.5724e-06,-1.08e-05,-1.1051e-05,-7.5643e-06,-4.2659e-06,-2.0958e-06,-9.1256e-07,-3.5134e-07,-1.1675e-07,-3.1042e-08,-4.7189e-09,1.2373e-09,1.5568e-09,9.1155e-10
-1.6709e-09,-4.9317e-09,-1.291e-08,-2.9832e-08,-5.9161e-08,-9.2159e-08,-7.23e-08,1.9356e-07,1.2219e-06,4.1824e-06,1.1362e-05,2.6572e-05,5.4908e-05,0.0001006,0.00016084,0.00021302,0.00019345,-3.0964e-05,-0.00068933,-0.0021125,-0.004688,-0.0087309,-0.014251,-0.020637,-0.026342,-0.028721,-0.02421,-0.0089939,0.019826,0.062789,0.11681,0.17467,0.22574,0.25805,0.2614,0.23041,0.16678,0.079481,-0.017033,-0.1064,-0.17438,-0.2122,-0.2181,-0.19689,-0.15772,-0.11118,-0.066593,-0.030278,-0.0050002,0.0094931,0.015382,0.015586,0.012836,0.0091686,0.0057985,0.003247,0.0015772,0.00062291,0.00015414,-3.1925e-05,-7.805e-05,-6.8726e-05,-4.5903e-05,-2.6048e-05,-1.3006e-05,-5.7626e-06,-2.2426e-06,-7.3733e-07,-1.8014e-07,-1.1717e-08,2.1371e-08,1.7973e-08,9.9359e-09,4.5091e-09,1.7805e-09
-2.1314e-09,-4.9703e-09,-9.7049e-09,-1.3598e-08,-1.7075e-09,7.7008e-08,3.63e-07,1.1869e-06,3.2235e-06,7.6465e-06,1.6084e-05,2.9882e-05,4.7727e-05,6.0229e-05,3.9952e-05,-7.3554e-05,-0.00039095,-0.0010837,-0.0023708,-0.0044576,-0.0074015,-0.010898,-0.014019,-0.014988,-0.011144,0.00073247,0.023632,0.059085,0.10577,0.15845,0.20785,0.24186,0.24823,0.21804,0.14906,0.047651,-0.071676,-0.18922,-0.2848,-0.34288,-0.35622,-0.32721,-0.2664,-0.18896,-0.11047,-0.043261,0.0055662,0.034406,0.045906,0.045042,0.037235,0.027012,0.017388,0.0098562,0.0047578,0.0017568,0.0002572,-0.00032551,-0.00043653,-0.00035757,-0.00023704,-0.0001361,-6.9164e-05,-3.1131e-05,-1.217e-05,-3.8847e-06,-7.9358e-07,1.0757e-07,2.3796e-07,1.7028e-07,9.167e-08,4.1832e-08,1.6785e-08,5.9763e-09,1.8705e-09
-1.3217e-09,-1.4674e-09,2.2511e-09,2.1469e-08,8.9122e-08,2.8564e-07,7.8168e-07,1.8853e-06,4.0344e-06,7.5676e-06,1.1919e-05,1.3622e-05,2.3127e-06,-4.5906e-05,-0.00017723,-0.00046778,-0.0010221,-0.0019486,-0.0032937,-0.0049194,-0.0063274,-0.0064659,-0.003608,0.004567,0.020547,0.046144,0.081306,0.12291,0.16398,0.19406,0.20083,0.17327,0.10536,-0.00067175,-0.133,-0.27154,-0.39219,-0.47264,-0.49825,-0.4659,-0.38445,-0.27202,-0.15075,-0.041135,0.042417,0.093673,0.11412,0.11062,0.092391,0.068195,0.044624,0.025469,0.012022,0.0038628,-0.00027624,-0.0018268,-0.0019858,-0.0015713,-0.0010448,-0.00060912,-0.00031507,-0.00014361,-5.5859e-05,-1.6741e-05,-2.1422e-06,1.829e-06,2.0353e-06,1.3482e-06,7.1945e-07,3.3206e-07,1.3559e-07,4.9054e-08,1.5434e-08,3.9803e-09,6.6993e-10
7.758e-10,4.703e-09,1.8353e-08,5.854e-08,1.6225e-07,3.9832e-07,8.6542e-07,1.6279e-06,2.4749e-06,2.2819e-06,-2.368e-06,-1.9671e-05,-6.6268e-05,-0.00017113,-0.00037658,-0.00072986,-0.0012551,-0.0018937,-0.0024054,-0.0022404,-0.00042063,0.0044902,0.014217,0.030297,0.053268,0.081621,0.11086,0.13311,0.13786,0.11403,0.053291,-0.046286,-0.17739,-0.32289,-0.45828,-0.55698,-0.59715,-0.56793,-0.47281,-0.32914,-0.1635,-0.0047846,0.12285,0.20506,0.239,0.23171,0.19632,0.1475,0.097861,0.05577,0.025043,0.0057941,-0.0041063,-0.0076181,-0.0075144,-0.0058659,-0.0039386,-0.002336,-0.0012285,-0.00056416,-0.00021498,-5.6593e-05,1.9263e-06,1.5924e-05,1.4116e-05,9.0092e-06,4.8185e-06,2.2576e-06,9.3837e-07,3.4391e-07,1.0777e-07,2.6202e-08,2.8982e-09,-1.6833e-09,-1.5589e-09
3.1969e-09,1.0246e-08,2.885e-08,7.2082e-08,1.5844e-07,2.957e-07,4.1763e-07,2.0641e-07,-1.3163e-06,-6.5838e-06,-2.0762e-05,-5.3302e-05,-0.00011874,-0.00023425,-0.00040909,-0.00061942,-0.00076139,-0.00058141,0.00040377,0.0029602,0.0080974,0.016851,0.029818,0.046439,0.064178,0.077879,0.079767,0.060498,0.011446,-0.072056,-0.18739,-0.3225,-0.45626,-0.56191,-0.61324,-0.59193,-0.49359,-0.33037,-0.12882,0.076467,0.25155,0.3713,0.42454,0.41486,0.35741,0.27318,0.18294,0.10274,0.041645,0.0020426,-0.018624,-0.025445,-0.023936,-0.018671,-0.012713,-0.0076757,-0.0040941,-0.001879,-0.00068337,-0.00013332,6.4981e-05,0.00010178,8.1316e-05,5.1122e-05,2.7596e-05,1.3152e-05,5.559e-06,2.0538e-06,6.3164e-07,1.3606e-07,-1.3717e-09,-2.2787e-08,-1.6488e-08,-8.4893e-09,-3.6524e-09
4.3958e-09,1.1162e-08,2.4683e-08,4.4924e-08,5.4427e-08,-2.4535e-08,-4.3446e-07,-1.7991e-06,-5.4991e-06,-1.4175e-05,-3.2074e-05,-6.4398e-05,-0.00011383,-0.00017121,-0.00019642,-8.6612e-05,0.00036615,0.0015143,0.0038601,0.0079765,0.014284,0.022641,0.031784,0.038735,0.038483,0.02428,-0.011114,-0.073159,-0.16259,-0.27271,-0.38805,-0.48566,-0.53936,-0.52639,-0.43467,-0.26824,-0.048472,0.18967,0.40581,0.56417,0.64232,0.63582,0.55757,0.43264,0.29043,0.15724,0.05099,-0.020556,-0.05859,-0.070164,-0.064637,-0.050788,-0.03516,-0.021597,-0.011634,-0.0052693,-0.0017414,-0.00010173,0.00046331,0.00051877,0.00039398,0.00024726,0.00013532,6.5649e-05,2.8151e-05,1.0404e-05,3.0633e-06,5.0154e-07,-1.6794e-07,-2.2335e-07,-1.4461e-07,-7.3225e-08,-3.178e-08,-1.217e-08,-4.1342e-09
3.256e-09,5.6101e-09,4.6719e-09,-1.5943e-08,-1.0813e-07,-4.0974e-07,-1.238e-06,-3.2245e-06,-7.4238e-06,-1.5151e-05,-2.696e-05,-3.9623e-05,-3.9409e-05,1.0219e-05,0.000187,0.00063074,0.0015546,0.0032231,0.0058609,0.0094561,0.013441,0.01629,0.015172,0.0058762,-0.016691,-0.057221,-0.11794,-0.19619,-0.2824,-0.35969,-0.40586,-0.39808,-0.31957,-0.16624,0.049091,0.29692,0.53649,0.72533,0.83003,0.8348,0.74501,0.58474,0.38923,0.1953,0.032558,-0.081874,-0.14439,-0.1622,-0.14862,-0.11825,-0.083324,-0.051971,-0.028085,-0.012295,-0.0033063,0.00089702,0.0022414,0.0021789,0.0016174,0.0010219,0.0005685,0.00028062,0.00012158,4.4409e-05,1.1956e-05,7.3071e-07,-1.891e-06,-1.7379e-06,-1.0657e-06,-5.3821e-07,-2.3673e-07,-9.2287e-08,-3.1813e-08,-9.4667e-09,-2.2558e-09
2.8925e-11,-4.189e-09,-2.1667e-08,-7.864e-08,-2.3771e-07,-6.2815e-07,-1.4722e-06,-3.0459e-06,-5.4097e-06,-7.5538e-06,-5.3464e-06,1.253e-05,7.1272e-05,0.00021865,0.00053196,0.0011139,0.0020607,0.0033802,0.0048394,0.0057423,0.0046817,-0.0006219,-0.013215,-0.036336,-0.072232,-0.12045,-0.17603,-0.22822,-0.26083,-0.2547,-0.19248,-0.064689,0.12465,0.35523,0.59224,0.79308,0.91767,0.93921,0.85178,0.67234,0.43602,0.18666,-0.034456,-0.19788,-0.29089,-0.31707,-0.29181,-0.23585,-0.16914,-0.10676,-0.057274,-0.023351,-0.0035052,0.0057947,0.0084409,0.0076635,0.0056519,0.0036146,0.0020466,0.0010261,0.00044632,0.00015795,3.5134e-05,-6.3328e-06,-1.4082e-05,-1.1119e-05,-6.6517e-06,-3.3796e-06,-1.5108e-06,-5.9931e-07,-2.0884e-07,-6.1503e-08,-1.3477e-08,-8.0472e-10,1.2662e-09
-3.5935e-09,-1.2804e-08,-3.9017e-08,-1.0485e-07,-2.4995e-07,-5.2192e-07,-9.129e-07,-1.1477e-06,-1.4213e-07,5.1491e-06,2.1788e-05,6.3825e-05,0.00015521,0.00032964,0.00062079,0.0010326,0.0014771,0.0016707,0.00099906,-0.0016103,-0.0077175,-0.019175,-0.037569,-0.063245,-0.094017,-0.12394,-0.14277,-0.13674,-0.091263,0.0046659,0.15331,0.34396,0.55157,0.73989,0.86894,0.90526,0.83189,0.65444,0.40107,0.11584,-0.15244,-0.3623,-0.48872,-0.52692,-0.49013,-0.40308,-0.29381,-0.18662,-0.097744,-0.034377,0.0037772,0.021655,0.025918,0.022779,0.016861,0.010951,0.0063113,0.0032033,0.0013849,0.00045851,6.0879e-05,-6.7222e-05,-8.107e-05,-5.9506e-05,-3.5326e-05,-1.816e-05,-8.2623e-06,-3.3296e-06,-1.1657e-06,-3.3338e-07,-6.12e-08,7.1974e-09,1.4529e-08,9.324e-09,4.4959e-09
-5.4823e-09,-1.4996e-08,-3.6289e-08,-7.5936e-08,-1.2792e-07,-1.2778e-07,1.713e-07,1.4787e-06,5.5032e-06,1.5797e-05,3.8707e-05,8.3583e-05,0.00016013,0.00026896,0.00037946,0.00038909,6.2446e-05,-0.0010386,-0.0036002,-0.0085133,-0.016657,-0.028432,-0.043026,-0.057538,-0.066277,-0.060701,-0.030514,0.033808,0.13727,0.27633,0.43607,0.5902,0.70502,0.74697,0.6922,0.535,0.29197,6.1232e-17,-0.29197,-0.535,-0.6922,-0.74697,-0.70502,-0.5902,-0.43607,-0.27633,-0.13727,-0.033808,0.030514,0.060701,0.066277,0.057538,0.043026,0.028432,0.016657,0.0085133,0.0036002,0.0010386,-6.2446e-05,-0.00038909,-0.00037946,-0.00026896,-0.00016013,-8.3583e-05,-3.8707e-05,-1.5797e-05,-5.5032e-06,-1.4787e-06,-1.713e-07,1.2778e-07,1.2792e-07,7.5936e-08,3.6289e-08,1.4996e-08,5.4823e-09
-4.4959e-09,-9.324e-09,-1.4529e-08,-7.1974e-09,6.12e-08,3.3338e-07,1.1657e-06,3.3296e-06,8.2623e-06,1.816e-05,3.5326e-05,5.9506e-05,8.107e-05,6.7222e-05,-6.0879e-05,-0.00045851,-0.0013849,-0.0032033,-0.0063113,-0.010951,-0.016861,-0.022779,-0.025918,-0.021655,-0.0037772,0.034377,0.097744,0.18662,0.29381,0.40308,0.49013,0.52692,0.48872,0.3623,0.15244,-0.11584,-0.40107,-0.65444,-0.83189,-0.90526,-0.86894,-0.73989,-0.55157,-0.34396,-0.15331,-0.0046659,0.091263,0.13674,0.14277,0.12394,0.094017,0.063245,0.037569,0.019175,0.0077175,0.0016103,-0.00099906,-0.0016707,-0.0014771,-0.0010326,-0.00062079,-0.00032964,-0.00015521,-6.3825e-05,-2.1788e-05,-5.1491e-06,1.4213e-07,1.1477e-06,9.129e-07,5.2192e-07,2.4995e-07,1.0485e-07,3.9017e-08,1.2804e-08,3.5935e-09
-1.2662e-09,8.0472e-10,1.3477e-08,6.1503e-08,2.0884e-07,5.9931e-07,1.5108e-06,3.3796e-06,6.6517e-06,1.1119e-05,1.4082e-05,6.3328e-06,-3.5134e-05,-0.00015795,-0.00044632,-0.0010261,-0.0020466,-0.0036146,-0.0056519,-0.0076635,-0.0084409,-0.0057947,0.0035052,0.023351,0.057274,0.10676,0.16914,0.23585,0.29181,0.31707,0.29089,0.19788,0.034456,-0.18666,-0.43602,-0.67234,-0.85178,-0.93921,-0.91767,-0.79308,-0.59224,-0.35523,-0.12465,0.064689,0.19248,0.2547,0.26083,0.22822,0.17603,0.12045,0.072232,0.036336,0.013215,0.0006219,-0.0046817,-0.0057423,-0.0048394,-0.0033802,-0.0020607,-0.0011139,-0.00053196,-0.00021865,-7.1272e-05,-1.253e-05,5.3464e-06,7.5538e-06,5.4097e-06,3.0459e-06,1.4722e-06,6.2815e-07,2.3771e-07,7.864e-08,2.1667e-08,4.189e-09,-2.8925e-11
2.2558e-09,9.4667e-09,3.1813e-08,9.2287e-08,2.3673e-07,5.3821e-07,1.0657e-06,1.7379e-06,1.891e-06,-7.3071e-07,-1.1956e-05,-4.4409e-05,-0.00012158,-0.00028062,-0.0005685,-0.0010219,-0.0016174,-0.0021789,-0.0022414,-0.00089702,0.0033063,0.012295,0.028085,0.051971,0.083324,0.11825,0.14862,0.1622,0.14439,0.081874,-0.032558,-0.1953,-0.38923,-0.58474,-0.74501,-0.8348,-0.83003,-0.72533,-0.53649,-0.29692,-0.049091,0.16624,0.31957,0.39808,0.40586,0.35969,0.2824,0.19619,0.11794,0.057221,0.016691,-0.0058762,-0.015172,-0.01629,-0.013441,-0.0094561,-0.0058609,-0.0032231,-0.0015546,-0.00063074,-0.000187,-1.0219e-05,3.9409e-05,3.9623e-05,2.696e-05,1.5151e-05,7.4238e-06,3.2245e-06,1.238e-06,4.0974e-07,1.0813e-07,1.5943e-08,-4.6719e-09,-5.6101e-09,-3.256e-09
4.1342e-09,1.217e-08,3.178e-08,7.3225e-08,1.4461e-07,2.2335e-07,1.6794e-07,-5.0154e-07,-3.0633e-06,-1.0404e-05,-2.8151e-05,-6.5649e-05,-0.00013532,-0.00024726,-0.00039398,-0.00051877,-0.00046331,0.00010173,0.0017414,0.0052693,0.011634,0.021597,0.03516,0.050788,0.064637,0.070164,0.05859,0.020556,-0.05099,-0.15724,-0.29043,-0.43264,-0.55757,-0.63582,-0.64232,-0.56417,-0.40581,-0.18967,0.048472,0.26824,0.43467,0.52639,0.53936,0.48566,0.38805,0.27271,0.16259,0.073159,0.011114,-0.02428,-0.038483,-0.038735,-0.031784,-0.022641,-0.014284,-0.0079765,-0.0038601,-0.0015143,-0.00036615,8.6612e-05,0.00019642,0.00017121,0.00011383,6.4398e-05,3.2074e-05,1.4175e-05,5.4991e-06,1.7991e-06,4.3446e-07,2.4535e-08,-5.4427e-08,-4.4924e-08,-2.4683e-08,-1.1162e-08,-4.3958e-09
3.6524e-09,8.4893e-09,1.6488e-08,2.2787e-08,1.3717e-09,-1.3606e-07,-6.3164e-07,-2.0538e-06,-5.559e-06,-1.3152e-05,-2.7596e-05,-5.1122e-05,-8.1316e-05,-0.00010178,-6.4981e-05,0.00013332,0.00068337,0.001879,0.0040941,0.0076757,0.012713,0.018671,0.023936,0.025445,0.018624,-0.0020426,-0.041645,-0.10274,-0.18294,-0.27318,-0.35741,-0.41486,-0.42454,-0.3713,-0.25155,-0.076467,0.12882,0.33037,0.49359,0.59193,0.61324,0.56191,0.45626,0.3225,0.18739,0.072056,-0.011446,-0.060498,-0.079767,-0.077879,-0.064178,-0.046439,-0.029818,-0.016851,-0.0080974,-0.0029602,-0.00040377,0.00058141,0.00076139,0.00061942,0.00040909,0.00023425,0.00011874,5.3302e-05,2.0762e-05,6.5838e-06,1.3163e-06,-2.0641e-07,-4.1763e-07,-2.957e-07,-1.5844e-07,-7.2082e-08,-2.885e-08,-1.0246e-08,-3.1969e-09
1.5589e-09,1.6833e-09,-2.8982e-09,-2.6202e-08,-1.0777e-07,-3.4391e-07,-9.3837e-07,-2.2576e-06,-4.8185e-06,-9.0092e-06,-1.4116e-05,-1.5924e-05,-1.9263e-06,5.6593e-05,0.00021498,0.00056416,0.0012285,0.002336,0.0039386,0.0058659,0.0075144,0.0076181,0.0041063,-0.0057941,-0.025043,-0.05577,-0.097861,-0.1475,-0.19632,-0.23171,-0.239,-0.20506,-0.12285,0.0047846,0.1635,0.32914,0.47281,0.56793,0.59715,0.55698,0.45828,0.32289,0.17739,0.046286,-0.053291,-0.11403,-0.13786,-0.13311,-0.11086,-0.081621,-0.053268,-0.030297,-0.014217,-0.0044902,0.00042063,0.0022404,0.0024054,0.0018937,0.0012551,0.00072986,0.00037658,0.00017113,6.6268e-05,1.9671e-05,2.368e-06,-2.2819e-06,-2.4749e-06,-1.6279e-06,-8.6542e-07,-3.9832e-07,-1.6225e-07,-5.854e-08,-1.8353e-08,-4.703e-09,-7.758e-10
-6.6993e-10,-3.9803e-09,-1.5434e-08,-4.9054e-08,-1.3559e-07,-3.3206e-07,-7.1945e-07,-1.3482e-06,-2.0353e-06,-1.829e-06,2.1422e-06,1.6741e-05,5.5859e-05,0.00014361,0.00031507,0.00060912,0.0010448,0.0015713,0.0019858,0.0018268,0.00027624,-0.0038628,-0.012022,-0.025469,-0.044624,-0.068195,-0.092391,-0.11062,-0.11412,-0.093673,-0.042417,0.041135,0.15075,0.27202,0.38445,0.4659,0.49825,0.47264,0.39219,0.27154,0.133,0.00067175,-0.10536,-0.17327,-0.20083,-0.19406,-0.16398,-0.12291,-0.081306,-0.046144,-0.020547,-0.004567,0.003608,0.0064659,0.0063274,0.0049194,0.0032937,0.0019486,0.0010221,0.00046778,0.00017723,4.5906e-05,-2.3127e-06,-1.3622e-05,-1.1919e-05,-7.5676e-06,-4.0344e-06,-1.8853e-06,-7.8168e-07,-2.8564e-07,-8.9122e-08,-2.1469e-08,-2.2511e-09,1.4674e-09,1.3217e-09
-1.8705e-09,-5.9763e-09,-1.6785e-08,-4.1832e-08,-9.167e-08,-1.7028e-07,-2.3796e-07,-1.0757e-07,7.9358e-07,3.8847e-06,1.217e-05,3.1131e-05,6.9164e-05,0.0001361,0.00023704,0.00035757,0.00043653,0.00032551,-0.0002572,-0.0017568,-0.0047578,-0.0098562,-0.017388,-0.027012,-0.037235,-0.045042,-0.045906,-0.034406,-0.0055662,0.043261,0.11047,0.18896,0.2664,0.32721,0.35622,0.34288,0.2848,0.18922,0.071676,-0.047651,-0.14906,-0.21804,-0.24823,-0.24186,-0.20785,-0.15845,-0.10577,-0.059085,-0.023632,-0.00073247,0.011144,0.014988,0.014019,0.010898,0.0074015,0.0044576,0.0023708,0.0010837,0.00039095,7.3554e-05,-3.9952e-05,-6.0229e-05,-4.7727e-05,-2.9882e-05,-1.6084e-05,-7.6465e-06,-3.2235e-06,-1.1869e-06,-3.63e-07,-7.7008e-08,1.7075e-09,1.3598e-08,9.7049e-09,4.9703e-09,2.1314e-09
-1.7805e-09,-4.5091e-09,-9.9359e-09,-1.7973e-08,-2.1371e-08,1.1717e-08,1.8014e-07,7.3733e-07,2.2426e-06,5.7626e-06,1.3006e-05,2.6048e-05,4.5903e-05,6.8726e-05,7.805e-05,3.1925e-05,-0.00015414,-0.00062291,-0.0015772,-0.003247,-0.0057985,-0.0091686,-0.012836,-0.015586,-0.015382,-0.0094931,0.0050002,0.030278,0.066593,0.11118,0.15772,0.19689,0.2181,0.2122,0.17438,0.1064,0.017033,-0.079481,-0.16678,-0.23041,-0.2614,-0.25805,-0.22574,-0.17467,-0.11681,-0.062789,-0.019826,0.0089939,0.02421,0.028721,0.026342,0.020637,0.014251,0.0087309,0.004688,0.0021125,0.00068933,3.0964e-05,-0.00019345,-0.00021302,-0.00016084,-0.0001006,-5.4908e-05,-2.6572e-05,-1.1362e-05,-4.1824e-06,-1.2219e-06,-1.9356e-07,7.23e-08,9.2159e-08,5.9161e-08,2.9832e-08,1.291e-08,4.9317e-09,1.6709e-09
-9.1155e-10,-1.5568e-09,-1.2373e-09,4.7189e-09,3.1042e-08,1.1675e-07,3.5134e-07,9.1256e-07,2.0958e-06,4.2659e-06,7.5643e-06,1.1051e-05,1.08e-05,-3.5724e-06,-5.408e-05,-0.00018019,-0.0004419,-0.00091325,-0.0016564,-0.0026658,-0.0037777,-0.0045581,-0.0042042,-0.0015267,0.0049075,0.01641,0.033589,0.055662,0.079902,0.10152,0.11424,0.11165,0.089054,0.045381,-0.01567,-0.085699,-0.15317,-0.2061,-0.23513,-0.23588,-0.20997,-0.1643,-0.10885,-0.054026,-0.0081672,0.023951,0.041369,0.046172,0.042155,0.033449,0.023512,0.014624,0.0078733,0.003423,0.00089807,-0.00027605,-0.00064583,-0.0006217,-0.00045943,-0.00028941,-0.0001606,-7.907e-05,-3.415e-05,-1.2411e-05,-3.3009e-06,-1.6836e-07,5.5102e-07,4.9748e-07,3.0326e-07,1.5261e-07,6.695e-08,2.6034e-08,8.9493e-09,2.6527e-09,6.2736e-10
2.7386e-12,8.4708e-10,4.3179e-09,1.5586e-08,4.6956e-08,1.2376e-07,2.8933e-07,5.9689e-07,1.0557e-06,1.4616e-06,9.9219e-07,-2.5933e-06,-1.4266e-05,-4.3424e-05,-0.00010523,-0.00021971,-0.00040546,-0.00066333,-0.00094643,-0.0011165,-0.00089533,0.00016605,0.0026657,0.0072361,0.014311,0.023788,0.034673,0.044841,0.051097,0.049678,0.037192,0.011818,-0.025604,-0.071027,-0.11756,-0.15683,-0.18097,-0.18475,-0.16711,-0.13143,-0.084706,-0.03557,0.0078617,0.039833,0.057892,0.062795,0.057613,0.046445,0.033225,0.020907,0.011165,0.0045049,0.00062337,-0.0011836,-0.001686,-0.0015206,-0.0011173,-0.00071263,-0.0004025,-0.00020124,-8.7213e-05,-3.0657e-05,-6.665e-06,1.3742e-06,2.8296e-06,2.2115e-06,1.3169e-06,6.6708e-07,2.9746e-07,1.177e-07,4.0884e-08,1.1982e-08,2.5953e-09,1.3524e-10,-2.575e-10
4.9772e-10,1.7658e-09,5.3653e-09,1.4382e-08,3.4197e-08,7.1172e-08,1.2383e-07,1.5357e-07,1.0126e-08,-7.2645e-07,-3.0269e-06,-8.817e-06,-2.137e-05,-4.5266e-05,-8.5034e-05,-0.00014104,-0.00020092,-0.00022541,-0.00012981,0.00023315,0.0010771,0.0026544,0.0051796,0.0086946,0.012893,0.016952,0.019461,0.018534,0.012178,-0.0010962,-0.021573,-0.047749,-0.076167,-0.10184,-0.11929,-0.12397,-0.11359,-0.088975,-0.05404,-0.014855,0.021882,0.050505,0.067622,0.072624,0.067365,0.055262,0.040175,0.025429,0.013238,0.0045723,-0.0006243,-0.0030403,-0.0035956,-0.0031444,-0.0023202,-0.0015031,-0.00086408,-0.00043724,-0.00018818,-6.1687e-05,-7.6426e-06,9.5888e-06,1.129e-05,8.2299e-06,4.8675e-06,2.4954e-06,1.1325e-06,4.5515e-07,1.5876e-07,4.5111e-08,8.1068e-09,-1.1054e-09,-2.036e-09,-1.2927e-09,-6.2041e-10
5.2482e-10,1.432e-09,3.4557e-09,7.2033e-09,1.2047e-08,1.1708e-08,-1.7626e-08,-1.4409e-07,-5.3131e-07,-1.5185e-06,-3.7097e-06,-7.9906e-06,-1.5269e-05,-2.5564e-05,-3.588e-05,-3.6316e-05,-4.2582e-06,0.00010224,0.00034867,0.00081973,0.0015984,0.0027212,0.0041076,0.0054775,0.0062841,0.0057101,0.002774,-0.0034268,-0.013358,-0.026665,-0.041904,-0.056551,-0.067384,-0.071207,-0.065767,-0.050551,-0.027183,0.00078369,0.02866,0.051774,0.066625,0.071659,0.067459,0.056332,0.0415,0.026188,0.012897,0.0030395,-0.0030621,-0.0058997,-0.0063922,-0.0055273,-0.0041216,-0.0027169,-0.0015875,-0.00080854,-0.00033992,-9.6408e-05,7.6854e-06,3.8102e-05,3.6696e-05,2.5878e-05,1.5358e-05,7.9958e-06,3.6935e-06,1.5029e-06,5.2124e-07,1.3873e-07,1.5137e-08,-1.2732e-08,-1.242e-08,-7.3203e-09,-3.4851e-09,-1.4362e-09,-5.2374e-10
2.9795e-10,6.1497e-10,9.4781e-10,4.2247e-10,-4.2203e-09,-2.2527e-08,-7.8265e-08,-2.2275e-07,-5.5127e-07,-1.2087e-06,-2.3447e-06,-3.9346e-06,-5.3229e-06,-4.3031e-06,4.4028e-06,3.1156e-05,9.3203e-05,0.00021461,0.00042159,0.0007297,0.0011206,0.0015091,0.0017083,0.0014098,0.00020026,-0.0023615,-0.0065992,-0.012525,-0.019651,-0.026887,-0.032613,-0.034962,-0.0323,-0.023762,-0.0096916,0.008226,0.027214,0.044019,0.055717,0.060455,0.057884,0.049159,0.036527,0.022656,0.0099582,8.9541e-05,-0.0062499,-0.0092245,-0.009578,-0.0082874,-0.0062699,-0.0042072,-0.002492,-0.0012666,-0.00050557,-0.0001014,7.012e-05,0.00011322,9.9299e-05,6.914e-05,4.1447e-05,2.1954e-05,1.031e-05,4.2251e-06,1.4341e-06,3.3351e-07,-1.4026e-08,-7.8399e-08,-6.1542e-08,-3.5002e-08,-1.6708e-08,-6.9906e-09,-2.5949e-09,-8.4901e-10,-2.3725e-10
5.6877e-11,-4.285e-11,-6.3972e-10,-2.8869e-09,-9.7555e-09,-2.7909e-08,-7.0178e-08,-1.5659e-07,-3.0725e-07,-5.112e-07,-6.4064e-07,-2.6411e-07,1.6915e-06,7.4409e-06,2.0888e-05,4.7845e-05,9.5172e-05,0.00016767,0.00026146,0.0003532,0.00038639,0.00025909,-0.00017856,-0.0011065,-0.0026868,-0.0049852,-0.0078746,-0.010952,-0.013517,-0.014641,-0.013366,-0.0089858,-0.0013462,0.0089489,0.020522,0.031452,0.039706,0.043665,0.042558,0.036677,0.027283,0.016244,0.0055395,-0.0032215,-0.0091067,-0.011942,-0.012176,-0.010622,-0.0081726,-0.0055781,-0.0033341,-0.0016684,-0.00059879,-1.8602e-05,0.0002237,0.00027005,0.0002263,0.00015753,9.5782e-05,5.1645e-05,2.4594e-05,1.0068e-05,3.2554e-06,5.5222e-07,-2.626e-07,-3.5691e-07,-2.535e-07,-1.4214e-07,-6.8505e-08,-2.9157e-08,-1.1005e-08,-3.6285e-09,-9.9415e-10,-1.8931e-10,3.3329e-12
-7.4163e-11,-3.0895e-10,-1.0342e-09,-2.9918e-09,-7.6555e-09,-1.7358e-08,-3.4251e-08,-5.551e-08,-5.9294e-08,2.8016e-08,3.9581e-07,1.4531e-06,3.9587e-06,9.1082e-06,1.8405e-05,3.3e-05,5.2072e-05,6.9829e-05,7.111e-05,2.6445e-05,-0.00011115,-0.00040381,-0.00091614,-0.001689,-0.0027006,-0.003823,-0.0047919,-0.0052105,-0.004608,-0.0025563,0.001172,0.0064536,0.012728,0.019032,0.024175,0.027019,0.026797,0.023344,0.017183,0.0094037,0.0013828,-0.0055631,-0.010486,-0.01298,-0.013186,-0.011655,-0.0091279,-0.0063237,-0.0037872,-0.0018243,-0.00051831,0.00020551,0.00050055,0.00053238,0.00043732,0.00030676,0.00018965,0.00010403,5.0016e-05,2.0189e-05,5.9105e-06,2.5229e-07,-1.314e-06,-1.299e-06,-8.787e-07,-4.9213e-07,-2.4049e-07,-1.042e-07,-3.9892e-08,-1.3151e-08,-3.4435e-09,-4.9148e-10,1.607e-10,1.8483e-10,1.0635e-10
-9.3548e-11,-2.7468e-10,-7.1545e-10,-1.6437e-09,-3.2322e-09,-4.9486e-09,-3.5538e-09,1.1857e-08,7.0216e-08,2.3667e-07,6.3784e-07,1.4833e-06,3.0499e-06,5.5582e-06,8.8255e-06,1.1552e-05,1.0139e-05,-2.8667e-06,-4.0212e-05,-0.00012019,-0.00026401,-0.00048855,-0.00079335,-0.0011431,-0.0014504,-0.0015674,-0.0012963,-0.00042698,0.0011973,0.0036004,0.0066037,0.0097999,0.012595,0.014327,0.014435,0.012633,0.0090286,0.0041346,-0.0012391,-0.0061816,-0.009908,-0.011941,-0.012198,-0.010956,-0.0087316,-0.0061174,-0.0036301,-0.0016159,-0.00022321,0.00056722,0.00088032,0.00088034,0.00071974,0.00051133,0.00032178,0.0001792,8.6397e-05,3.3659e-05,7.9426e-06,-2.1312e-06,-4.5189e-06,-3.9003e-06,-2.5815e-06,-1.456e-06,-7.2337e-07,-3.1887e-07,-1.2331e-07,-4.0144e-08,-9.5779e-09,-4.5498e-10,1.2664e-09,1.0267e-09,5.6074e-10,2.5269e-10,9.9249e-11
-5.7239e-11,-1.326e-10,-2.5614e-10,-3.4898e-10,3.0109e-12,2.1969e-09,1.005e-08,3.2498e-08,8.767e-08,2.0688e-07,4.33e-07,7.9982e-07,1.2669e-06,1.5723e-06,9.6345e-07,-2.204e-06,-1.0921e-05,-2.9794e-05,-6.4656e-05,-0.00012088,-0.00019971,-0.00029252,-0.00037373,-0.00039499,-0.0002844,4.4427e-05,0.00067076,0.0016335,0.0028937,0.0043071,0.0056207,0.0065078,0.0066399,0.0057819,0.0038809,0.0011165,-0.0021133,-0.0052739,-0.0078227,-0.0093452,-0.0096549,-0.0088248,-0.0071464,-0.0050334,-0.0029065,-0.0010965,0.00020944,0.00097236,0.0012674,0.0012314,0.0010116,0.00073014,0.00046762,0.00026347,0.00012602,4.5598e-05,5.7446e-06,-9.4837e-06,-1.2142e-05,-9.8125e-06,-6.4568e-06,-3.6871e-06,-1.8644e-06,-8.3462e-07,-3.2391e-07,-1.0203e-07,-1.9942e-08,3.583e-09,6.7003e-09,4.6956e-09,2.5045e-09,1.1359e-09,4.5348e-10,1.6064e-10,4.9966e-11
-1.6812e-11,-1.7626e-11,3.3959e-11,2.9235e-10,1.1918e-09,3.7867e-09,1.0302e-08,2.4723e-08,5.2631e-08,9.8084e-08,1.5287e-07,1.7013e-07,1.1856e-08,-6.3755e-07,-2.3845e-06,-6.2222e-06,-1.3504e-05,-2.561e-05,-4.3072e-05,-6.3966e-05,-8.1608e-05,-8.2063e-05,-4.2622e-05,6.7018e-05,0.00027905,0.00061639,0.0010772,0.001619,0.0021493,0.0025302,0.002601,0.0022191,0.001309,-9.6018e-05,-0.0018369,-0.0036481,-0.0052128,-0.006241,-0.0065452,-0.0060896,-0.0049958,-0.0035048,-0.0019084,-0.00047431,0.00061097,0.0012692,0.0015229,0.0014647,0.0012164,0.00089341,0.00058151,0.00032959,0.00015373,4.769e-05,-5.591e-06,-2.5115e-05,-2.6642e-05,-2.087e-05,-1.3789e-05,-7.9978e-06,-4.1162e-06,-1.865e-06,-7.1892e-07,-2.1131e-07,-2.3771e-08,2.5994e-08,2.7517e-08,1.7975e-08,9.5201e-09,4.3698e-09,1.7755e-09,6.3889e-10,1.9957e-10,5.0809e-11,8.2065e-12
5.2847e-12,3.0803e-11,1.187e-10,3.7592e-10,1.0363e-09,2.5316e-09,5.4698e-09,1.0211e-08,1.5303e-08,1.3384e-08,-1.7618e-08,-1.3025e-07,-4.3057e-07,-1.1021e-06,-2.4108e-06,-4.6491e-06,-7.9539e-06,-1.1924e-05,-1.4992e-05,-1.3614e-05,-1.537e-06,3.0364e-05,9.2958e-05,0.00019579,0.00034187,0.00052108,0.0007042,0.00084079,0.00086386,0.00070355,0.00030803,-0.0003331,-0.0011713,-0.0020957,-0.0029495,-0.003564,-0.003802,-0.0035971,-0.002975,-0.0020485,-0.00098871,2.0239e-05,0.00082582,0.0013387,0.0015433,0.0014863,0.0012527,0.00093655,0.00061777,0.00034913,0.00015413,3.2806e-05,-2.892e-05,-5.0176e-05,-4.8722e-05,-3.773e-05,-2.519e-05,-1.4866e-05,-7.777e-06,-3.5469e-06,-1.3359e-06,-3.4025e-07,2.3036e-08,1.0651e-07,9.2027e-08,5.8132e-08,3.0892e-08,1.4399e-08,5.955e-09,2.1696e-09,6.7395e-10,1.6082e-10,1.5901e-11,-1.1677e-11,-1.0245e-11
1.0009e-11,3.188e-11,8.931e-11,2.2201e-10,4.8502e-10,8.9668e-10,1.2394e-09,5.0569e-10,-4.37e-09,-2.0958e-08,-6.5239e-08,-1.6627e-07,-3.6842e-07,-7.2318e-07,-1.2561e-06,-1.8876e-06,-2.2884e-06,-1.6641e-06,1.4871e-06,9.5312e-06,2.5563e-05,5.2721e-05,9.2729e-05,0.0001437,0.00019757,0.00023823,0.00024158,0.00017886,2.3802e-05,-0.0002373,-0.00059546,-0.0010125,-0.0014225,-0.0017426,-0.0018923,-0.0018164,-0.0015028,-0.00099085,-0.00036397,0.00027037,0.00080754,0.0011709,0.0013274,0.0012895,0.0011054,0.00084051,0.00055922,0.00031072,0.00012256,1.4715e-06,-6.094e-05,-8.0727e-05,-7.509e-05,-5.8178e-05,-3.9408e-05,-2.3674e-05,-1.2555e-05,-5.7153e-06,-2.0448e-06,-3.7002e-07,2.2399e-07,3.2587e-07,2.5616e-07,1.5974e-07,8.5736e-08,4.0657e-08,1.7095e-08,6.2732e-09,1.9076e-09,3.9828e-10,-1.3924e-11,-7.4166e-11,-5.2234e-11,-2.6612e-11,-1.1375e-11
6.5955e-12,1.6658e-11,3.6576e-11,6.5746e-11,7.6663e-11,-5.0004e-11,-6.8274e-10,-2.7632e-09,-8.3638e-09,-2.1425e-08,-4.8232e-08,-9.6351e-08,-1.6928e-07,-2.5227e-07,-2.8351e-07,-1.0654e-07,5.9261e-07,2.3429e-06,5.8929e-06,1.2088e-05,2.1528e-05,3.3955e-05,4.7407e-05,5.735e-05,5.6219e-05,3.3897e-05,-2.0372e-05,-0.00011455,-0.00024941,-0.00041449,-0.00058622,-0.00072999,-0.00080657,-0.00078226,-0.00063969,-0.00038577,-5.3444e-05,0.00030428,0.00062671,0.00086054,0.00097282,0.00095782,0.00083579,0.00064492,0.00042962,0.00022924,7.0369e-05,-3.5794e-05,-9.1455e-05,-0.00010751,-9.8176e-05,-7.6687e-05,-5.2824e-05,-3.2279e-05,-1.7276e-05,-7.7444e-06,-2.4939e-06,-7.669e-08,7.3808e-07,7.9985e-07,6.0046e-07,3.7428e-07,2.0375e-07,9.8359e-08,4.1938e-08,1.5375e-08,4.4561e-09,6.8145e-10,-2.8369e-10,-3.4767e-10,-2.2133e-10,-1.1115e-10,-4.7962e-11,-1.8276e-11,-6.1759e-12
2.3337e-12,3.9497e-12,2.9833e-12,-1.2747e-11,-8.1481e-11,-3.0418e-10,-9.1188e-10,-2.3619e-09,-5.4108e-09,-1.0984e-08,-1.9409e-08,-2.8183e-08,-2.7041e-08,1.1001e-08,1.4295e-07,4.7072e-07,1.1487e-06,2.3665e-06,4.2813e-06,6.8727e-06,9.7102e-06,1.1663e-05,1.065e-05,3.5995e-06,-1.3176e-05,-4.3031e-05,-8.7479e-05,-0.00014443,-0.00020675,-0.00026204,-0.00029407,-0.00028635,-0.00022691,-0.00011315,4.5142e-05,0.00022611,0.00039988,0.00053557,0.00060912,0.00060952,0.00054121,0.00042216,0.00027834,0.00013662,1.8437e-05,-6.4004e-05,-0.00010838,-0.0001202,-0.00010935,-8.6532e-05,-6.0673e-05,-3.7635e-05,-2.0184e-05,-8.7131e-06,-2.2273e-06,7.7172e-07,1.7012e-06,1.6222e-06,1.1934e-06,7.4956e-07,4.1489e-07,2.0375e-07,8.7717e-08,3.1717e-08,8.3304e-09,3.3656e-10,-1.467e-09,-1.3022e-09,-7.8912e-10,-3.9576e-10,-1.7315e-10,-6.7166e-11,-2.3023e-11,-6.7973e-12,-1.5952e-12
-2.0122e-14,-1.5655e-12,-7.8684e-12,-2.825e-11,-8.4829e-11,-2.23e-10,-5.2002e-10,-1.0697e-09,-1.8839e-09,-2.5857e-09,-1.6777e-09,4.897e-09,2.6109e-08,7.8865e-08,1.9035e-07,3.9634e-07,7.2959e-07,1.1904e-06,1.6926e-06,1.9849e-06,1.5645e-06,-3.7752e-07,-4.9149e-06,-1.3177e-05,-2.5928e-05,-4.2963e-05,-6.2461e-05,-8.0574e-05,-9.1542e-05,-8.8605e-05,-6.57e-05,-1.9624e-05,4.8015e-05,0.00012985,0.00021341,0.00028362,0.00032636,0.00033237,0.00029981,0.00023497,0.00015047,6.1919e-05,-1.6097e-05,-7.3296e-05,-0.00010536,-0.00011373,-0.00010403,-8.3648e-05,-5.9686e-05,-3.7443e-05,-1.9901e-05,-7.9448e-06,-1.0022e-06,2.2081e-06,3.0793e-06,2.7591e-06,2.02e-06,1.2849e-06,7.2391e-07,3.6096e-07,1.5584e-07,5.4407e-08,1.1546e-08,-2.7039e-09,-5.1976e-09,-4.0222e-09,-2.3844e-09,-1.2042e-09,-5.356e-10,-2.1138e-10,-7.3196e-11,-2.1344e-11,-4.5683e-12,-2.0174e-13,4.7843e-13
-6.304e-13,-2.2271e-12,-6.7472e-12,-1.8041e-11,-4.2786e-11,-8.8755e-11,-1.5359e-10,-1.878e-10,-9.3776e-13,9.366e-10,3.8452e-09,1.1139e-08,2.6907e-08,5.6846e-08,1.0652e-07,1.7617e-07,2.4993e-07,2.7804e-07,1.5376e-07,-3.0789e-07,-1.3743e-06,-3.3603e-06,-6.5306e-06,-1.0931e-05,-1.617e-05,-2.1205e-05,-2.426e-05,-2.297e-05,-1.485e-05,1.9479e-06,2.7744e-05,6.0614e-05,9.6187e-05,0.00012819,0.00014978,0.00015526,0.00014184,0.00011062,6.6567e-05,1.7336e-05,-2.8671e-05,-6.4371e-05,-8.5564e-05,-9.1539e-05,-8.4674e-05,-6.929e-05,-5.0238e-05,-3.1686e-05,-1.6393e-05,-5.5559e-06,9.1648e-07,3.9017e-06,4.5613e-06,3.9695e-06,2.9199e-06,1.8868e-06,1.0819e-06,5.458e-07,2.3383e-07,7.5869e-08,8.6983e-09,-1.2491e-08,-1.4375e-08,-1.0409e-08,-6.1334e-09,-3.1358e-09,-1.4196e-09,-5.69e-10,-1.9775e-10,-5.5814e-11,-9.8079e-12,1.5351e-12,2.6081e-12,1.6389e-12,7.8293e-13
-4.5947e-13,-1.2506e-12,-3.0095e-12,-6.2487e-12,-1.0373e-11,-9.7913e-12,1.6504e-11,1.2836e-10,4.6907e-10,1.3348e-09,3.2515e-09,6.9861e-09,1.3315e-08,2.222e-08,3.1023e-08,3.098e-08,2.2252e-09,-9.1974e-08,-3.0877e-07,-7.2181e-07,-1.4028e-06,-2.3818e-06,-3.5864e-06,-4.7687e-06,-5.4487e-06,-4.911e-06,-2.3002e-06,3.1663e-06,1.1884e-05,2.3529e-05,3.6824e-05,4.9555e-05,5.89e-05,6.2079e-05,5.7143e-05,4.3676e-05,2.3128e-05,-1.3709e-06,-2.5711e-05,-4.5815e-05,-5.8644e-05,-6.287e-05,-5.9031e-05,-4.9171e-05,-3.6119e-05,-2.2694e-05,-1.1078e-05,-2.489e-06,2.804e-06,5.2427e-06,5.6377e-06,4.8559e-06,3.6108e-06,2.3742e-06,1.3836e-06,7.0224e-07,2.9345e-07,8.1764e-08,-8.2204e-09,-3.4104e-08,-3.2451e-08,-2.277e-08,-1.3471e-08,-6.9952e-09,-3.2232e-09,-1.3076e-09,-4.5147e-10,-1.1898e-10,-1.215e-11,1.1583e-11,1.1025e-11,6.4533e-12,3.0608e-12,1.2579e-12,4.5758e-13
-1.8058e-13,-3.709e-13,-5.6518e-13,-2.2262e-13,2.6585e-12,1.3919e-11,4.8055e-11,1.3629e-10,3.3637e-10,7.3567e-10,1.4232e-09,2.3791e-09,3.1955e-09,2.5149e-09,-2.8941e-09,-1.9354e-08,-5.7357e-08,-1.3149e-07,-2.5754e-07,-4.4465e-07,-6.8108e-07,-9.1425e-07,-1.0297e-06,-8.3895e-07,-9.0685e-08,1.4823e-06,4.0739e-06,7.6873e-06,1.202e-05,1.6402e-05,1.9846e-05,2.1215e-05,1.9521e-05,1.4249e-05,5.6217e-06,-5.3219e-06,-1.6882e-05,-2.7075e-05,-3.4127e-05,-3.6922e-05,-3.5264e-05,-2.9871e-05,-2.2121e-05,-1.3646e-05,-5.9112e-06,8.0398e-08,3.9115e-06,5.6903e-06,5.8763e-06,5.0676e-06,3.824e-06,2.5595e-06,1.5117e-06,7.6513e-07,3.028e-07,5.8194e-08,-4.4894e-08,-7.0147e-08,-6.1046e-08,-4.2336e-08,-2.5307e-08,-1.3371e-08,-6.2629e-09,-2.5578e-09,-8.631e-10,-1.9739e-10,1.1325e-11,4.8946e-11,3.7937e-11,2.1466e-11,1.0214e-11,4.2626e-12,1.5783e-12,5.1486e-13,1.4324e-13
-2.3339e-14,2.0527e-14,2.7758e-13,1.2391e-12,4.1675e-12,1.1886e-11,2.9812e-11,6.6349e-11,1.2979e-10,2.1492e-10,2.6643e-10,9.943e-11,-7.4382e-10,-3.2051e-09,-8.9393e-09,-2.0402e-08,-4.0475e-08,-7.1129e-08,-1.1061e-07,-1.4886e-07,-1.6172e-07,-1.0578e-07,8.2543e-08,4.793e-07,1.1526e-06,2.1289e-06,3.3528e-06,4.6515e-06,5.7258e-06,6.1823e-06,5.6157e-06,3.7297e-06,4.6388e-07,-3.9198e-06,-8.8321e-06,-1.3455e-05,-1.6927e-05,-1.8565e-05,-1.805e-05,-1.5512e-05,-1.1493e-05,-6.7917e-06,-2.2467e-06,1.4605e-06,3.9391e-06,5.1198e-06,5.1981e-06,4.5215e-06,3.4701e-06,2.3623e-06,1.4074e-06,7.0052e-07,2.4797e-07,3.5334e-09,-9.7674e-08,-1.1613e-07,-9.677e-08,-6.7136e-08,-4.0715e-08,-2.1898e-08,-1.0398e-08,-4.2392e-09,-1.3595e-09,-2.2193e-10,1.1761e-10,1.5418e-10,1.0863e-10,6.0664e-11,2.9153e-11,1.2377e-11,4.6593e-12,1.5311e-12,4.171e-13,7.8184e-14,-2.2608e-15
2.2293e-14,9.2202e-14,3.0747e-13,8.8699e-13,2.264e-12,5.1197e-12,1.0066e-11,1.6213e-11,1.6985e-11,-9.5854e-12,-1.1978e-10,-4.3476e-10,-1.1787e-09,-2.7036e-09,-5.4492e-09,-9.7458e-09,-1.5331e-08,-2.0464e-08,-2.0624e-08,-7.0615e-09,3.4128e-08,1.2126e-07,2.7329e-07,5.02e-07,8.0047e-07,1.1304e-06,1.413e-06,1.5307e-06,1.3446e-06,7.2896e-07,-3.8194e-07,-1.9495e-06,-3.8059e-06,-5.6649e-06,-7.1739e-06,-7.9978e-06,-7.9117e-06,-6.8707e-06,-5.0327e-06,-2.7224e-06,-3.4829e-07,1.7007e-06,3.1461e-06,3.8703e-06,3.918e-06,3.4538e-06,2.6982e-06,1.8641e-06,1.1121e-06,5.318e-07,1.4693e-07,-6.5365e-08,-1.5097e-07,-1.591e-07,-1.3013e-07,-9.1008e-08,-5.6125e-08,-3.0706e-08,-1.4716e-08,-5.9091e-09,-1.7074e-09,-5.1446e-11,4.0031e-10,3.8943e-10,2.619e-10,1.4618e-10,7.125e-11,3.0793e-11,1.1756e-11,3.8597e-12,1.0026e-12,1.3821e-13,-5.0374e-14,-5.5671e-14,-3.1767e-14
1.9358e-14,5.6693e-14,1.473e-13,3.3741e-13,6.6065e-13,1.0024e-12,6.8478e-13,-2.5582e-12,-1.4715e-11,-4.9232e-11,-1.3217e-10,-3.0651e-10,-6.2865e-10,-1.1426e-09,-1.8079e-09,-2.3521e-09,-2.0271e-09,7.0937e-10,8.4871e-09,2.5067e-08,5.4791e-08,1.0107e-07,1.6371e-07,2.3528e-07,2.9765e-07,3.202e-07,2.6218e-07,8.0508e-08,-2.5672e-07,-7.5376e-07,-1.3731e-06,-2.0301e-06,-2.602e-06,-2.9524e-06,-2.9665e-06,-2.5868e-06,-1.8367e-06,-8.2326e-07,2.8568e-07,1.3022e-06,2.0652e-06,2.4774e-06,2.5229e-06,2.2602e-06,1.7968e-06,1.2549e-06,7.4113e-07,3.2627e-07,4.0374e-08,-1.2104e-07,-1.8413e-07,-1.8297e-07,-1.4905e-07,-1.0561e-07,-6.6294e-08,-3.6818e-08,-1.7683e-08,-6.8407e-09,-1.5732e-09,4.7627e-10,9.5042e-10,8.125e-10,5.3538e-10,3.0107e-10,1.492e-10,6.5599e-11,2.5288e-11,8.1906e-12,1.93e-12,7.3547e-14,-2.6923e-13,-2.1457e-13,-1.1649e-13,-5.2316e-14,-2.0494e-14
8.2034e-15,1.8941e-14,3.6386e-14,4.8843e-14,-3.9664e-15,-3.2419e-13,-1.4622e-12,-4.7027e-12,-1.2645e-11,-2.976e-11,-6.2134e-11,-1.1444e-10,-1.805e-10,-2.2208e-10,-1.3016e-10,3.3243e-10,1.5958e-09,4.3201e-09,9.338e-09,1.7408e-08,2.869e-08,4.1912e-08,5.3364e-08,5.6066e-08,3.9684e-08,-8.1582e-09,-9.8745e-08,-2.3749e-07,-4.1859e-07,-6.2105e-07,-8.0838e-07,-9.3361e-07,-9.4973e-07,-8.2333e-07,-5.4737e-07,-1.4822e-07,3.1651e-07,7.6978e-07,1.1337e-06,1.3493e-06,1.3901e-06,1.2675e-06,1.0236e-06,7.184e-07,4.1221e-07,1.5242e-07,-3.4355e-08,-1.4286e-07,-1.8415e-07,-1.7806e-07,-1.4583e-07,-1.0499e-07,-6.7068e-08,-3.7672e-08,-1.7935e-08,-6.4208e-09,-7.3922e-10,1.4129e-09,1.7706e-09,1.4215e-09,9.3197e-10,5.3075e-10,2.6772e-10,1.1952e-10,4.621e-11,1.4456e-11,2.759e-12,-5.6375e-13,-9.827e-13,-6.8185e-13,-3.6202e-13,-1.637e-13,-6.519e-14,-2.3034e-14,-7.1419e-15
1.6578e-15,1.6843e-15,-3.6237e-15,-2.9822e-14,-1.2051e-13,-3.8129e-13,-1.0343e-12,-2.476e-12,-5.2573e-12,-9.7655e-12,-1.5138e-11,-1.6612e-11,-2.6122e-13,6.5635e-11,2.4184e-10,6.2758e-10,1.3575e-09,2.5677e-09,4.3077e-09,6.379e-09,8.1046e-09,8.0819e-09,4.0334e-09,-7.0695e-09,-2.8429e-08,-6.2299e-08,-1.0843e-07,-1.6251e-07,-2.1521e-07,-2.5268e-07,-2.5886e-07,-2.1959e-07,-1.2746e-07,1.3989e-08,1.8863e-07,3.6973e-07,5.2557e-07,6.272e-07,6.5608e-07,6.0888e-07,4.9805e-07,3.4789e-07,1.8769e-07,4.4239e-08,-6.3935e-08,-1.2915e-07,-1.5384e-07,-1.4739e-07,-1.2207e-07,-8.9433e-08,-5.8055e-08,-3.2789e-08,-1.5199e-08,-4.6276e-09,6.5865e-10,2.5735e-09,2.6984e-09,2.1034e-09,1.3854e-09,8.015e-10,4.1146e-10,1.8586e-10,7.1319e-11,2.075e-11,2.1641e-12,-2.7041e-12,-2.7973e-12,-1.815e-12,-9.5774e-13,-4.3841e-13,-1.7769e-13,-6.3766e-14,-1.9845e-14,-5.0191e-15,-7.9289e-16
-3.8087e-16,-2.1796e-15,-8.3479e-15,-2.6346e-14,-7.2434e-14,-1.7651e-13,-3.803e-13,-7.0716e-13,-1.0521e-12,-8.94e-13,1.3183e-12,9.2644e-12,3.0349e-11,7.735e-11,1.687e-10,3.2451e-10,5.5376e-10,8.2746e-10,1.0349e-09,9.2735e-10,6.7378e-11,-2.181e-09,-6.5724e-09,-1.3764e-08,-2.3953e-08,-3.6413e-08,-4.9087e-08,-5.844e-08,-5.9801e-08,-4.8312e-08,-2.0403e-08,2.4588e-08,8.3199e-08,1.4764e-07,2.0694e-07,2.4933e-07,2.6532e-07,2.5037e-07,2.0637e-07,1.4131e-07,6.7171e-08,-3.1846e-09,-5.9155e-08,-9.4584e-08,-1.0845e-07,-1.0411e-07,-8.7518e-08,-6.5267e-08,-4.2926e-08,-2.4156e-08,-1.057e-08,-2.1466e-09,2.1152e-09,3.56e-09,3.4308e-09,2.6463e-09,1.7618e-09,1.0372e-09,5.4115e-10,2.4595e-10,9.2083e-11,2.3043e-11,-1.9841e-12,-7.6124e-12,-6.4974e-12,-4.0837e-12,-2.1632e-12,-1.0057e-12,-4.1489e-13,-1.5071e-13,-4.6604e-14,-1.1013e-14,-1.0205e-15,8.4838e-16,7.2611e-16
-4.8975e-16,-1.5552e-15,-4.3459e-15,-1.0776e-14,-2.3468e-14,-4.3177e-14,-5.9012e-14,-2.1364e-14,2.1983e-13,1.0338e-12,3.1981e-12,8.1219e-12,1.7948e-11,3.5143e-11,6.0869e-11,9.1126e-11,1.0968e-10,7.7675e-11,-7.8132e-11,-4.7273e-10,-1.256e-09,-2.5789e-09,-4.5226e-09,-6.9907e-09,-9.5868e-09,-1.1523e-08,-1.1625e-08,-8.4982e-09,-8.752e-10,1.1894e-08,2.9349e-08,4.9614e-08,6.9465e-08,8.4871e-08,9.1935e-08,8.7995e-08,7.2513e-08,4.744e-08,1.6864e-08,-1.3975e-08,-3.9997e-08,-5.7499e-08,-6.4909e-08,-6.2877e-08,-5.3765e-08,-4.0774e-08,-2.7039e-08,-1.4942e-08,-5.8094e-09,4.6452e-11,3.0454e-09,3.9759e-09,3.678e-09,2.8402e-09,1.9188e-09,1.1499e-09,6.0806e-10,2.7564e-10,9.7781e-11,1.6966e-11,-1.1455e-11,-1.612e-11,-1.2573e-11,-7.8089e-12,-4.1794e-12,-1.977e-12,-8.2906e-13,-3.032e-13,-9.1662e-14,-1.8823e-14,9.13e-16,3.6972e-15,2.5708e-15,1.303e-15,5.5517e-16
-2.2343e-16,-5.6281e-16,-1.2313e-15,-2.1991e-15,-2.5121e-15,1.9182e-15,2.3654e-14,9.4692e-14,2.8526e-13,7.2847e-13,1.6358e-12,3.2595e-12,5.709e-12,8.4677e-12,9.4142e-12,3.2115e-12,-2.0811e-11,-8.0572e-11,-2.0135e-10,-4.1152e-10,-7.3093e-10,-1.15e-09,-1.6012e-09,-1.9298e-09,-1.8786e-09,-1.1053e-09,7.5296e-10,3.962e-09,8.542e-09,1.4132e-08,1.9927e-08,2.4752e-08,2.7278e-08,2.6373e-08,2.1458e-08,1.2785e-08,1.4828e-09,-1.0643e-08,-2.1534e-08,-2.9391e-08,-3.311e-08,-3.2513e-08,-2.83e-08,-2.1776e-08,-1.445e-08,-7.6525e-09,-2.2796e-09,1.2967e-09,3.1584e-09,3.68e-09,3.3462e-09,2.6061e-09,1.7907e-09,1.0914e-09,5.8223e-10,2.5961e-10,8.2465e-11,1.3075e-12,-2.5733e-11,-2.7462e-11,-2.05e-11,-1.2735e-11,-6.9148e-12,-3.3297e-12,-1.4156e-12,-5.1687e-13,-1.4858e-13,-2.1878e-14,1.015e-14,1.1991e-14,7.5724e-15,3.7872e-15,1.6295e-15,6.1939e-16,2.0876e-16
-5.4634e-17,-9.1608e-17,-6.5446e-17,3.1433e-16,1.9555e-15,7.2478e-15,2.1644e-14,5.5905e-14,1.2776e-13,2.5866e-13,4.5542e-13,6.5718e-13,6.1856e-13,-3.0182e-13,-3.4541e-12,-1.1245e-11,-2.7307e-11,-5.6081e-11,-1.012e-10,-1.6204e-10,-2.2825e-10,-2.7288e-10,-2.4662e-10,-7.6899e-11,3.2306e-10,1.0317e-09,2.0834e-09,3.427e-09,4.8926e-09,6.1855e-09,6.9228e-09,6.7161e-09,5.2863e-09,2.5768e-09,-1.1767e-09,-5.4536e-09,-9.5466e-09,-1.2727e-08,-1.4431e-08,-1.4404e-08,-1.2757e-08,-9.9199e-09,-6.5085e-09,-3.158e-09,-3.7265e-10,1.5625e-09,2.5961e-09,2.8614e-09,2.5939e-09,2.0472e-09,1.4319e-09,8.857e-10,4.732e-10,2.0279e-10,5.0427e-11,-1.9618e-11,-4.0968e-11,-3.8705e-11,-2.8351e-11,-1.7754e-11,-9.8025e-12,-4.8015e-12,-2.0605e-12,-7.4116e-13,-1.9215e-13,-5.6259e-15,3.5688e-14,3.1167e-14,1.8778e-14,9.3855e-15,4.0956e-15,1.5847e-15,5.4167e-16,1.5928e-16,3.7085e-17
5.816e-19,2.6441e-17,1.3111e-16,4.6824e-16,1.4015e-15,3.6747e-15,8.5478e-15,1.7532e-14,3.0744e-14,4.1818e-14,2.5832e-14,-8.4386e-14,-4.3686e-13,-1.3098e-12,-3.1491e-12,-6.5385e-12,-1.2006e-11,-1.9538e-11,-2.7683e-11,-3.2268e-11,-2.4979e-11,7.5105e-12,8.2827e-11,2.1942e-10,4.2961e-10,7.0961e-10,1.029e-09,1.3241e-09,1.4998e-09,1.4451e-09,1.061e-09,2.9589e-10,-8.2218e-10,-2.1704e-09,-3.5428e-09,-4.6906e-09,-5.3828e-09,-5.4682e-09,-4.9193e-09,-3.8413e-09,-2.4439e-09,-9.8457e-10,2.9706e-10,1.2329e-09,1.7533e-09,1.8838e-09,1.7177e-09,1.3778e-09,9.8059e-10,6.1324e-10,3.2439e-10,1.2808e-10,1.4522e-11,-3.7627e-11,-5.1423e-11,-4.5783e-11,-3.3399e-11,-2.1187e-11,-1.1907e-11,-5.9208e-12,-2.5467e-12,-8.8283e-13,-1.8265e-13,4.8305e-14,8.7282e-14,6.6897e-14,3.948e-14,1.9879e-14,8.8197e-15,3.4718e-15,1.1984e-15,3.4769e-16,7.35e-17,2.6337e-18,-8.1218e-18
