-9.0314e-34,-5.0546e-33,1.1669e-32,3.2915e-31,1.6832e-30,-2.2668e-30,-7.2441e-29,-3.376e-28,2.2925e-28,9.6255e-27,4.0813e-26,-8.9937e-27,-7.7197e-25,-2.9754e-24,-2.6575e-25,3.7358e-23,1.3087e-22,3.8303e-23,-1.0904e-21,-3.4741e-21,-1.4602e-21,1.9187e-20,5.5674e-20,2.7521e-20,-2.034e-19,-5.3874e-19,-2.8589e-19,1.298e-18,3.1484e-18,1.7031e-18,-4.9814e-18,-1.1114e-17,-5.9289e-18,1.1482e-17,2.3698e-17,1.219e-17,-1.5866e-17,-3.0526e-17,-1.4898e-17,1.3113e-17,2.3755e-17,1.0869e-17,-6.4596e-18,-1.1167e-17,-4.7478e-18,1.8874e-18,3.1715e-18,1.2443e-18,-3.2454e-19,-5.4406e-19,-1.9596e-19,3.2415e-20,5.637e-20,1.8567e-20,-1.8345e-21,-3.5271e-21,-1.0594e-21,5.5595e-23,1.3325e-22,3.6427e-23,-7.4835e-25,-3.0387e-24,-7.5525e-25,-8.5691e-28,4.1817e-26,9.4461e-27,1.4637e-28,-3.4713e-28,-7.1298e-29,-1.7569e-30,1.7374e-30,3.2485e-31,9.7737e-33,-5.2399e-33,-8.9369e-34
-5.5277e-33,-5.0523e-32,-7.4433e-32,1.9441e-30,1.6209e-29,2.6117e-29,-4.1169e-28,-3.1403e-27,-5.216e-27,5.2444e-26,3.6748e-25,6.0643e-25,-4.0138e-24,-2.5976e-23,-4.1547e-23,1.8427e-22,1.1092e-21,1.6896e-21,-5.0631e-21,-2.8614e-20,-4.0977e-20,8.3007e-20,4.4594e-19,5.9462e-19,-8.0836e-19,-4.1983e-18,-5.1743e-18,4.644e-18,2.3875e-17,2.7048e-17,-1.5562e-17,-8.2011e-17,-8.5038e-17,2.9794e-17,1.7013e-16,1.6097e-16,-3.1172e-17,-2.131e-16,-1.8359e-16,1.5665e-17,1.6113e-16,1.2624e-16,-1.444e-18,-7.3531e-17,-5.2357e-17,-1.9832e-18,2.0243e-17,1.3103e-17,9.1296e-19,-3.3606e-18,-1.9795e-18,-1.7621e-19,3.3623e-19,1.8055e-19,1.7977e-20,-2.026e-20,-9.9444e-21,-1.0341e-21,7.3458e-22,3.3081e-22,3.4468e-23,-1.6008e-23,-6.6475e-24,-6.7519e-25,2.0935e-25,8.0692e-26,7.8381e-27,-1.6397e-27,-5.9173e-28,-5.4206e-29,7.67e-30,2.6214e-30,2.2412e-31,-2.1341e-32,-7.0157e-33
-2.3071e-32,-3.8559e-31,-1.6118e-30,7.485e-30,1.2034e-28,4.6575e-28,-1.4356e-27,-2.2688e-26,-8.0816e-26,1.6118e-25,2.5836e-24,8.4318e-24,-1.041e-23,-1.7768e-22,-5.2952e-22,3.732e-22,7.379e-21,2.0033e-20,-6.7639e-21,-1.8501e-19,-4.5684e-19,3.9368e-20,2.7995e-18,6.2835e-18,5.2023e-19,-2.5559e-17,-5.2145e-17,-1.0059e-17,1.4073e-16,2.6118e-16,6.8206e-17,-4.6709e-16,-7.8981e-16,-2.3675e-16,9.3383e-16,1.4422e-15,4.5807e-16,-1.1237e-15,-1.5905e-15,-5.108e-16,8.1294e-16,1.0595e-15,3.3377e-16,-3.531e-16,-4.2635e-16,-1.2902e-16,9.191e-17,1.0364e-16,2.9674e-17,-1.43e-17,-1.5221e-17,-4.0771e-18,1.325e-18,1.3504e-18,3.3556e-19,-7.2716e-20,-7.2373e-20,-1.6576e-20,2.3436e-21,2.3429e-21,4.9219e-22,-4.3703e-23,-4.5809e-23,-8.7944e-24,4.5812e-25,5.4086e-25,9.4643e-26,-2.5179e-27,-3.8556e-27,-6.1387e-28,5.5741e-30,1.659e-29,2.4011e-30,6.641e-33,-4.3072e-32
-1.5712e-32,-2.3078e-30,-1.6328e-29,-2.2666e-30,6.9873e-28,4.4931e-27,2.3314e-27,-1.276e-25,-7.462e-25,-5.6575e-25,1.4048e-23,7.4814e-23,6.7159e-23,-9.3181e-22,-4.5291e-21,-4.38e-21,3.7209e-20,1.6559e-19,1.6358e-19,-8.936e-19,-3.6567e-18,-3.5678e-18,1.289e-17,4.878e-17,4.5937e-17,-1.1148e-16,-3.931e-16,-3.5149e-16,5.7673e-16,1.9137e-15,1.6051e-15,-1.7789e-15,-5.6284e-15,-4.3882e-15,3.2553e-15,9.9998e-15,7.1969e-15,-3.5076e-15,-1.0732e-14,-7.0924e-15,2.1972e-15,6.9564e-15,4.2049e-15,-7.8133e-16,-2.7231e-15,-1.5012e-15,1.4945e-16,6.4361e-16,3.2296e-16,-1.2939e-17,-9.1825e-17,-4.1893e-17,-1.526e-20,7.9059e-18,3.2782e-18,8.9129e-20,-4.1061e-19,-1.548e-19,-6.8602e-21,1.2858e-20,4.4126e-21,2.4076e-22,-2.4264e-22,-7.5945e-23,-4.5534e-24,2.7572e-24,7.8936e-25,4.8921e-26,-1.8848e-26,-4.9555e-27,-3.0568e-28,7.7415e-29,1.8792e-29,1.1249e-30,-1.9075e-31
8.2455e-31,-1.0184e-29,-1.2085e-28,-3.5379e-28,2.926e-27,3.2285e-26,9.008e-26,-5.0324e-25,-5.2103e-24,-1.3676e-23,5.1653e-23,5.0798e-22,1.242e-21,-3.1501e-21,-2.9919e-20,-6.7638e-20,1.1339e-19,1.0645e-18,2.2125e-18,-2.3823e-18,-2.2874e-17,-4.3526e-17,2.864e-17,2.9686e-16,5.1552e-16,-1.8882e-16,-2.3263e-15,-3.6787e-15,6.0509e-16,1.1005e-14,1.5826e-14,-4.2308e-16,-3.142e-14,-4.1067e-14,-2.6833e-15,5.4119e-14,6.4302e-14,8.0272e-15,-5.6212e-14,-6.0772e-14,-9.795e-15,3.5189e-14,3.4678e-14,6.2822e-15,-1.3268e-14,-1.1949e-14,-2.267e-15,3.0102e-15,2.4869e-15,4.7355e-16,-4.105e-16,-3.1263e-16,-5.8104e-17,3.3598e-17,2.3741e-17,4.2234e-18,-1.6471e-18,-1.0891e-18,-1.8284e-19,4.8235e-20,3.0186e-20,4.7317e-21,-8.4041e-22,-5.0539e-22,-7.3382e-23,8.6604e-24,5.1115e-24,6.833e-25,-5.2282e-26,-3.1227e-26,-3.8255e-27,1.8181e-28,1.1521e-28,1.2891e-29,-3.5204e-31
9.754e-30,-2.2591e-29,-7.0078e-28,-3.8328e-27,5.0968e-27,1.8207e-25,9.0724e-25,-5.861e-25,-2.8559e-23,-1.2945e-22,2.2954e-23,2.7037e-21,1.1139e-20,1.5372e-21,-1.5444e-19,-5.7835e-19,-1.9889e-19,5.3204e-18,1.8124e-17,8.5529e-18,-1.1049e-16,-3.4287e-16,-1.8681e-16,1.3821e-15,3.9169e-15,2.2684e-15,-1.0407e-14,-2.7024e-14,-1.5856e-14,4.7114e-14,1.1262e-13,6.4902e-14,-1.2807e-13,-2.8352e-13,-1.5709e-13,2.0865e-13,4.3117e-13,2.2619e-13,-2.0321e-13,-3.9614e-13,-1.9453e-13,1.179e-13,2.1987e-13,1.002e-13,-4.0528e-14,-7.3719e-14,-3.0975e-14,8.186e-15,1.493e-14,5.7551e-15,-9.5769e-16,-1.8262e-15,-6.4343e-16,6.3115e-17,1.349e-16,4.3326e-17,-2.1936e-18,-6.0162e-18,-1.7582e-18,3.1608e-20,1.6195e-19,4.3027e-20,1.7731e-22,-2.6307e-21,-6.3524e-22,-1.1871e-23,2.5776e-23,5.6599e-24,1.5785e-25,-1.5226e-25,-3.0443e-26,-1.0133e-27,5.4189e-28,9.8872e-29,3.5604e-30
7.3406e-29,1.1963e-28,-3.117e-27,-2.7802e-26,-4.899e-26,7.7882e-25,6.3591e-24,1.1472e-23,-1.1704e-22,-8.7853e-22,-1.5676e-21,1.0566e-20,7.3317e-20,1.264e-19,-5.7192e-19,-3.6962e-18,-6.0547e-18,1.8521e-17,1.1257e-16,1.7308e-16,-3.5767e-16,-2.0713e-15,-2.9613e-15,4.0992e-15,2.3022e-14,3.0394e-14,-2.7677e-14,-1.5457e-13,-1.8743e-13,1.0873e-13,6.2682e-13,6.9532e-13,-2.4291e-13,-1.5351e-12,-1.5532e-12,2.9316e-13,2.2699e-12,2.0907e-12,-1.6289e-13,-2.0261e-12,-1.6967e-12,4.2795e-15,1.0914e-12,8.3067e-13,3.9521e-14,-3.5464e-13,-2.4541e-13,-1.9546e-14,6.9484e-14,4.3765e-14,4.3291e-15,-8.2042e-15,-4.7124e-15,-5.1441e-16,5.8332e-16,3.0642e-16,3.4662e-17,-2.4952e-17,-1.2034e-17,-1.3572e-18,6.4138e-19,2.855e-19,3.128e-20,-9.8909e-21,-4.0916e-21,-4.2765e-22,9.1318e-23,3.5424e-23,3.4853e-24,-5.0325e-25,-1.8528e-25,-1.699e-26,1.6484e-27,5.8542e-28,4.9655e-29
4.2252e-28,1.8942e-27,-8.963e-27,-1.5568e-25,-6.4557e-25,2.0212e-24,3.4652e-23,1.3214e-22,-2.6626e-22,-4.6586e-21,-1.6267e-20,2.0098e-20,3.7824e-19,1.2055e-18,-8.3465e-19,-1.8544e-17,-5.3823e-17,1.7036e-17,5.4882e-16,1.4487e-15,-8.6519e-17,-9.8032e-15,-2.352e-14,-2.638e-15,1.0564e-13,2.304e-13,5.1489e-14,-6.8654e-13,-1.3623e-12,-3.9742e-13,2.6891e-12,4.8633e-12,1.6027e-12,-6.344e-12,-1.0484e-11,-3.6285e-12,9.0066e-12,1.365e-11,4.7503e-12,-7.6862e-12,-1.0735e-11,-3.6508e-12,3.9371e-12,5.1002e-12,1.6616e-12,-1.2081e-12,-1.4638e-12,-4.503e-13,2.2148e-13,2.538e-13,7.2938e-14,-2.4164e-14,-2.6583e-14,-7.0793e-15,1.5598e-15,1.682e-15,4.1251e-16,-5.9025e-17,-6.4285e-17,-1.4451e-17,1.2881e-18,1.4839e-18,3.0469e-19,-1.5693e-20,-2.0683e-20,-3.8697e-21,9.8289e-23,1.7405e-22,2.9624e-23,-2.219e-25,-8.8402e-25,-1.3677e-25,-6.2564e-28,2.7092e-27,3.8097e-28
1.9066e-27,1.4419e-26,3.2782e-27,-6.8138e-25,-4.6838e-24,-2.8679e-24,1.4686e-22,9.1825e-22,7.8277e-22,-1.9082e-20,-1.0868e-19,-1.076e-19,1.4936e-18,7.7674e-18,8.2009e-18,-7.0373e-17,-3.3527e-16,-3.5934e-16,1.9937e-15,8.741e-15,9.2144e-15,-3.3917e-14,-1.3766e-13,-1.3966e-13,3.4585e-13,1.3097e-12,1.2589e-12,-2.1086e-12,-7.528e-12,-6.7768e-12,7.6596e-12,2.6139e-11,2.1846e-11,-1.6492e-11,-5.4829e-11,-4.2262e-11,2.0876e-11,6.9469e-11,4.9135e-11,-1.5321e-11,-5.3161e-11,-3.4373e-11,6.347e-12,2.4567e-11,1.4482e-11,-1.3942e-12,-6.8545e-12,-3.677e-12,1.3028e-13,1.1544e-12,5.6299e-13,3.2592e-15,-1.1732e-13,-5.2002e-14,-1.7164e-15,7.192e-15,2.8987e-15,1.4565e-16,-2.6581e-16,-9.7544e-17,-5.893e-18,5.9192e-18,1.9819e-18,1.3002e-19,-7.9363e-20,-2.432e-20,-1.6376e-21,6.4002e-22,1.8025e-22,1.2025e-23,-3.1006e-24,-8.0697e-25,-5.2077e-26,9.0085e-27,2.1825e-27
6.3235e-27,8.0461e-26,2.5392e-25,-2.1424e-24,-2.5377e-23,-7.6153e-23,4.3429e-22,4.8352e-21,1.3626e-20,-5.2508e-20,-5.5656e-19,-1.4592e-18,3.7689e-18,3.8701e-17,9.3722e-17,-1.5944e-16,-1.6256e-15,-3.6166e-15,3.9283e-15,4.124e-14,8.3952e-14,-5.5124e-14,-6.3185e-13,-1.1734e-12,4.1961e-13,5.8452e-12,9.8819e-12,-1.4935e-12,-3.2642e-11,-5.0178e-11,5.296e-13,1.1001e-10,1.5369e-10,1.2757e-11,-2.2365e-10,-2.8407e-10,-4.0636e-11,2.7417e-10,3.1694e-10,5.682e-11,-2.0254e-10,-2.135e-10,-4.2426e-11,9.0111e-11,8.6853e-11,1.793e-11,-2.412e-11,-2.134e-11,-4.3993e-12,3.8799e-12,3.1672e-12,6.3505e-13,-3.7447e-13,-2.8396e-13,-5.436e-14,2.164e-14,1.538e-14,2.7733e-15,-7.4663e-16,-5.0325e-16,-8.4614e-17,1.5315e-17,9.9477e-18,1.5476e-18,-1.8557e-19,-1.1878e-19,-1.7e-20,1.3146e-21,8.5669e-22,1.1229e-22,-5.3447e-24,-3.7315e-24,-4.4651e-25,1.1998e-26,9.8146e-27
1.0295e-26,3.5188e-25,2.0583e-24,-2.6926e-24,-1.0793e-22,-5.7499e-22,3.4966e-22,1.9984e-20,9.6832e-20,-1.253e-20,-2.2333e-18,-9.8355e-18,-1.8829e-18,1.5058e-16,6.028e-16,2.4092e-16,-6.1225e-15,-2.2299e-14,-1.177e-14,1.5005e-13,4.9802e-13,2.9848e-13,-2.2149e-12,-6.7165e-12,-4.24e-12,1.9676e-11,5.4709e-11,3.479e-11,-1.0508e-10,-2.6917e-10,-1.6748e-10,3.3687e-10,8.0001e-10,4.7729e-10,-6.47e-10,-1.4364e-09,-8.0975e-10,7.4254e-10,1.5581e-09,8.2094e-10,-5.0727e-10,-1.021e-09,-4.9866e-10,2.0512e-10,4.0414e-10,1.8183e-10,-4.865e-11,-9.6631e-11,-3.986e-11,6.6624e-12,1.3954e-11,5.2586e-12,-5.1056e-13,-1.2168e-12,-4.1787e-13,2.0258e-14,6.4063e-14,2.0015e-14,-3.0227e-16,-2.0357e-15,-5.7813e-16,-4.2835e-18,3.9032e-17,1.0075e-17,2.2336e-19,-4.5138e-19,-1.0597e-19,-3.3285e-21,3.1468e-21,6.7287e-22,2.4723e-23,-1.3216e-23,-2.5799e-24,-1.0147e-25,3.3412e-26
-4.5247e-26,1.1786e-24,1.1247e-23,2.1646e-23,-3.4747e-22,-3.0371e-21,-5.9459e-21,6.16e-20,4.9536e-19,9.5515e-19,-6.5583e-18,-4.8806e-17,-9.0655e-17,4.1856e-16,2.905e-15,5.1159e-15,-1.5975e-14,-1.0446e-13,-1.7238e-13,3.6334e-13,2.2691e-12,3.4778e-12,-4.8999e-12,-2.9776e-11,-4.2102e-11,3.8868e-11,2.3602e-10,3.063e-10,-1.7893e-10,-1.1299e-09,-1.3408e-09,4.6588e-10,3.2668e-09,3.5344e-09,-6.4649e-10,-5.7024e-09,-5.6149e-09,3.9052e-10,6.0085e-09,5.3787e-09,3.9428e-11,-3.8204e-09,-3.1083e-09,-1.8084e-10,1.4653e-09,1.084e-09,9.808e-11,-3.3883e-10,-2.2821e-10,-2.5016e-11,4.7211e-11,2.9009e-11,3.4665e-12,-3.9608e-12,-2.2269e-12,-2.7377e-13,1.9988e-13,1.0326e-13,1.2596e-14,-6.0599e-15,-2.892e-15,-3.4162e-16,1.1019e-16,4.8932e-17,5.5012e-18,-1.1991e-18,-5.0017e-19,-5.284e-20,7.7847e-21,3.0885e-21,3.0371e-22,-3.0012e-23,-1.1521e-23,-1.0469e-24,6.8234e-26
-5.2497e-25,2.53e-24,4.7503e-23,2.1102e-22,-6.7063e-22,-1.2483e-20,-5.0955e-20,1.0361e-19,1.9812e-18,7.4011e-18,-9.1316e-18,-1.899e-16,-6.4724e-16,4.3826e-16,1.0991e-14,3.4105e-14,-9.9755e-15,-3.8399e-13,-1.0835e-12,3.2911e-14,8.0962e-12,2.0763e-11,2.9968e-12,-1.0298e-10,-2.401e-10,-6.1638e-11,7.8988e-10,1.6759e-09,5.4437e-10,-3.6511e-09,-7.063e-09,-2.5545e-09,1.0164e-08,1.7975e-08,6.7718e-09,-1.7024e-08,-2.763e-08,-1.0412e-08,1.7137e-08,2.5655e-08,9.4136e-09,-1.0352e-08,-1.4389e-08,-5.0453e-09,3.7445e-09,4.8758e-09,1.6113e-09,-8.0879e-10,-9.9809e-10,-3.0769e-10,1.0389e-10,1.2343e-10,3.522e-11,-7.8861e-12,-9.22e-12,-2.4209e-12,3.5023e-13,4.1601e-13,1.0006e-13,-8.9382e-15,-1.1336e-14,-2.4896e-15,1.2632e-16,1.8654e-16,3.7315e-17,-8.9606e-19,-1.8531e-18,-3.3716e-19,1.928e-21,1.111e-20,1.8373e-21,1.2055e-23,-4.0189e-23,-6.0413e-24,-8.7901e-26
-3.0032e-24,-9.7481e-25,1.5671e-22,1.1515e-21,8.2227e-22,-3.9866e-20,-2.665e-19,-2.544e-19,6.1131e-18,3.7237e-17,4.0582e-17,-5.6463e-16,-3.1418e-15,-3.6172e-15,3.1387e-14,1.601e-13,1.8603e-13,-1.0489e-12,-4.928e-12,-5.6098e-12,2.1045e-11,9.1629e-11,1.001e-10,-2.5299e-10,-1.0292e-09,-1.0632e-09,1.8176e-09,6.9843e-09,6.7465e-09,-7.7752e-09,-2.8632e-08,-2.5647e-08,1.9694e-08,7.0903e-08,5.8524e-08,-2.9276e-08,-1.0606e-07,-8.0277e-08,2.5156e-08,9.5817e-08,6.6267e-08,-1.2124e-08,-5.2273e-08,-3.2948e-08,3.0454e-09,1.7217e-08,9.8737e-09,-2.9851e-10,-3.423e-09,-1.7844e-09,-2.0996e-11,4.1061e-10,1.9455e-10,7.6566e-12,-2.9709e-11,-1.2802e-11,-7.2564e-13,1.2959e-12,5.0856e-13,3.394e-14,-3.4054e-14,-1.2199e-14,-8.7448e-16,5.3873e-16,1.7672e-16,1.2918e-17,-5.1253e-18,-1.5463e-18,-1.115e-19,2.9285e-20,8.1732e-21,5.6837e-22,-1.0032e-22,-2.6098e-23,-1.7221e-24
-1.2635e-23,-4.2965e-23,3.6987e-22,4.7046e-21,1.518e-20,-8.8366e-20,-1.0583e-18,-3.2014e-18,1.2584e-17,1.4382e-16,4.0424e-16,-1.0629e-15,-1.1807e-14,-3.0625e-14,5.2835e-14,5.8549e-13,1.3942e-12,-1.5256e-12,-1.7536e-11,-3.8187e-11,2.4961e-11,3.1718e-10,6.2985e-10,-2.1872e-10,-3.4639e-09,-6.2605e-09,8.5174e-10,2.2834e-08,3.7521e-08,2.7523e-10,-9.0835e-08,-1.3566e-07,-1.3881e-08,2.1797e-07,2.9599e-07,4.8194e-08,-3.1536e-07,-3.8984e-07,-7.752e-08,2.7494e-07,3.1002e-07,6.7472e-08,-1.4433e-07,-1.4889e-07,-3.3416e-08,4.5578e-08,4.319e-08,9.6332e-09,-8.6475e-09,-7.5678e-09,-1.6363e-09,9.8416e-10,8.0105e-10,1.6497e-10,-6.7038e-11,-5.1224e-11,-9.9188e-12,2.7247e-12,1.9788e-12,3.5681e-13,-6.5786e-14,-4.6181e-14,-7.697e-15,9.3709e-16,6.5101e-16,9.9739e-17,-7.787e-18,-5.5432e-18,-7.7735e-19,3.698e-20,2.8504e-20,3.6476e-21,-9.6027e-23,-8.8504e-23,-1.0312e-23
-4.1673e-23,-2.6069e-22,3.3403e-22,1.5089e-20,8.5946e-20,-4.855e-20,-3.2982e-18,-1.7083e-17,1.3015e-18,4.3508e-16,2.0482e-15,5.1208e-16,-3.4624e-14,-1.4818e-13,-6.8212e-14,1.6616e-12,6.4708e-12,3.8068e-12,-4.8057e-11,-1.7061e-10,-1.1228e-10,8.3708e-10,2.7164e-09,1.8672e-09,-8.7735e-09,-2.6122e-08,-1.7992e-08,5.5268e-08,1.5173e-07,1.0188e-07,-2.0894e-07,-5.3242e-07,-3.419e-07,4.7307e-07,1.1286e-06,6.8352e-07,-6.3969e-07,-1.4454e-06,-8.1695e-07,5.1453e-07,1.1182e-06,5.8523e-07,-2.4468e-07,-5.2256e-07,-2.5173e-07,6.812e-08,1.4751e-07,6.5107e-08,-1.0912e-08,-2.5147e-08,-1.0136e-08,9.7071e-10,2.5888e-09,9.5052e-10,-4.3718e-11,-1.6089e-10,-5.3734e-11,6.391e-13,6.0351e-12,1.832e-12,2.0195e-14,-1.3658e-13,-3.7688e-14,-9.7849e-16,1.8643e-15,4.6793e-16,1.6484e-17,-1.5338e-17,-3.5076e-18,-1.4197e-19,7.6015e-20,1.5877e-20,6.8126e-22,-2.2675e-22,-4.3404e-23
-1.051e-22,-1.0731e-21,-2.253e-21,3.6558e-20,3.421e-19,7.2628e-19,-7.6454e-18,-6.5876e-17,-1.3719e-16,9.5996e-16,7.6629e-15,1.533e-14,-7.2231e-14,-5.3848e-13,-1.0192e-12,3.2486e-12,2.286e-11,4.0482e-11,-8.7014e-11,-5.8627e-10,-9.6314e-10,1.3805e-09,9.0828e-09,1.3753e-08,-1.2862e-08,-8.4997e-08,-1.1805e-07,6.9339e-08,4.804e-07,6.0974e-07,-2.1014e-07,-1.6396e-06,-1.8969e-06,3.3396e-07,3.3787e-06,3.5566e-06,-2.1396e-07,-4.2025e-06,-4.0213e-06,-7.3162e-08,3.154e-06,2.7431e-06,1.9134e-07,-1.4278e-06,-1.1293e-06,-1.1545e-07,3.8966e-07,2.8066e-07,3.4012e-08,-6.4071e-08,-4.2117e-08,-5.502e-09,6.3423e-09,3.8171e-09,5.0956e-10,-3.7758e-10,-2.0895e-10,-2.7556e-11,1.3501e-11,6.9093e-12,8.7962e-13,-2.8948e-13,-1.3802e-13,-1.6686e-14,3.7127e-15,1.6656e-15,1.889e-16,-2.839e-17,-1.2143e-17,-1.2802e-18,1.2881e-19,5.3479e-20,5.205e-21,-3.4413e-22,-1.4227e-22
-1.6834e-22,-3.4185e-21,-1.6266e-20,5.2436e-20,1.0605e-18,4.6337e-18,-9.4959e-18,-1.9872e-16,-7.9414e-16,9.7622e-16,2.2486e-14,8.1956e-14,-5.3992e-14,-1.5363e-12,-5.0968e-12,1.3522e-12,6.3362e-11,1.9112e-10,4.0134e-13,-1.577e-09,-4.3231e-09,-7.7612e-10,2.3676e-08,5.9012e-08,1.728e-08,-2.1432e-07,-4.8626e-07,-1.7535e-07,1.1691e-06,2.4192e-06,9.5877e-07,-3.8403e-06,-7.2688e-06,-2.9779e-06,7.5886e-06,1.3191e-05,5.379e-06,-9.0103e-06,-1.446e-05,-5.7223e-06,6.4179e-06,9.5752e-06,3.6121e-06,-2.7364e-06,-3.8305e-06,-1.3595e-06,6.9632e-07,9.2576e-07,3.0608e-07,-1.0528e-07,-1.3516e-07,-4.1321e-08,9.3962e-09,1.192e-08,3.3506e-09,-4.8956e-10,-6.3496e-10,-1.634e-10,1.4598e-11,2.0427e-11,4.7975e-12,-2.3885e-13,-3.968e-13,-8.4863e-14,1.9034e-15,4.6531e-15,9.0501e-16,-3.3924e-18,-3.2931e-17,-5.8214e-18,-5.088e-20,1.4061e-19,2.2595e-20,3.7989e-22,-3.6203e-22
6.3616e-23,-8.5002e-21,-6.6772e-20,-5.5073e-20,2.5522e-18,1.8242e-17,1.9432e-17,-4.6185e-16,-3.0091e-15,-3.6031e-15,5.0337e-14,2.9973e-13,3.7589e-13,-3.3014e-12,-1.8032e-11,-2.2698e-11,1.3014e-10,6.5526e-10,8.0511e-10,-3.0792e-09,-1.4384e-08,-1.6917e-08,4.3638e-08,1.9076e-07,2.1171e-07,-3.6941e-07,-1.5283e-06,-1.5838e-06,1.8606e-06,7.3967e-06,7.1004e-06,-5.5427e-06,-2.1625e-05,-1.9112e-05,9.6729e-06,3.819e-05,3.0931e-05,-9.7246e-06,-4.0731e-05,-3.0129e-05,5.444e-06,2.6233e-05,1.7679e-05,-1.5554e-06,-1.02e-05,-6.2529e-06,1.5274e-07,2.3937e-06,1.3338e-06,2.4463e-08,-3.3893e-07,-1.7167e-07,-7.9439e-09,2.8944e-08,1.3335e-08,8.4883e-10,-1.49e-09,-6.2535e-10,-4.6003e-11,4.6204e-11,1.7709e-11,1.3855e-12,-8.6241e-13,-3.0287e-13,-2.4014e-14,9.6788e-15,3.1287e-15,2.4372e-16,-6.5222e-17,-1.9524e-17,-1.4625e-18,2.6342e-19,7.3603e-20,5.2206e-21,-6.3603e-22
1.714e-21,-1.5057e-20,-2.0571e-19,-7.1343e-19,4.2393e-18,5.4633e-17,1.7736e-16,-7.1099e-16,-8.7655e-15,-2.6409e-14,7.0653e-14,8.4956e-13,2.36e-12,-4.1255e-12,-4.9737e-11,-1.2675e-10,1.3953e-10,1.7587e-09,4.0965e-09,-2.6585e-09,-3.7552e-08,-7.9738e-08,2.6717e-08,4.8412e-07,9.3541e-07,-1.114e-07,-3.7673e-06,-6.6172e-06,-1.7915e-07,1.769e-05,2.824e-05,3.4855e-06,-5.0102e-05,-7.2736e-05,-1.3405e-05,8.5552e-05,0.00011309,2.4881e-05,-8.8018e-05,-0.00010618,-2.5273e-05,5.4518e-05,6.02e-05,1.4675e-05,-2.031e-05,-2.0616e-05,-4.972e-06,4.545e-06,4.2648e-06,9.9395e-07,-6.099e-07,-5.3298e-07,-1.1804e-07,4.8965e-08,4.0238e-08,8.365e-09,-2.3443e-09,-1.8352e-09,-3.5481e-10,6.6613e-11,5.0564e-11,9.0274e-12,-1.1152e-12,-8.4153e-13,-1.38e-13,1.0865e-14,8.4593e-15,1.2691e-15,-6.0206e-17,-5.1353e-17,-7.0274e-18,1.8037e-19,1.8823e-19,2.3448e-20,-2.4946e-22
7.7865e-21,-9.725e-21,-4.9755e-19,-3.0297e-18,1.563e-18,1.2838e-16,7.108e-16,-1.2259e-17,-1.999e-14,-1.0059e-13,-3.1599e-14,1.8777e-12,8.5907e-12,4.5211e-12,-1.0635e-10,-4.4286e-10,-2.8952e-10,3.6299e-09,1.3784e-08,9.9461e-09,-7.4607e-08,-2.591e-07,-1.9375e-07,9.2254e-07,2.9416e-06,2.193e-06,-6.8548e-06,-2.0173e-05,-1.4611e-05,3.0558e-05,8.3572e-05,5.7745e-05,-8.1557e-05,-0.00020916,-0.00013605,0.00012993,0.00031623,0.00019171,-0.00012302,-0.00028883,-0.00016197,6.8786e-05,0.00015936,8.2185e-05,-2.247e-05,-5.3107e-05,-2.5079e-05,4.2068e-06,1.0689e-05,4.6072e-06,-4.3357e-07,-1.299e-06,-5.0992e-07,2.2002e-08,9.5299e-08,3.4023e-08,-2.832e-10,-4.2196e-09,-1.3692e-09,-2.0524e-11,1.1272e-10,3.3249e-11,1.0006e-12,-1.8159e-12,-4.8734e-13,-1.9181e-14,1.7631e-14,4.3125e-15,1.9191e-16,-1.0311e-16,-2.3045e-17,-1.0776e-18,3.6288e-19,7.4377e-20,3.498e-21
2.4148e-20,5.5245e-20,-9.0706e-19,-9.0887e-18,-2.0908e-17,2.2377e-16,2.0662e-15,4.6452e-15,-3.3134e-14,-2.8376e-13,-6.1115e-13,2.9391e-12,2.3542e-11,4.788e-11,-1.5576e-10,-1.1799e-09,-2.2419e-09,4.9125e-09,3.5727e-08,6.29e-08,-9.1671e-08,-6.5346e-07,-1.0595e-06,1.0028e-06,7.2194e-06,1.073e-05,-6.3267e-06,-4.8172e-05,-6.5395e-05,2.2284e-05,0.00019409,0.00024009,-4.036e-05,-0.00047215,-0.0005313,2.6381e-05,0.00069322,0.00070907,2.1377e-05,-0.00061412,-0.00057095,-4.7032e-05,0.00032813,0.00027747,3.1902e-05,-0.00010568,-8.1407e-05,-1.0882e-05,2.0506e-05,1.4422e-05,2.057e-06,-2.395e-06,-1.5431e-06,-2.235e-07,1.682e-07,9.9726e-08,1.421e-08,-7.0936e-09,-3.8933e-09,-5.3397e-10,1.7932e-10,9.1819e-11,1.1933e-11,-2.7103e-12,-1.3082e-12,-1.5924e-13,2.4409e-14,1.126e-14,1.2726e-15,-1.303e-16,-5.8547e-17,-6.1028e-18,4.0898e-19,1.8388e-19,1.7589e-20
5.8022e-20,2.9568e-19,-9.661e-19,-2.1251e-17,-9.9374e-17,2.0497e-16,4.701e-15,2.0096e-14,-2.4549e-14,-6.2799e-13,-2.4474e-12,1.5592e-12,5.0651e-11,1.7964e-10,-4.2156e-11,-2.4659e-09,-7.9506e-09,-3.0177e-10,7.2443e-08,2.1229e-07,4.6275e-08,-1.2837e-06,-3.4207e-06,-1.1358e-06,1.3715e-05,3.3275e-05,1.3286e-05,-8.8288e-05,-0.00019544,-8.475e-05,0.00034218,0.00069325,0.00030857,-0.00079771,-0.0014853,-0.00065502,0.0011171,0.0019222,0.00082005,-0.00093825,-0.0015028,-0.00060972,0.00047152,0.00070978,0.00027046,-0.00014134,-0.00020252,-7.1798e-05,2.5152e-05,3.4908e-05,1.1432e-05,-2.6383e-06,-3.6346e-06,-1.0936e-06,1.6119e-07,2.2857e-07,6.2928e-08,-5.6108e-09,-8.6809e-09,-2.1803e-09,1.0601e-10,1.9907e-10,4.5517e-11,-9.3895e-13,-2.7557e-12,-5.7293e-13,8.9643e-16,2.3021e-14,4.3501e-15,4.84e-17,-1.1602e-16,-1.9931e-17,-3.8414e-19,3.5256e-19,5.5122e-20
1.0874e-19,9.1315e-19,8.6308e-19,-3.8534e-17,-2.9451e-16,-3.4895e-16,8.2292e-15,5.7349e-14,7.5326e-14,-1.0583e-12,-6.7439e-12,-9.2032e-12,8.1889e-11,4.7899e-10,6.5277e-10,-3.8078e-09,-2.055e-08,-2.7239e-08,1.0624e-07,5.326e-07,6.7404e-07,-1.7748e-06,-8.3388e-06,-9.9406e-06,1.7701e-05,7.8874e-05,8.7674e-05,-0.00010496,-0.00045069,-0.00046356,0.00036765,0.0015556,0.0014719,-0.00075294,-0.0032433,-0.0028106,0.00088497,0.0040837,0.0032306,-0.00057437,-0.0031049,-0.0022372,0.0001854,0.0014251,0.00093393,-1.6772e-05,-0.00039479,-0.00023515,-6.0099e-06,6.5982e-05,3.5725e-05,1.9224e-06,-6.6504e-06,-3.2759e-06,-2.3327e-07,4.0402e-07,1.8136e-07,1.4678e-08,-1.4784e-08,-6.0631e-09,-5.171e-10,3.2558e-10,1.2242e-10,1.0521e-11,-4.3103e-12,-1.4931e-12,-1.2558e-13,3.4254e-14,1.1e-14,8.8724e-16,-1.631e-16,-4.8959e-17,-3.7317e-18,4.6404e-19,1.3164e-19
1.4454e-19,2.1214e-18,7.9062e-18,-4.7952e-17,-6.6518e-16,-2.3171e-15,9.4699e-15,1.26e-13,4.0686e-13,-1.107e-12,-1.4418e-11,-4.2886e-11,7.5899e-11,9.9651e-10,2.7176e-09,-3.0048e-09,-4.1598e-08,-1.0364e-07,6.6574e-08,1.0486e-06,2.3807e-06,-7.6382e-07,-1.5958e-05,-3.2962e-05,3.2992e-06,0.00014659,0.00027523,1.3433e-05,-0.00081248,-0.0013865,-0.00020304,0.0027161,0.0042156,0.00087504,-0.0054735,-0.0077378,-0.0018792,0.0066452,0.0085762,0.0022297,-0.0048565,-0.0057407,-0.0015188,0.0021343,0.002321,0.00060492,-0.00056331,-0.00056687,-0.00014234,8.9125e-05,8.3637e-05,1.9915e-05,-8.4327e-06,-7.4548e-06,-1.6635e-06,4.755e-07,4.0142e-07,8.3199e-08,-1.5899e-08,-1.3058e-08,-2.4968e-09,3.1271e-10,2.5656e-10,4.5031e-11,-3.5701e-12,-3.0447e-12,-4.8863e-13,2.3059e-14,2.1821e-14,3.193e-15,-7.9448e-17,-9.4419e-17,-1.2574e-17,1.1959e-19,2.4661e-19
6.6391e-20,3.8693e-18,2.5189e-17,-1.1603e-17,-1.1786e-15,-6.9751e-15,-3.3392e-16,2.1662e-13,1.1652e-12,4.4768e-13,-2.4016e-11,-1.1747e-10,-7.023e-11,1.6054e-09,7.1486e-09,5.1792e-09,-6.4662e-08,-2.6268e-07,-2.0748e-07,1.5682e-06,5.8291e-06,4.7371e-06,-2.2876e-05,-7.813e-05,-6.3005e-05,0.00020049,0.00063257,0.00049399,-0.0010539,-0.0030939,-0.0022995,0.0033153,0.0091418,0.0063849,-0.0062217,-0.016318,-0.010608,0.006934,0.017597,0.010571,-0.0045572,-0.011462,-0.0063277,0.0017459,0.0045095,0.0022783,-0.0003817,-0.0010715,-0.00049391,4.5469e-05,0.00015372,6.4515e-05,-2.5747e-06,-1.3313e-05,-5.0807e-06,2.2167e-08,6.9582e-07,2.4135e-07,4.6664e-09,-2.194e-08,-6.9182e-09,-2.3927e-10,4.1714e-10,1.197e-10,5.2469e-12,-4.7798e-12,-1.2505e-12,-6.1081e-14,3.2984e-14,7.8891e-15,4.0156e-16,-1.3696e-16,-3.006e-17,-1.5309e-18,3.4176e-19
-3.1917e-19,5.3075e-18,5.6949e-17,1.4186e-16,-1.5444e-15,-1.5285e-14,-3.7078e-14,2.6968e-13,2.4783e-12,5.7447e-12,-2.8199e-11,-2.4275e-10,-5.3034e-10,1.7607e-09,1.4364e-08,2.9276e-08,-6.5379e-08,-5.1349e-07,-9.6871e-07,1.4347e-06,1.1088e-05,1.9248e-05,-1.842e-05,-0.00014462,-0.00022998,0.0001359,0.0011392,0.0016541,-0.00055531,-0.005419,-0.0071668,0.0011391,0.015561,0.018719,-0.00071021,-0.02697,-0.029487,-0.0012762,0.028201,0.028027,0.0026941,-0.017784,-0.016079,-0.0020706,0.00676,0.0055691,0.00081953,-0.0015478,-0.0011648,-0.00018117,0.00021329,0.00014713,2.3104e-05,-1.767e-05,-1.1226e-05,-1.7274e-06,8.7884e-07,5.1741e-07,7.6421e-08,-2.6191e-08,-1.4407e-08,-2.0122e-09,4.6649e-10,2.4234e-10,3.1654e-11,-4.9473e-12,-2.4626e-12,-2.9831e-13,3.1069e-14,1.5117e-14,1.6874e-15,-1.1452e-16,-5.6053e-17,-5.7379e-18,2.4405e-19
-1.2675e-18,4.194e-18,1.0043e-16,5.0259e-16,-1.0418e-15,-2.6229e-14,-1.1993e-13,1.4517e-13,4.1364e-12,1.7237e-11,-1.0544e-11,-3.9384e-10,-1.4932e-09,2.9914e-10,2.2634e-08,7.8006e-08,6.0427e-09,-7.8487e-07,-2.4586e-06,-6.3911e-07,1.6416e-05,4.6767e-05,1.7517e-05,-0.00020698,-0.00053704,-0.00023688,0.0015723,0.0037238,0.0017645,-0.0071904,-0.015594,-0.007535,0.019775,0.039443,0.018802,-0.032662,-0.060266,-0.027706,0.032344,0.055627,0.024267,-0.019157,-0.031019,-0.012688,0.0067634,0.010449,0.0039716,-0.0014163,-0.0021264,-0.00074589,0.00017457,0.00026138,8.4177e-05,-1.25e-05,-1.9406e-05,-5.7153e-06,5.0737e-07,8.7009e-07,2.3368e-07,-1.1037e-08,-2.3554e-08,-5.7577e-09,1.0706e-10,3.849e-10,8.5541e-11,7.2742e-14,-3.7955e-12,-7.6664e-13,-1.0531e-14,2.2577e-14,4.1464e-15,9.1e-17,-8.0973e-17,-1.3538e-17,-3.6334e-19
-2.9453e-18,-3.1689e-18,1.3721e-16,1.1214e-15,1.4737e-15,-3.458e-14,-2.5779e-13,-3.7084e-13,5.2474e-12,3.5788e-11,5.3095e-11,-4.7901e-10,-3.0009e-09,-4.4247e-09,2.6272e-08,1.52e-07,2.1727e-07,-8.6432e-07,-4.651e-06,-6.3322e-06,1.7019e-05,8.5973e-05,0.00011006,-0.00019997,-0.00096008,-0.0011445,0.0013957,0.0064768,0.0071368,-0.0057472,-0.026393,-0.026733,0.013806,0.064963,0.06023,-0.018955,-0.096565,-0.081697,0.014231,0.086672,0.066768,-0.0051444,-0.046962,-0.032898,0.00035453,0.015356,0.0097773,0.00032724,-0.0030294,-0.0017534,-0.00010873,0.00036038,0.00018981,1.5068e-05,-2.5837e-05,-1.2405e-05,-1.1026e-06,1.1156e-06,4.8961e-07,4.5471e-08,-2.8986e-08,-1.1671e-08,-1.0864e-09,4.5265e-10,1.6805e-10,1.5253e-11,-4.2421e-12,-1.4617e-12,-1.269e-13,2.3811e-14,7.6808e-15,6.2895e-16,-7.9822e-17,-2.4382e-17,-1.8636e-18
-5.1599e-18,-2.0659e-17,1.2788e-16,1.9102e-15,7.1378e-15,-2.9734e-14,-4.2718e-13,-1.4781e-12,4.0876e-12,5.7708e-11,1.8379e-10,-3.2898e-10,-4.7089e-09,-1.3741e-08,1.5235e-08,2.3206e-07,6.1837e-07,-3.9183e-07,-6.9058e-06,-1.6764e-05,5.1032e-06,0.00012407,0.00027394,-2.161e-05,-0.0013453,-0.0026999,-0.00019628,0.008801,0.016055,0.0027538,-0.034725,-0.057625,-0.013415,0.082587,0.12487,0.033404,-0.11832,-0.16338,-0.046341,0.10202,0.12911,0.037043,-0.052892,-0.06163,-0.017349,0.016463,0.017771,0.0048061,-0.003071,-0.0030955,-0.00079221,0.00034241,0.00032575,7.8004e-05,-2.2738e-05,-2.0709e-05,-4.6006e-06,8.944e-07,7.9529e-07,1.6286e-07,-2.0663e-08,-1.8448e-08,-3.4652e-09,2.7626e-10,2.5847e-10,4.4368e-11,-2.0771e-12,-2.1868e-12,-3.4215e-13,8.198e-15,1.117e-14,1.5903e-15,-1.3111e-17,-3.444e-17,-4.4572e-18
-7.097e-18,-4.939e-17,1.9685e-17,2.5517e-15,1.6143e-14,1.9319e-15,-5.536e-13,-3.1832e-12,-1.4666e-12,7.2444e-11,3.7882e-10,2.5592e-10,-5.7152e-09,-2.7215e-08,-2.1798e-08,2.7165e-07,1.1806e-06,1.0194e-06,-7.7733e-06,-3.0929e-05,-2.7294e-05,0.00013377,0.00048943,0.00042668,-0.0013828,-0.0046783,-0.0039374,0.0085704,0.027015,0.021591,-0.031775,-0.09424,-0.07066,0.070239,0.1986,0.13843,-0.092122,-0.25284,-0.16269,0.07115,0.19444,0.11489,-0.031953,-0.090313,-0.048812,0.0081487,0.025333,0.012487,-0.0011188,-0.0042904,-0.0019251,6.9768e-05,0.00043863,0.00017894,3.7379e-09,-2.7061e-05,-1.0033e-05,-2.4169e-07,1.0071e-06,3.3951e-07,1.3399e-08,-2.26e-08,-6.9347e-09,-3.3751e-10,3.056e-10,8.5524e-11,4.5778e-12,-2.4884e-12,-6.3697e-13,-3.526e-14,1.2189e-14,2.8654e-15,1.5792e-16,-3.5878e-17,-7.786e-18
-7.3236e-18,-8.4162e-17,-2.2688e-16,2.5137e-15,2.6669e-14,6.9771e-14,-5.1758e-13,-5.1051e-12,-1.2731e-11,6.3794e-11,5.9037e-10,1.3852e-09,-4.6926e-09,-4.1244e-08,-9.0152e-08,2.0511e-07,1.7406e-06,3.5182e-06,-5.2917e-06,-4.4376e-05,-8.2467e-05,7.9704e-05,0.00068332,0.0011626,-0.00068711,-0.0063546,-0.009867,0.0032504,0.035683,0.050454,-0.0074912,-0.12096,-0.15554,0.0038763,0.24746,0.28921,0.016682,-0.30543,-0.32449,-0.036046,0.22733,0.21976,0.031585,-0.10198,-0.089855,-0.01453,0.027552,0.022187,0.0037592,-0.0044794,-0.0033087,-0.00056289,0.00043774,0.00029804,4.9501e-05,-2.5675e-05,-1.6218e-05,-2.5787e-06,9.0203e-07,5.3315e-07,8.0005e-08,-1.8931e-08,-1.0588e-08,-1.4837e-09,2.3639e-10,1.2703e-10,1.649e-11,-1.746e-12,-9.206e-13,-1.1003e-13,7.5556e-15,4.03e-15,4.4143e-16,-1.8839e-17,-1.0655e-17
-4.2897e-18,-1.1195e-16,-5.9946e-16,1.2468e-15,3.4515e-14,1.6879e-13,-2.0179e-13,-6.4259e-12,-2.8631e-11,1.6672e-11,7.2225e-10,2.9273e-09,-4.7409e-10,-4.8997e-08,-1.805e-07,-2.1826e-08,2.0055e-06,6.7155e-06,2.0529e-06,-4.9508e-05,-0.0001508,-6.3434e-05,0.00073671,0.0020442,0.00099395,-0.006604,-0.016734,-0.0086539,0.035632,0.08273,0.043362,-0.1156,-0.24705,-0.12722,0.22519,0.44565,0.22069,-0.26291,-0.48565,-0.22773,0.1835,0.31972,0.14035,-0.0763,-0.12716,-0.051807,0.018799,0.03055,0.011476,-0.0027218,-0.0044335,-0.001528,0.00022829,0.00038859,0.00012242,-1.0791e-05,-2.0568e-05,-5.9068e-06,2.693e-07,6.5731e-07,1.7177e-07,-2.8011e-09,-1.2679e-08,-3.0121e-09,-1.0588e-11,1.4758e-10,3.1866e-11,5.2853e-13,-1.0362e-12,-2.0345e-13,-5.0552e-15,4.3859e-15,7.8414e-16,2.3288e-17,-1.1186e-17
2.7285e-18,-1.1522e-16,-1.007e-15,-1.4643e-15,3.4268e-14,2.733e-13,4.2999e-13,-6.1358e-12,-4.4793e-11,-7.2182e-11,6.6078e-10,4.4343e-09,7.0697e-09,-4.2745e-08,-2.6517e-07,-4.0855e-07,1.6581e-06,9.5793e-06,1.4026e-05,-3.8482e-05,-0.00020906,-0.00028732,0.00053259,0.0027563,0.003523,-0.0043748,-0.021952,-0.025911,0.021172,0.10561,0.1145,-0.05963,-0.30689,-0.30439,0.095531,0.53855,0.48723,-0.082751,-0.57063,-0.46996,0.033105,0.36498,0.27331,-0.00077108,-0.14088,-0.09588,-0.0040394,0.032803,0.020298,0.0014395,-0.0046056,-0.0025938,-0.00022885,0.00038967,0.00020013,1.9503e-05,-1.9854e-05,-9.3248e-06,-9.4213e-07,6.0857e-07,2.6242e-07,2.6441e-08,-1.121e-08,-4.461e-09,-4.3678e-10,1.2388e-10,4.5811e-11,4.2796e-12,-8.1965e-13,-2.842e-13,-2.4996e-14,3.2372e-15,1.0652e-15,8.7318e-17,-7.5995e-18
1.2729e-17,-8.0404e-17,-1.2937e-15,-5.1851e-15,2.2008e-14,3.4158e-13,1.2663e-12,-3.5573e-12,-5.4478e-11,-1.8575e-10,3.3593e-10,5.2481e-09,1.6385e-08,-1.8182e-08,-3.0533e-07,-8.7013e-07,5.4179e-07,1.0726e-05,2.7839e-05,-7.9513e-06,-0.00022748,-0.00053694,2.9688e-05,0.0029117,0.0062465,0.00061785,-0.022484,-0.043848,-0.0087177,0.1047,0.18578,0.048325,-0.29388,-0.47523,-0.13978,0.49682,0.73411,0.2269,-0.50543,-0.68489,-0.21293,0.3091,0.38597,0.11729,-0.11346,-0.13139,-0.038259,0.02495,0.027022,0.0074306,-0.003278,-0.0033572,-0.00086252,0.00025632,0.00025197,5.9992e-05,-1.1859e-05,-1.1424e-05,-2.505e-06,3.2168e-07,3.1287e-07,6.2886e-08,-5.0334e-09,-5.1749e-09,-9.5012e-10,4.3988e-11,5.1686e-11,8.6469e-12,-1.9792e-13,-3.1167e-13,-4.7434e-14,3.2384e-16,1.1343e-15,1.5692e-16,6.2707e-19
2.284e-17,-7.5176e-18,-1.303e-15,-8.8115e-15,-1.7507e-15,3.3368e-13,2.051e-12,1.116e-12,-5.1537e-11,-2.8813e-10,-2.1892e-10,4.7984e-09,2.4436e-08,2.159e-08,-2.6914e-07,-1.2514e-06,-1.1798e-06,9.0868e-06,3.8706e-05,3.706e-05,-0.00018448,-0.0007231,-0.00068113,0.002249,0.0081604,0.007399,-0.016434,-0.055633,-0.047798,0.071806,0.22913,0.18439,-0.18694,-0.5701,-0.42597,0.28848,0.85687,0.59051,-0.26175,-0.77795,-0.49198,0.13772,0.42659,0.24663,-0.040921,-0.14126,-0.074457,0.0064537,0.028243,0.013547,-0.00043503,-0.0034084,-0.0014863,-7.2259e-06,0.00024821,9.8375e-05,2.8808e-06,-1.0903e-05,-3.9295e-06,-1.7589e-07,2.8876e-07,9.475e-08,5.107e-09,-4.6079e-09,-1.3795e-09,-8.0802e-11,4.4271e-11,1.213e-11,7.2956e-13,-2.5584e-13,-6.4419e-14,-3.8399e-15,8.882e-16,2.0666e-16,1.1919e-17
2.9335e-17,8.5525e-17,-9.6477e-16,-1.0975e-14,-3.0952e-14,2.3423e-13,2.4803e-12,6.6527e-12,-3.4028e-11,-3.3863e-10,-8.5306e-10,2.9485e-09,2.793e-08,6.5464e-08,-1.5168e-07,-1.3917e-06,-3.0132e-06,4.5996e-06,4.1886e-05,8.3322e-05,-8.1239e-05,-0.00076145,-0.001386,0.00081753,0.0083597,0.013881,-0.0044662,-0.055416,-0.083771,0.011441,0.22175,0.30481,-0.003197,-0.53551,-0.669,-0.049142,0.78014,0.88606,0.11284,-0.68531,-0.70838,-0.11327,0.36279,0.34194,0.060657,-0.11566,-0.099674,-0.018379,0.022185,0.017549,0.0032323,-0.0025573,-0.0018663,-0.00033441,0.00017687,0.0001199,2.0515e-05,-7.3251e-06,-4.6534e-06,-7.5006e-07,1.8112e-07,1.0911e-07,1.64e-08,-2.6626e-09,-1.5454e-09,-2.1495e-10,2.3125e-11,1.3223e-11,1.692e-12,-1.1744e-13,-6.8336e-14,-8.0089e-15,3.4236e-16,2.1329e-16,2.282e-17
2.9431e-17,1.6862e-16,-3.5123e-16,-1.0712e-14,-5.6028e-14,6.5907e-14,2.3544e-12,1.1216e-11,-6.1525e-12,-3.1238e-10,-1.3534e-09,1.6135e-10,2.5015e-08,9.8509e-08,1.6611e-08,-1.2086e-06,-4.3262e-06,-1.538e-06,3.5213e-05,0.00011468,5.3967e-05,-0.00061839,-0.0018352,-0.00098173,0.0065413,0.017736,0.0099987,-0.041642,-0.10352,-0.05881,0.15936,0.36496,0.20292,-0.3661,-0.77725,-0.41445,0.5039,1,0.5039,-0.41445,-0.77725,-0.3661,0.20292,0.36496,0.15936,-0.05881,-0.10352,-0.041642,0.0099987,0.017736,0.0065413,-0.00098173,-0.0018352,-0.00061839,5.3967e-05,0.00011468,3.5213e-05,-1.538e-06,-4.3262e-06,-1.2086e-06,1.6611e-08,9.8509e-08,2.5015e-08,1.6135e-10,-1.3534e-09,-3.1238e-10,-6.1525e-12,1.1216e-11,2.3544e-12,6.5907e-14,-5.6028e-14,-1.0712e-14,-3.5123e-16,1.6862e-16,2.9431e-17
2.282e-17,2.1329e-16,3.4236e-16,-8.0089e-15,-6.8336e-14,-1.1744e-13,1.692e-12,1.3223e-11,2.3125e-11,-2.1495e-10,-1.5454e-09,-2.6626e-09,1.64e-08,1.0911e-07,1.8112e-07,-7.5006e-07,-4.6534e-06,-7.3251e-06,2.0515e-05,0.0001199,0.00017687,-0.00033441,-0.0018663,-0.0025573,0.0032323,0.017549,0.022185,-0.018379,-0.099674,-0.11566,0.060657,0.34194,0.36279,-0.11327,-0.70838,-0.68531,0.11284,0.88606,0.78014,-0.049142,-0.669,-0.53551,-0.003197,0.30481,0.22175,0.011441,-0.083771,-0.055416,-0.0044662,0.013881,0.0083597,0.00081753,-0.001386,-0.00076145,-8.1239e-05,8.3322e-05,4.1886e-05,4.5996e-06,-3.0132e-06,-1.3917e-06,-1.5168e-07,6.5464e-08,2.793e-08,2.9485e-09,-8.5306e-10,-3.3863e-10,-3.4028e-11,6.6527e-12,2.4803e-12,2.3423e-13,-3.0952e-14,-1.0975e-14,-9.6477e-16,8.5525e-17,2.9335e-17
1.1919e-17,2.0666e-16,8.882e-16,-3.8399e-15,-6.4419e-14,-2.5584e-13,7.2956e-13,1.213e-11,4.4271e-11,-8.0802e-11,-1.3795e-09,-4.6079e-09,5.107e-09,9.475e-08,2.8876e-07,-1.7589e-07,-3.9295e-06,-1.0903e-05,2.8808e-06,9.8375e-05,0.00024821,-7.2259e-06,-0.0014863,-0.0034084,-0.00043503,0.013547,0.028243,0.0064537,-0.074457,-0.14126,-0.040921,0.24663,0.42659,0.13772,-0.49198,-0.77795,-0.26175,0.59051,0.85687,0.28848,-0.42597,-0.5701,-0.18694,0.18439,0.22913,0.071806,-0.047798,-0.055633,-0.016434,0.007399,0.0081604,0.002249,-0.00068113,-0.0007231,-0.00018448,3.706e-05,3.8706e-05,9.0868e-06,-1.1798e-06,-1.2514e-06,-2.6914e-07,2.159e-08,2.4436e-08,4.7984e-09,-2.1892e-10,-2.8813e-10,-5.1537e-11,1.116e-12,2.051e-12,3.3368e-13,-1.7507e-15,-8.8115e-15,-1.303e-15,-7.5176e-18,2.284e-17
6.2707e-19,1.5692e-16,1.1343e-15,3.2384e-16,-4.7434e-14,-3.1167e-13,-1.9792e-13,8.6469e-12,5.1686e-11,4.3988e-11,-9.5012e-10,-5.1749e-09,-5.0334e-09,6.2886e-08,3.1287e-07,3.2168e-07,-2.505e-06,-1.1424e-05,-1.1859e-05,5.9992e-05,0.00025197,0.00025632,-0.00086252,-0.0033572,-0.003278,0.0074306,0.027022,0.02495,-0.038259,-0.13139,-0.11346,0.11729,0.38597,0.3091,-0.21293,-0.68489,-0.50543,0.2269,0.73411,0.49682,-0.13978,-0.47523,-0.29388,0.048325,0.18578,0.1047,-0.0087177,-0.043848,-0.022484,0.00061785,0.0062465,0.0029117,2.9688e-05,-0.00053694,-0.00022748,-7.9513e-06,2.7839e-05,1.0726e-05,5.4179e-07,-8.7013e-07,-3.0533e-07,-1.8182e-08,1.6385e-08,5.2481e-09,3.3593e-10,-1.8575e-10,-5.4478e-11,-3.5573e-12,1.2663e-12,3.4158e-13,2.2008e-14,-5.1851e-15,-1.2937e-15,-8.0404e-17,1.2729e-17
-7.5995e-18,8.7318e-17,1.0652e-15,3.2372e-15,-2.4996e-14,-2.842e-13,-8.1965e-13,4.2796e-12,4.5811e-11,1.2388e-10,-4.3678e-10,-4.461e-09,-1.121e-08,2.6441e-08,2.6242e-07,6.0857e-07,-9.4213e-07,-9.3248e-06,-1.9854e-05,1.9503e-05,0.00020013,0.00038967,-0.00022885,-0.0025938,-0.0046056,0.0014395,0.020298,0.032803,-0.0040394,-0.09588,-0.14088,-0.00077108,0.27331,0.36498,0.033105,-0.46996,-0.57063,-0.082751,0.48723,0.53855,0.095531,-0.30439,-0.30689,-0.05963,0.1145,0.10561,0.021172,-0.025911,-0.021952,-0.0043748,0.003523,0.0027563,0.00053259,-0.00028732,-0.00020906,-3.8482e-05,1.4026e-05,9.5793e-06,1.6581e-06,-4.0855e-07,-2.6517e-07,-4.2745e-08,7.0697e-09,4.4343e-09,6.6078e-10,-7.2182e-11,-4.4793e-11,-6.1358e-12,4.2999e-13,2.733e-13,3.4268e-14,-1.4643e-15,-1.007e-15,-1.1522e-16,2.7285e-18
-1.1186e-17,2.3288e-17,7.8414e-16,4.3859e-15,-5.0552e-15,-2.0345e-13,-1.0362e-12,5.2853e-13,3.1866e-11,1.4758e-10,-1.0588e-11,-3.0121e-09,-1.2679e-08,-2.8011e-09,1.7177e-07,6.5731e-07,2.693e-07,-5.9068e-06,-2.0568e-05,-1.0791e-05,0.00012242,0.00038859,0.00022829,-0.001528,-0.0044335,-0.0027218,0.011476,0.03055,0.018799,-0.051807,-0.12716,-0.0763,0.14035,0.31972,0.1835,-0.22773,-0.48565,-0.26291,0.22069,0.44565,0.22519,-0.12722,-0.24705,-0.1156,0.043362,0.08273,0.035632,-0.0086539,-0.016734,-0.006604,0.00099395,0.0020442,0.00073671,-6.3434e-05,-0.0001508,-4.9508e-05,2.0529e-06,6.7155e-06,2.0055e-06,-2.1826e-08,-1.805e-07,-4.8997e-08,-4.7409e-10,2.9273e-09,7.2225e-10,1.6672e-11,-2.8631e-11,-6.4259e-12,-2.0179e-13,1.6879e-13,3.4515e-14,1.2468e-15,-5.9946e-16,-1.1195e-16,-4.2897e-18
-1.0655e-17,-1.8839e-17,4.4143e-16,4.03e-15,7.5556e-15,-1.1003e-13,-9.206e-13,-1.746e-12,1.649e-11,1.2703e-10,2.3639e-10,-1.4837e-09,-1.0588e-08,-1.8931e-08,8.0005e-08,5.3315e-07,9.0203e-07,-2.5787e-06,-1.6218e-05,-2.5675e-05,4.9501e-05,0.00029804,0.00043774,-0.00056289,-0.0033087,-0.0044794,0.0037592,0.022187,0.027552,-0.01453,-0.089855,-0.10198,0.031585,0.21976,0.22733,-0.036046,-0.32449,-0.30543,0.016682,0.28921,0.24746,0.0038763,-0.15554,-0.12096,-0.0074912,0.050454,0.035683,0.0032504,-0.009867,-0.0063546,-0.00068711,0.0011626,0.00068332,7.9704e-05,-8.2467e-05,-4.4376e-05,-5.2917e-06,3.5182e-06,1.7406e-06,2.0511e-07,-9.0152e-08,-4.1244e-08,-4.6926e-09,1.3852e-09,5.9037e-10,6.3794e-11,-1.2731e-11,-5.1051e-12,-5.1758e-13,6.9771e-14,2.6669e-14,2.5137e-15,-2.2688e-16,-8.4162e-17,-7.3236e-18
-7.786e-18,-3.5878e-17,1.5792e-16,2.8654e-15,1.2189e-14,-3.526e-14,-6.3697e-13,-2.4884e-12,4.5778e-12,8.5524e-11,3.056e-10,-3.3751e-10,-6.9347e-09,-2.26e-08,1.3399e-08,3.3951e-07,1.0071e-06,-2.4169e-07,-1.0033e-05,-2.7061e-05,3.7379e-09,0.00017894,0.00043863,6.9768e-05,-0.0019251,-0.0042904,-0.0011188,0.012487,0.025333,0.0081487,-0.048812,-0.090313,-0.031953,0.11489,0.19444,0.07115,-0.16269,-0.25284,-0.092122,0.13843,0.1986,0.070239,-0.07066,-0.09424,-0.031775,0.021591,0.027015,0.0085704,-0.0039374,-0.0046783,-0.0013828,0.00042668,0.00048943,0.00013377,-2.7294e-05,-3.0929e-05,-7.7733e-06,1.0194e-06,1.1806e-06,2.7165e-07,-2.1798e-08,-2.7215e-08,-5.7152e-09,2.5592e-10,3.7882e-10,7.2444e-11,-1.4666e-12,-3.1832e-12,-5.536e-13,1.9319e-15,1.6143e-14,2.5517e-15,1.9685e-17,-4.939e-17,-7.097e-18
-4.4572e-18,-3.444e-17,-1.3111e-17,1.5903e-15,1.117e-14,8.198e-15,-3.4215e-13,-2.1868e-12,-2.0771e-12,4.4368e-11,2.5847e-10,2.7626e-10,-3.4652e-09,-1.8448e-08,-2.0663e-08,1.6286e-07,7.9529e-07,8.944e-07,-4.6006e-06,-2.0709e-05,-2.2738e-05,7.8004e-05,0.00032575,0.00034241,-0.00079221,-0.0030955,-0.003071,0.0048061,0.017771,0.016463,-0.017349,-0.06163,-0.052892,0.037043,0.12911,0.10202,-0.046341,-0.16338,-0.11832,0.033404,0.12487,0.082587,-0.013415,-0.057625,-0.034725,0.0027538,0.016055,0.008801,-0.00019628,-0.0026999,-0.0013453,-2.161e-05,0.00027394,0.00012407,5.1032e-06,-1.6764e-05,-6.9058e-06,-3.9183e-07,6.1837e-07,2.3206e-07,1.5235e-08,-1.3741e-08,-4.7089e-09,-3.2898e-10,1.8379e-10,5.7708e-11,4.0876e-12,-1.4781e-12,-4.2718e-13,-2.9734e-14,7.1378e-15,1.9102e-15,1.2788e-16,-2.0659e-17,-5.1599e-18
-1.8636e-18,-2.4382e-17,-7.9822e-17,6.2895e-16,7.6808e-15,2.3811e-14,-1.269e-13,-1.4617e-12,-4.2421e-12,1.5253e-11,1.6805e-10,4.5265e-10,-1.0864e-09,-1.1671e-08,-2.8986e-08,4.5471e-08,4.8961e-07,1.1156e-06,-1.1026e-06,-1.2405e-05,-2.5837e-05,1.5068e-05,0.00018981,0.00036038,-0.00010873,-0.0017534,-0.0030294,0.00032724,0.0097773,0.015356,0.00035453,-0.032898,-0.046962,-0.0051444,0.066768,0.086672,0.014231,-0.081697,-0.096565,-0.018955,0.06023,0.064963,0.013806,-0.026733,-0.026393,-0.0057472,0.0071368,0.0064768,0.0013957,-0.0011445,-0.00096008,-0.00019997,0.00011006,8.5973e-05,1.7019e-05,-6.3322e-06,-4.651e-06,-8.6432e-07,2.1727e-07,1.52e-07,2.6272e-08,-4.4247e-09,-3.0009e-09,-4.7901e-10,5.3095e-11,3.5788e-11,5.2474e-12,-3.7084e-13,-2.5779e-13,-3.458e-14,1.4737e-15,1.1214e-15,1.3721e-16,-3.1689e-18,-2.9453e-18
-3.6334e-19,-1.3538e-17,-8.0973e-17,9.1e-17,4.1464e-15,2.2577e-14,-1.0531e-14,-7.6664e-13,-3.7955e-12,7.2742e-14,8.5541e-11,3.849e-10,1.0706e-10,-5.7577e-09,-2.3554e-08,-1.1037e-08,2.3368e-07,8.7009e-07,5.0737e-07,-5.7153e-06,-1.9406e-05,-1.25e-05,8.4177e-05,0.00026138,0.00017457,-0.00074589,-0.0021264,-0.0014163,0.0039716,0.010449,0.0067634,-0.012688,-0.031019,-0.019157,0.024267,0.055627,0.032344,-0.027706,-0.060266,-0.032662,0.018802,0.039443,0.019775,-0.007535,-0.015594,-0.0071904,0.0017645,0.0037238,0.0015723,-0.00023688,-0.00053704,-0.00020698,1.7517e-05,4.6767e-05,1.6416e-05,-6.3911e-07,-2.4586e-06,-7.8487e-07,6.0427e-09,7.8006e-08,2.2634e-08,2.9914e-10,-1.4932e-09,-3.9384e-10,-1.0544e-11,1.7237e-11,4.1364e-12,1.4517e-13,-1.1993e-13,-2.6229e-14,-1.0418e-15,5.0259e-16,1.0043e-16,4.194e-18,-1.2675e-18
2.4405e-19,-5.7379e-18,-5.6053e-17,-1.1452e-16,1.6874e-15,1.5117e-14,3.1069e-14,-2.9831e-13,-2.4626e-12,-4.9473e-12,3.1654e-11,2.4234e-10,4.6649e-10,-2.0122e-09,-1.4407e-08,-2.6191e-08,7.6421e-08,5.1741e-07,8.7884e-07,-1.7274e-06,-1.1226e-05,-1.767e-05,2.3104e-05,0.00014713,0.00021329,-0.00018117,-0.0011648,-0.0015478,0.00081953,0.0055691,0.00676,-0.0020706,-0.016079,-0.017784,0.0026941,0.028027,0.028201,-0.0012762,-0.029487,-0.02697,-0.00071021,0.018719,0.015561,0.0011391,-0.0071668,-0.005419,-0.00055531,0.0016541,0.0011392,0.0001359,-0.00022998,-0.00014462,-1.842e-05,1.9248e-05,1.1088e-05,1.4347e-06,-9.6871e-07,-5.1349e-07,-6.5379e-08,2.9276e-08,1.4364e-08,1.7607e-09,-5.3034e-10,-2.4275e-10,-2.8199e-11,5.7447e-12,2.4783e-12,2.6968e-13,-3.7078e-14,-1.5285e-14,-1.5444e-15,1.4186e-16,5.6949e-17,5.3075e-18,-3.1917e-19
3.4176e-19,-1.5309e-18,-3.006e-17,-1.3696e-16,4.0156e-16,7.8891e-15,3.2984e-14,-6.1081e-14,-1.2505e-12,-4.7798e-12,5.2469e-12,1.197e-10,4.1714e-10,-2.3927e-10,-6.9182e-09,-2.194e-08,4.6664e-09,2.4135e-07,6.9582e-07,2.2167e-08,-5.0807e-06,-1.3313e-05,-2.5747e-06,6.4515e-05,0.00015372,4.5469e-05,-0.00049391,-0.0010715,-0.0003817,0.0022783,0.0045095,0.0017459,-0.0063277,-0.011462,-0.0045572,0.010571,0.017597,0.006934,-0.010608,-0.016318,-0.0062217,0.0063849,0.0091418,0.0033153,-0.0022995,-0.0030939,-0.0010539,0.00049399,0.00063257,0.00020049,-6.3005e-05,-7.813e-05,-2.2876e-05,4.7371e-06,5.8291e-06,1.5682e-06,-2.0748e-07,-2.6268e-07,-6.4662e-08,5.1792e-09,7.1486e-09,1.6054e-09,-7.023e-11,-1.1747e-10,-2.4016e-11,4.4768e-13,1.1652e-12,2.1662e-13,-3.3392e-16,-6.9751e-15,-1.1786e-15,-1.1603e-17,2.5189e-17,3.8693e-18,6.6391e-20
2.4661e-19,1.1959e-19,-1.2574e-17,-9.4419e-17,-7.9448e-17,3.193e-15,2.1821e-14,2.3059e-14,-4.8863e-13,-3.0447e-12,-3.5701e-12,4.5031e-11,2.5656e-10,3.1271e-10,-2.4968e-09,-1.3058e-08,-1.5899e-08,8.3199e-08,4.0142e-07,4.755e-07,-1.6635e-06,-7.4548e-06,-8.4327e-06,1.9915e-05,8.3637e-05,8.9125e-05,-0.00014234,-0.00056687,-0.00056331,0.00060492,0.002321,0.0021343,-0.0015188,-0.0057407,-0.0048565,0.0022297,0.0085762,0.0066452,-0.0018792,-0.0077378,-0.0054735,0.00087504,0.0042156,0.0027161,-0.00020304,-0.0013865,-0.00081248,1.3433e-05,0.00027523,0.00014659,3.2992e-06,-3.2962e-05,-1.5958e-05,-7.6382e-07,2.3807e-06,1.0486e-06,6.6574e-08,-1.0364e-07,-4.1598e-08,-3.0048e-09,2.7176e-09,9.9651e-10,7.5899e-11,-4.2886e-11,-1.4418e-11,-1.107e-12,4.0686e-13,1.26e-13,9.4699e-15,-2.3171e-15,-6.6518e-16,-4.7952e-17,7.9062e-18,2.1214e-18,1.4454e-19
1.3164e-19,4.6404e-19,-3.7317e-18,-4.8959e-17,-1.631e-16,8.8724e-16,1.1e-14,3.4254e-14,-1.2558e-13,-1.4931e-12,-4.3103e-12,1.0521e-11,1.2242e-10,3.2558e-10,-5.171e-10,-6.0631e-09,-1.4784e-08,1.4678e-08,1.8136e-07,4.0402e-07,-2.3327e-07,-3.2759e-06,-6.6504e-06,1.9224e-06,3.5725e-05,6.5982e-05,-6.0099e-06,-0.00023515,-0.00039479,-1.6772e-05,0.00093393,0.0014251,0.0001854,-0.0022372,-0.0031049,-0.00057437,0.0032306,0.0040837,0.00088497,-0.0028106,-0.0032433,-0.00075294,0.0014719,0.0015556,0.00036765,-0.00046356,-0.00045069,-0.00010496,8.7674e-05,7.8874e-05,1.7701e-05,-9.9406e-06,-8.3388e-06,-1.7748e-06,6.7404e-07,5.326e-07,1.0624e-07,-2.7239e-08,-2.055e-08,-3.8078e-09,6.5277e-10,4.7899e-10,8.1889e-11,-9.2032e-12,-6.7439e-12,-1.0583e-12,7.5326e-14,5.7349e-14,8.2292e-15,-3.4895e-16,-2.9451e-16,-3.8534e-17,8.6308e-19,9.1315e-19,1.0874e-19
5.5122e-20,3.5256e-19,-3.8414e-19,-1.9931e-17,-1.1602e-16,4.84e-17,4.3501e-15,2.3021e-14,8.9643e-16,-5.7293e-13,-2.7557e-12,-9.3895e-13,4.5517e-11,1.9907e-10,1.0601e-10,-2.1803e-09,-8.6809e-09,-5.6108e-09,6.2928e-08,2.2857e-07,1.6119e-07,-1.0936e-06,-3.6346e-06,-2.6383e-06,1.1432e-05,3.4908e-05,2.5152e-05,-7.1798e-05,-0.00020252,-0.00014134,0.00027046,0.00070978,0.00047152,-0.00060972,-0.0015028,-0.00093825,0.00082005,0.0019222,0.0011171,-0.00065502,-0.0014853,-0.00079771,0.00030857,0.00069325,0.00034218,-8.475e-05,-0.00019544,-8.8288e-05,1.3286e-05,3.3275e-05,1.3715e-05,-1.1358e-06,-3.4207e-06,-1.2837e-06,4.6275e-08,2.1229e-07,7.2443e-08,-3.0177e-10,-7.9506e-09,-2.4659e-09,-4.2156e-11,1.7964e-10,5.0651e-11,1.5592e-12,-2.4474e-12,-6.2799e-13,-2.4549e-14,2.0096e-14,4.701e-15,2.0497e-16,-9.9374e-17,-2.1251e-17,-9.661e-19,2.9568e-19,5.8022e-20
1.7589e-20,1.8388e-19,4.0898e-19,-6.1028e-18,-5.8547e-17,-1.303e-16,1.2726e-15,1.126e-14,2.4409e-14,-1.5924e-13,-1.3082e-12,-2.7103e-12,1.1933e-11,9.1819e-11,1.7932e-10,-5.3397e-10,-3.8933e-09,-7.0936e-09,1.421e-08,9.9726e-08,1.682e-07,-2.235e-07,-1.5431e-06,-2.395e-06,2.057e-06,1.4422e-05,2.0506e-05,-1.0882e-05,-8.1407e-05,-0.00010568,3.1902e-05,0.00027747,0.00032813,-4.7032e-05,-0.00057095,-0.00061412,2.1377e-05,0.00070907,0.00069322,2.6381e-05,-0.0005313,-0.00047215,-4.036e-05,0.00024009,0.00019409,2.2284e-05,-6.5395e-05,-4.8172e-05,-6.3267e-06,1.073e-05,7.2194e-06,1.0028e-06,-1.0595e-06,-6.5346e-07,-9.1671e-08,6.29e-08,3.5727e-08,4.9125e-09,-2.2419e-09,-1.1799e-09,-1.5576e-10,4.788e-11,2.3542e-11,2.9391e-12,-6.1115e-13,-2.8376e-13,-3.3134e-14,4.6452e-15,2.0662e-15,2.2377e-16,-2.0908e-17,-9.0887e-18,-9.0706e-19,5.5245e-20,2.4148e-20
3.498e-21,7.4377e-20,3.6288e-19,-1.0776e-18,-2.3045e-17,-1.0311e-16,1.9191e-16,4.3125e-15,1.7631e-14,-1.9181e-14,-4.8734e-13,-1.8159e-12,1.0006e-12,3.3249e-11,1.1272e-10,-2.0524e-11,-1.3692e-09,-4.2196e-09,-2.832e-10,3.4023e-08,9.5299e-08,2.2002e-08,-5.0992e-07,-1.299e-06,-4.3357e-07,4.6072e-06,1.0689e-05,4.2068e-06,-2.5079e-05,-5.3107e-05,-2.247e-05,8.2185e-05,0.00015936,6.8786e-05,-0.00016197,-0.00028883,-0.00012302,0.00019171,0.00031623,0.00012993,-0.00013605,-0.00020916,-8.1557e-05,5.7745e-05,8.3572e-05,3.0558e-05,-1.4611e-05,-2.0173e-05,-6.8548e-06,2.193e-06,2.9416e-06,9.2254e-07,-1.9375e-07,-2.591e-07,-7.4607e-08,9.9461e-09,1.3784e-08,3.6299e-09,-2.8952e-10,-4.4286e-10,-1.0635e-10,4.5211e-12,8.5907e-12,1.8777e-12,-3.1599e-14,-1.0059e-13,-1.999e-14,-1.2259e-17,7.108e-16,1.2838e-16,1.563e-18,-3.0297e-18,-4.9755e-19,-9.725e-21,7.7865e-21
-2.4946e-22,2.3448e-20,1.8823e-19,1.8037e-19,-7.0274e-18,-5.1353e-17,-6.0206e-17,1.2691e-15,8.4593e-15,1.0865e-14,-1.38e-13,-8.4153e-13,-1.1152e-12,9.0274e-12,5.0564e-11,6.6613e-11,-3.5481e-10,-1.8352e-09,-2.3443e-09,8.365e-09,4.0238e-08,4.8965e-08,-1.1804e-07,-5.3298e-07,-6.099e-07,9.9395e-07,4.2648e-06,4.545e-06,-4.972e-06,-2.0616e-05,-2.031e-05,1.4675e-05,6.02e-05,5.4518e-05,-2.5273e-05,-0.00010618,-8.8018e-05,2.4881e-05,0.00011309,8.5552e-05,-1.3405e-05,-7.2736e-05,-5.0102e-05,3.4855e-06,2.824e-05,1.769e-05,-1.7915e-07,-6.6172e-06,-3.7673e-06,-1.114e-07,9.3541e-07,4.8412e-07,2.6717e-08,-7.9738e-08,-3.7552e-08,-2.6585e-09,4.0965e-09,1.7587e-09,1.3953e-10,-1.2675e-10,-4.9737e-11,-4.1255e-12,2.36e-12,8.4956e-13,7.0653e-14,-2.6409e-14,-8.7655e-15,-7.1099e-16,1.7736e-16,5.4633e-17,4.2393e-18,-7.1343e-19,-2.0571e-19,-1.5057e-20,1.714e-21
-6.3603e-22,5.2206e-21,7.3603e-20,2.6342e-19,-1.4625e-18,-1.9524e-17,-6.5222e-17,2.4372e-16,3.1287e-15,9.6788e-15,-2.4014e-14,-3.0287e-13,-8.6241e-13,1.3855e-12,1.7709e-11,4.6204e-11,-4.6003e-11,-6.2535e-10,-1.49e-09,8.4883e-10,1.3335e-08,2.8944e-08,-7.9439e-09,-1.7167e-07,-3.3893e-07,2.4463e-08,1.3338e-06,2.3937e-06,1.5274e-07,-6.2529e-06,-1.02e-05,-1.5554e-06,1.7679e-05,2.6233e-05,5.444e-06,-3.0129e-05,-4.0731e-05,-9.7246e-06,3.0931e-05,3.819e-05,9.6729e-06,-1.9112e-05,-2.1625e-05,-5.5427e-06,7.1004e-06,7.3967e-06,1.8606e-06,-1.5838e-06,-1.5283e-06,-3.6941e-07,2.1171e-07,1.9076e-07,4.3638e-08,-1.6917e-08,-1.4384e-08,-3.0792e-09,8.0511e-10,6.5526e-10,1.3014e-10,-2.2698e-11,-1.8032e-11,-3.3014e-12,3.7589e-13,2.9973e-13,5.0337e-14,-3.6031e-15,-3.0091e-15,-4.6185e-16,1.9432e-17,1.8242e-17,2.5522e-18,-5.5073e-20,-6.6772e-20,-8.5002e-21,6.3616e-23
-3.6203e-22,3.7989e-22,2.2595e-20,1.4061e-19,-5.088e-20,-5.8214e-18,-3.2931e-17,-3.3924e-18,9.0501e-16,4.6531e-15,1.9034e-15,-8.4863e-14,-3.968e-13,-2.3885e-13,4.7975e-12,2.0427e-11,1.4598e-11,-1.634e-10,-6.3496e-10,-4.8956e-10,3.3506e-09,1.192e-08,9.3962e-09,-4.1321e-08,-1.3516e-07,-1.0528e-07,3.0608e-07,9.2576e-07,6.9632e-07,-1.3595e-06,-3.8305e-06,-2.7364e-06,3.6121e-06,9.5752e-06,6.4179e-06,-5.7223e-06,-1.446e-05,-9.0103e-06,5.379e-06,1.3191e-05,7.5886e-06,-2.9779e-06,-7.2688e-06,-3.8403e-06,9.5877e-07,2.4192e-06,1.1691e-06,-1.7535e-07,-4.8626e-07,-2.1432e-07,1.728e-08,5.9012e-08,2.3676e-08,-7.7612e-10,-4.3231e-09,-1.577e-09,4.0134e-13,1.9112e-10,6.3362e-11,1.3522e-12,-5.0968e-12,-1.5363e-12,-5.3992e-14,8.1956e-14,2.2486e-14,9.7622e-16,-7.9414e-16,-1.9872e-16,-9.4959e-18,4.6337e-18,1.0605e-18,5.2436e-20,-1.6266e-20,-3.4185e-21,-1.6834e-22
-1.4227e-22,-3.4413e-22,5.205e-21,5.3479e-20,1.2881e-19,-1.2802e-18,-1.2143e-17,-2.839e-17,1.889e-16,1.6656e-15,3.7127e-15,-1.6686e-14,-1.3802e-13,-2.8948e-13,8.7962e-13,6.9093e-12,1.3501e-11,-2.7556e-11,-2.0895e-10,-3.7758e-10,5.0956e-10,3.8171e-09,6.3423e-09,-5.502e-09,-4.2117e-08,-6.4071e-08,3.4012e-08,2.8066e-07,3.8966e-07,-1.1545e-07,-1.1293e-06,-1.4278e-06,1.9134e-07,2.7431e-06,3.154e-06,-7.3162e-08,-4.0213e-06,-4.2025e-06,-2.1396e-07,3.5566e-06,3.3787e-06,3.3396e-07,-1.8969e-06,-1.6396e-06,-2.1014e-07,6.0974e-07,4.804e-07,6.9339e-08,-1.1805e-07,-8.4997e-08,-1.2862e-08,1.3753e-08,9.0828e-09,1.3805e-09,-9.6314e-10,-5.8627e-10,-8.7014e-11,4.0482e-11,2.286e-11,3.2486e-12,-1.0192e-12,-5.3848e-13,-7.2231e-14,1.533e-14,7.6629e-15,9.5996e-16,-1.3719e-16,-6.5876e-17,-7.6454e-18,7.2628e-19,3.421e-19,3.6558e-20,-2.253e-21,-1.0731e-21,-1.051e-22
-4.3404e-23,-2.2675e-22,6.8126e-22,1.5877e-20,7.6015e-20,-1.4197e-19,-3.5076e-18,-1.5338e-17,1.6484e-17,4.6793e-16,1.8643e-15,-9.7849e-16,-3.7688e-14,-1.3658e-13,2.0195e-14,1.832e-12,6.0351e-12,6.391e-13,-5.3734e-11,-1.6089e-10,-4.3718e-11,9.5052e-10,2.5888e-09,9.7071e-10,-1.0136e-08,-2.5147e-08,-1.0912e-08,6.5107e-08,1.4751e-07,6.812e-08,-2.5173e-07,-5.2256e-07,-2.4468e-07,5.8523e-07,1.1182e-06,5.1453e-07,-8.1695e-07,-1.4454e-06,-6.3969e-07,6.8352e-07,1.1286e-06,4.7307e-07,-3.419e-07,-5.3242e-07,-2.0894e-07,1.0188e-07,1.5173e-07,5.5268e-08,-1.7992e-08,-2.6122e-08,-8.7735e-09,1.8672e-09,2.7164e-09,8.3708e-10,-1.1228e-10,-1.7061e-10,-4.8057e-11,3.8068e-12,6.4708e-12,1.6616e-12,-6.8212e-14,-1.4818e-13,-3.4624e-14,5.1208e-16,2.0482e-15,4.3508e-16,1.3015e-18,-1.7083e-17,-3.2982e-18,-4.855e-20,8.5946e-20,1.5089e-20,3.3403e-22,-2.6069e-22,-4.1673e-23
-1.0312e-23,-8.8504e-23,-9.6027e-23,3.6476e-21,2.8504e-20,3.698e-20,-7.7735e-19,-5.5432e-18,-7.787e-18,9.9739e-17,6.5101e-16,9.3709e-16,-7.697e-15,-4.6181e-14,-6.5786e-14,3.5681e-13,1.9788e-12,2.7247e-12,-9.9188e-12,-5.1224e-11,-6.7038e-11,1.6497e-10,8.0105e-10,9.8416e-10,-1.6363e-09,-7.5678e-09,-8.6475e-09,9.6332e-09,4.319e-08,4.5578e-08,-3.3416e-08,-1.4889e-07,-1.4433e-07,6.7472e-08,3.1002e-07,2.7494e-07,-7.752e-08,-3.8984e-07,-3.1536e-07,4.8194e-08,2.9599e-07,2.1797e-07,-1.3881e-08,-1.3566e-07,-9.0835e-08,2.7523e-10,3.7521e-08,2.2834e-08,8.5174e-10,-6.2605e-09,-3.4639e-09,-2.1872e-10,6.2985e-10,3.1718e-10,2.4961e-11,-3.8187e-11,-1.7536e-11,-1.5256e-12,1.3942e-12,5.8549e-13,5.2835e-14,-3.0625e-14,-1.1807e-14,-1.0629e-15,4.0424e-16,1.4382e-16,1.2584e-17,-3.2014e-18,-1.0583e-18,-8.8366e-20,1.518e-20,4.7046e-21,3.6987e-22,-4.2965e-23,-1.2635e-23
-1.7221e-24,-2.6098e-23,-1.0032e-22,5.6837e-22,8.1732e-21,2.9285e-20,-1.115e-19,-1.5463e-18,-5.1253e-18,1.2918e-17,1.7672e-16,5.3873e-16,-8.7448e-16,-1.2199e-14,-3.4054e-14,3.394e-14,5.0856e-13,1.2959e-12,-7.2564e-13,-1.2802e-11,-2.9709e-11,7.6566e-12,1.9455e-10,4.1061e-10,-2.0996e-11,-1.7844e-09,-3.423e-09,-2.9851e-10,9.8737e-09,1.7217e-08,3.0454e-09,-3.2948e-08,-5.2273e-08,-1.2124e-08,6.6267e-08,9.5817e-08,2.5156e-08,-8.0277e-08,-1.0606e-07,-2.9276e-08,5.8524e-08,7.0903e-08,1.9694e-08,-2.5647e-08,-2.8632e-08,-7.7752e-09,6.7465e-09,6.9843e-09,1.8176e-09,-1.0632e-09,-1.0292e-09,-2.5299e-10,1.001e-10,9.1629e-11,2.1045e-11,-5.6098e-12,-4.928e-12,-1.0489e-12,1.8603e-13,1.601e-13,3.1387e-14,-3.6172e-15,-3.1418e-15,-5.6463e-16,4.0582e-17,3.7237e-17,6.1131e-18,-2.544e-19,-2.665e-19,-3.9866e-20,8.2227e-22,1.1515e-21,1.5671e-22,-9.7481e-25,-3.0032e-24
-8.7901e-26,-6.0413e-24,-4.0189e-23,1.2055e-23,1.8373e-21,1.111e-20,1.928e-21,-3.3716e-19,-1.8531e-18,-8.9606e-19,3.7315e-17,1.8654e-16,1.2632e-16,-2.4896e-15,-1.1336e-14,-8.9382e-15,1.0006e-13,4.1601e-13,3.5023e-13,-2.4209e-12,-9.22e-12,-7.8861e-12,3.522e-11,1.2343e-10,1.0389e-10,-3.0769e-10,-9.9809e-10,-8.0879e-10,1.6113e-09,4.8758e-09,3.7445e-09,-5.0453e-09,-1.4389e-08,-1.0352e-08,9.4136e-09,2.5655e-08,1.7137e-08,-1.0412e-08,-2.763e-08,-1.7024e-08,6.7718e-09,1.7975e-08,1.0164e-08,-2.5545e-09,-7.063e-09,-3.6511e-09,5.4437e-10,1.6759e-09,7.8988e-10,-6.1638e-11,-2.401e-10,-1.0298e-10,2.9968e-12,2.0763e-11,8.0962e-12,3.2911e-14,-1.0835e-12,-3.8399e-13,-9.9755e-15,3.4105e-14,1.0991e-14,4.3826e-16,-6.4724e-16,-1.899e-16,-9.1316e-18,7.4011e-18,1.9812e-18,1.0361e-19,-5.0955e-20,-1.2483e-20,-6.7063e-22,2.1102e-22,4.7503e-23,2.53e-24,-5.2497e-25
6.8234e-26,-1.0469e-24,-1.1521e-23,-3.0012e-23,3.0371e-22,3.0885e-21,7.7847e-21,-5.284e-20,-5.0017e-19,-1.1991e-18,5.5012e-18,4.8932e-17,1.1019e-16,-3.4162e-16,-2.892e-15,-6.0599e-15,1.2596e-14,1.0326e-13,1.9988e-13,-2.7377e-13,-2.2269e-12,-3.9608e-12,3.4665e-12,2.9009e-11,4.7211e-11,-2.5016e-11,-2.2821e-10,-3.3883e-10,9.808e-11,1.084e-09,1.4653e-09,-1.8084e-10,-3.1083e-09,-3.8204e-09,3.9428e-11,5.3787e-09,6.0085e-09,3.9052e-10,-5.6149e-09,-5.7024e-09,-6.4649e-10,3.5344e-09,3.2668e-09,4.6588e-10,-1.3408e-09,-1.1299e-09,-1.7893e-10,3.063e-10,2.3602e-10,3.8868e-11,-4.2102e-11,-2.9776e-11,-4.8999e-12,3.4778e-12,2.2691e-12,3.6334e-13,-1.7238e-13,-1.0446e-13,-1.5975e-14,5.1159e-15,2.905e-15,4.1856e-16,-9.0655e-17,-4.8806e-17,-6.5583e-18,9.5515e-19,4.9536e-19,6.16e-20,-5.9459e-21,-3.0371e-21,-3.4747e-22,2.1646e-23,1.1247e-23,1.1786e-24,-4.5247e-26
3.3412e-26,-1.0147e-25,-2.5799e-24,-1.3216e-23,2.4723e-23,6.7287e-22,3.1468e-21,-3.3285e-21,-1.0597e-19,-4.5138e-19,2.2336e-19,1.0075e-17,3.9032e-17,-4.2835e-18,-5.7813e-16,-2.0357e-15,-3.0227e-16,2.0015e-14,6.4063e-14,2.0258e-14,-4.1787e-13,-1.2168e-12,-5.1056e-13,5.2586e-12,1.3954e-11,6.6624e-12,-3.986e-11,-9.6631e-11,-4.865e-11,1.8183e-10,4.0414e-10,2.0512e-10,-4.9866e-10,-1.021e-09,-5.0727e-10,8.2094e-10,1.5581e-09,7.4254e-10,-8.0975e-10,-1.4364e-09,-6.47e-10,4.7729e-10,8.0001e-10,3.3687e-10,-1.6748e-10,-2.6917e-10,-1.0508e-10,3.479e-11,5.4709e-11,1.9676e-11,-4.24e-12,-6.7165e-12,-2.2149e-12,2.9848e-13,4.9802e-13,1.5005e-13,-1.177e-14,-2.2299e-14,-6.1225e-15,2.4092e-16,6.028e-16,1.5058e-16,-1.8829e-18,-9.8355e-18,-2.2333e-18,-1.253e-20,9.6832e-20,1.9984e-20,3.4966e-22,-5.7499e-22,-1.0793e-22,-2.6926e-24,2.0583e-24,3.5188e-25,1.0295e-26
9.8146e-27,1.1998e-26,-4.4651e-25,-3.7315e-24,-5.3447e-24,1.1229e-22,8.5669e-22,1.3146e-21,-1.7e-20,-1.1878e-19,-1.8557e-19,1.5476e-18,9.9477e-18,1.5315e-17,-8.4614e-17,-5.0325e-16,-7.4663e-16,2.7733e-15,1.538e-14,2.164e-14,-5.436e-14,-2.8396e-13,-3.7447e-13,6.3505e-13,3.1672e-12,3.8799e-12,-4.3993e-12,-2.134e-11,-2.412e-11,1.793e-11,8.6853e-11,9.0111e-11,-4.2426e-11,-2.135e-10,-2.0254e-10,5.682e-11,3.1694e-10,2.7417e-10,-4.0636e-11,-2.8407e-10,-2.2365e-10,1.2757e-11,1.5369e-10,1.1001e-10,5.296e-13,-5.0178e-11,-3.2642e-11,-1.4935e-12,9.8819e-12,5.8452e-12,4.1961e-13,-1.1734e-12,-6.3185e-13,-5.5124e-14,8.3952e-14,4.124e-14,3.9283e-15,-3.6166e-15,-1.6256e-15,-1.5944e-16,9.3722e-17,3.8701e-17,3.7689e-18,-1.4592e-18,-5.5656e-19,-5.2508e-20,1.3626e-20,4.8352e-21,4.3429e-22,-7.6153e-23,-2.5377e-23,-2.1424e-24,2.5392e-25,8.0461e-26,6.3235e-27
2.1825e-27,9.0085e-27,-5.2077e-26,-8.0697e-25,-3.1006e-24,1.2025e-23,1.8025e-22,6.4002e-22,-1.6376e-21,-2.432e-20,-7.9363e-20,1.3002e-19,1.9819e-18,5.9192e-18,-5.893e-18,-9.7544e-17,-2.6581e-16,1.4565e-16,2.8987e-15,7.192e-15,-1.7164e-15,-5.2002e-14,-1.1732e-13,3.2592e-15,5.6299e-13,1.1544e-12,1.3028e-13,-3.677e-12,-6.8545e-12,-1.3942e-12,1.4482e-11,2.4567e-11,6.347e-12,-3.4373e-11,-5.3161e-11,-1.5321e-11,4.9135e-11,6.9469e-11,2.0876e-11,-4.2262e-11,-5.4829e-11,-1.6492e-11,2.1846e-11,2.6139e-11,7.6596e-12,-6.7768e-12,-7.528e-12,-2.1086e-12,1.2589e-12,1.3097e-12,3.4585e-13,-1.3966e-13,-1.3766e-13,-3.3917e-14,9.2144e-15,8.741e-15,1.9937e-15,-3.5934e-16,-3.3527e-16,-7.0373e-17,8.2009e-18,7.7674e-18,1.4936e-18,-1.076e-19,-1.0868e-19,-1.9082e-20,7.8277e-22,9.1825e-22,1.4686e-22,-2.8679e-24,-4.6838e-24,-6.8138e-25,3.2782e-27,1.4419e-26,1.9066e-27
3.8097e-28,2.7092e-27,-6.2564e-28,-1.3677e-25,-8.8402e-25,-2.219e-25,2.9624e-23,1.7405e-22,9.8289e-23,-3.8697e-21,-2.0683e-20,-1.5693e-20,3.0469e-19,1.4839e-18,1.2881e-18,-1.4451e-17,-6.4285e-17,-5.9025e-17,4.1251e-16,1.682e-15,1.5598e-15,-7.0793e-15,-2.6583e-14,-2.4164e-14,7.2938e-14,2.538e-13,2.2148e-13,-4.503e-13,-1.4638e-12,-1.2081e-12,1.6616e-12,5.1002e-12,3.9371e-12,-3.6508e-12,-1.0735e-11,-7.6862e-12,4.7503e-12,1.365e-11,9.0066e-12,-3.6285e-12,-1.0484e-11,-6.344e-12,1.6027e-12,4.8633e-12,2.6891e-12,-3.9742e-13,-1.3623e-12,-6.8654e-13,5.1489e-14,2.304e-13,1.0564e-13,-2.638e-15,-2.352e-14,-9.8032e-15,-8.6519e-17,1.4487e-15,5.4882e-16,1.7036e-17,-5.3823e-17,-1.8544e-17,-8.3465e-19,1.2055e-18,3.7824e-19,2.0098e-20,-1.6267e-20,-4.6586e-21,-2.6626e-22,1.3214e-22,3.4652e-23,2.0212e-24,-6.4557e-25,-1.5568e-25,-8.963e-27,1.8942e-27,4.2252e-28
4.9655e-29,5.8542e-28,1.6484e-27,-1.699e-26,-1.8528e-25,-5.0325e-25,3.4853e-24,3.5424e-23,9.1318e-23,-4.2765e-22,-4.0916e-21,-9.8909e-21,3.128e-20,2.855e-19,6.4138e-19,-1.3572e-18,-1.2034e-17,-2.4952e-17,3.4662e-17,3.0642e-16,5.8332e-16,-5.1441e-16,-4.7124e-15,-8.2042e-15,4.3291e-15,4.3765e-14,6.9484e-14,-1.9546e-14,-2.4541e-13,-3.5464e-13,3.9521e-14,8.3067e-13,1.0914e-12,4.2795e-15,-1.6967e-12,-2.0261e-12,-1.6289e-13,2.0907e-12,2.2699e-12,2.9316e-13,-1.5532e-12,-1.5351e-12,-2.4291e-13,6.9532e-13,6.2682e-13,1.0873e-13,-1.8743e-13,-1.5457e-13,-2.7677e-14,3.0394e-14,2.3022e-14,4.0992e-15,-2.9613e-15,-2.0713e-15,-3.5767e-16,1.7308e-16,1.1257e-16,1.8521e-17,-6.0547e-18,-3.6962e-18,-5.7192e-19,1.264e-19,7.3317e-20,1.0566e-20,-1.5676e-21,-8.7853e-22,-1.1704e-22,1.1472e-23,6.3591e-24,7.7882e-25,-4.899e-26,-2.7802e-26,-3.117e-27,1.1963e-28,7.3406e-29
3.5604e-30,9.8872e-29,5.4189e-28,-1.0133e-27,-3.0443e-26,-1.5226e-25,1.5785e-25,5.6599e-24,2.5776e-23,-1.1871e-23,-6.3524e-22,-2.6307e-21,1.7731e-22,4.3027e-20,1.6195e-19,3.1608e-20,-1.7582e-18,-6.0162e-18,-2.1936e-18,4.3326e-17,1.349e-16,6.3115e-17,-6.4343e-16,-1.8262e-15,-9.5769e-16,5.7551e-15,1.493e-14,8.186e-15,-3.0975e-14,-7.3719e-14,-4.0528e-14,1.002e-13,2.1987e-13,1.179e-13,-1.9453e-13,-3.9614e-13,-2.0321e-13,2.2619e-13,4.3117e-13,2.0865e-13,-1.5709e-13,-2.8352e-13,-1.2807e-13,6.4902e-14,1.1262e-13,4.7114e-14,-1.5856e-14,-2.7024e-14,-1.0407e-14,2.2684e-15,3.9169e-15,1.3821e-15,-1.8681e-16,-3.4287e-16,-1.1049e-16,8.5529e-18,1.8124e-17,5.3204e-18,-1.9889e-19,-5.7835e-19,-1.5444e-19,1.5372e-21,1.1139e-20,2.7037e-21,2.2954e-23,-1.2945e-22,-2.8559e-23,-5.861e-25,9.0724e-25,1.8207e-25,5.0968e-27,-3.8328e-27,-7.0078e-28,-2.2591e-29,9.754e-30
-3.5204e-31,1.2891e-29,1.1521e-28,1.8181e-28,-3.8255e-27,-3.1227e-26,-5.2282e-26,6.833e-25,5.1115e-24,8.6604e-24,-7.3382e-23,-5.0539e-22,-8.4041e-22,4.7317e-21,3.0186e-20,4.8235e-20,-1.8284e-19,-1.0891e-18,-1.6471e-18,4.2234e-18,2.3741e-17,3.3598e-17,-5.8104e-17,-3.1263e-16,-4.105e-16,4.7355e-16,2.4869e-15,3.0102e-15,-2.267e-15,-1.1949e-14,-1.3268e-14,6.2822e-15,3.4678e-14,3.5189e-14,-9.795e-15,-6.0772e-14,-5.6212e-14,8.0272e-15,6.4302e-14,5.4119e-14,-2.6833e-15,-4.1067e-14,-3.142e-14,-4.2308e-16,1.5826e-14,1.1005e-14,6.0509e-16,-3.6787e-15,-2.3263e-15,-1.8882e-16,5.1552e-16,2.9686e-16,2.864e-17,-4.3526e-17,-2.2874e-17,-2.3823e-18,2.2125e-18,1.0645e-18,1.1339e-19,-6.7638e-20,-2.9919e-20,-3.1501e-21,1.242e-21,5.0798e-22,5.1653e-23,-1.3676e-23,-5.2103e-24,-5.0324e-25,9.008e-26,3.2285e-26,2.926e-27,-3.5379e-28,-1.2085e-28,-1.0184e-29,8.2455e-31
-1.9075e-31,1.1249e-30,1.8792e-29,7.7415e-29,-3.0568e-28,-4.9555e-27,-1.8848e-26,4.8921e-26,7.8936e-25,2.7572e-24,-4.5534e-24,-7.5945e-23,-2.4264e-22,2.4076e-22,4.4126e-21,1.2858e-20,-6.8602e-21,-1.548e-19,-4.1061e-19,8.9129e-20,3.2782e-18,7.9059e-18,-1.526e-20,-4.1893e-17,-9.1825e-17,-1.2939e-17,3.2296e-16,6.4361e-16,1.4945e-16,-1.5012e-15,-2.7231e-15,-7.8133e-16,4.2049e-15,6.9564e-15,2.1972e-15,-7.0924e-15,-1.0732e-14,-3.5076e-15,7.1969e-15,9.9998e-15,3.2553e-15,-4.3882e-15,-5.6284e-15,-1.7789e-15,1.6051e-15,1.9137e-15,5.7673e-16,-3.5149e-16,-3.931e-16,-1.1148e-16,4.5937e-17,4.878e-17,1.289e-17,-3.5678e-18,-3.6567e-18,-8.936e-19,1.6358e-19,1.6559e-19,3.7209e-20,-4.38e-21,-4.5291e-21,-9.3181e-22,6.7159e-23,7.4814e-23,1.4048e-23,-5.6575e-25,-7.462e-25,-1.276e-25,2.3314e-27,4.4931e-27,6.9873e-28,-2.2666e-30,-1.6328e-29,-2.3078e-30,-1.5712e-32
-4.3072e-32,6.641e-33,2.4011e-30,1.659e-29,5.5741e-30,-6.1387e-28,-3.8556e-27,-2.5179e-27,9.4643e-26,5.4086e-25,4.5812e-25,-8.7944e-24,-4.5809e-23,-4.3703e-23,4.9219e-22,2.3429e-21,2.3436e-21,-1.6576e-20,-7.2373e-20,-7.2716e-20,3.3556e-19,1.3504e-18,1.325e-18,-4.0771e-18,-1.5221e-17,-1.43e-17,2.9674e-17,1.0364e-16,9.191e-17,-1.2902e-16,-4.2635e-16,-3.531e-16,3.3377e-16,1.0595e-15,8.1294e-16,-5.108e-16,-1.5905e-15,-1.1237e-15,4.5807e-16,1.4422e-15,9.3383e-16,-2.3675e-16,-7.8981e-16,-4.6709e-16,6.8206e-17,2.6118e-16,1.4073e-16,-1.0059e-17,-5.2145e-17,-2.5559e-17,5.2023e-19,6.2835e-18,2.7995e-18,3.9368e-20,-4.5684e-19,-1.8501e-19,-6.7639e-21,2.0033e-20,7.379e-21,3.732e-22,-5.2952e-22,-1.7768e-22,-1.041e-23,8.4318e-24,2.5836e-24,1.6118e-25,-8.0816e-26,-2.2688e-26,-1.4356e-27,4.6575e-28,1.2034e-28,7.485e-30,-1.6118e-30,-3.8559e-31,-2.3071e-32
-7.0157e-33,-2.1341e-32,2.2412e-31,2.6214e-30,7.67e-30,-5.4206e-29,-5.9173e-28,-1.6397e-27,7.8381e-27,8.0692e-26,2.0935e-25,-6.7519e-25,-6.6475e-24,-1.6008e-23,3.4468e-23,3.3081e-22,7.3458e-22,-1.0341e-21,-9.9444e-21,-2.026e-20,1.7977e-20,1.8055e-19,3.3623e-19,-1.7621e-19,-1.9795e-18,-3.3606e-18,9.1296e-19,1.3103e-17,2.0243e-17,-1.9832e-18,-5.2357e-17,-7.3531e-17,-1.444e-18,1.2624e-16,1.6113e-16,1.5665e-17,-1.8359e-16,-2.131e-16,-3.1172e-17,1.6097e-16,1.7013e-16,2.9794e-17,-8.5038e-17,-8.2011e-17,-1.5562e-17,2.7048e-17,2.3875e-17,4.644e-18,-5.1743e-18,-4.1983e-18,-8.0836e-19,5.9462e-19,4.4594e-19,8.3007e-20,-4.0977e-20,-2.8614e-20,-5.0631e-21,1.6896e-21,1.1092e-21,1.8427e-22,-4.1547e-23,-2.5976e-23,-4.0138e-24,6.0643e-25,3.6748e-25,5.2444e-26,-5.216e-27,-3.1403e-27,-4.1169e-28,2.6117e-29,1.6209e-29,1.9441e-30,-7.4433e-32,-5.0523e-32,-5.5277e-33
-8.9369e-34,-5.2399e-33,9.7737e-33,3.2485e-31,1.7374e-30,-1.7569e-30,-7.1298e-29,-3.4713e-28,1.4637e-28,9.4461e-27,4.1817e-26,-8.5691e-28,-7.5525e-25,-3.0387e-24,-7.4835e-25,3.6427e-23,1.3325e-22,5.5595e-23,-1.0594e-21,-3.5271e-21,-1.8345e-21,1.8567e-20,5.637e-20,3.2415e-20,-1.9596e-19,-5.4406e-19,-3.2454e-19,1.2443e-18,3.1715e-18,1.8874e-18,-4.7478e-18,-1.1167e-17,-6.4596e-18,1.0869e-17,2.3755e-17,1.3113e-17,-1.4898e-17,-3.0526e-17,-1.5866e-17,1.219e-17,2.3698e-17,1.1482e-17,-5.9289e-18,-1.1114e-17,-4.9814e-18,1.7031e-18,3.1484e-18,1.298e-18,-2.8589e-19,-5.3874e-19,-2.034e-19,2.7521e-20,5.5674e-20,1.9187e-20,-1.4602e-21,-3.4741e-21,-1.0904e-21,3.8303e-23,1.3087e-22,3.7358e-23,-2.6575e-25,-2.9754e-24,-7.7197e-25,-8.9937e-27,4.0813e-26,9.6255e-27,2.2925e-28,-3.376e-28,-7.2441e-29,-2.2668e-30,1.6832e-30,3.2915e-31,1.1669e-32,-5.0546e-33,-9.0314e-34
