-5.4823e-09,-8.4917e-09,-9.324e-09,-3.7835e-09,1.3477e-08,4.6342e-08,9.2287e-08,1.3599e-07,1.4461e-07,6.9994e-08,-1.3606e-07,-4.9074e-07,-9.3837e-07,-1.3151e-06,-1.3482e-06,-7.1968e-07,7.9358e-07,3.1279e-06,5.7626e-06,7.6805e-06,7.5643e-06,4.2592e-06,-2.5933e-06,-1.1988e-05,-2.137e-05,-2.7095e-05,-2.5564e-05,-1.476e-05,4.4028e-06,2.7585e-05,4.7845e-05,5.7739e-05,5.2072e-05,3.0244e-05,-2.8667e-06,-3.8044e-05,-6.4656e-05,-7.433e-05,-6.3966e-05,-3.6866e-05,-1.537e-06,3.1368e-05,5.2721e-05,5.7808e-05,4.7407e-05,2.684e-05,3.5995e-06,-1.5406e-05,-2.5928e-05,-2.716e-05,-2.1205e-05,-1.1703e-05,-2.3002e-06,4.4836e-06,7.6873e-06,7.7086e-06,5.7258e-06,3.0626e-06,7.2896e-07,-7.6673e-07,-1.3731e-06,-1.3215e-06,-9.3361e-07,-4.8169e-07,-1.2746e-07,7.5952e-08,1.4764e-07,1.3684e-07,9.1935e-08,4.5588e-08,1.2785e-08,-4.2392e-09,-9.5466e-09,-8.5563e-09,-5.4682e-09
-8.6556e-09,-1.4996e-08,-1.9255e-08,-1.4529e-08,9.1962e-09,6.1503e-08,1.4361e-07,2.3673e-07,2.9094e-07,2.2335e-07,-6.308e-08,-6.3164e-07,-1.4385e-06,-2.2576e-06,-2.6502e-06,-2.0353e-06,1.0253e-07,3.8847e-06,8.6958e-06,1.3006e-05,1.4561e-05,1.1051e-05,1.1717e-06,-1.4266e-05,-3.1714e-05,-4.5266e-05,-4.8274e-05,-3.588e-05,-7.6066e-06,3.1156e-05,6.9748e-05,9.5172e-05,9.6602e-05,6.9829e-05,1.9781e-05,-4.0212e-05,-9.2454e-05,-0.00012088,-0.00011671,-8.1608e-05,-2.6942e-05,3.0364e-05,7.3812e-05,9.2729e-05,8.515e-05,5.735e-05,2.062e-05,-1.3176e-05,-3.5462e-05,-4.2963e-05,-3.7521e-05,-2.426e-05,-9.1294e-06,3.1663e-06,1.0241e-05,1.202e-05,9.9866e-06,6.1823e-06,2.3734e-06,-3.8194e-07,-1.7751e-06,-2.0301e-06,-1.6057e-06,-9.4973e-07,-3.6545e-07,1.3989e-08,1.8431e-07,2.0694e-07,1.5597e-07,8.7995e-08,3.3511e-08,1.4828e-09,-1.1432e-08,-1.2727e-08,-9.1521e-09
-1.2804e-08,-2.4919e-08,-3.6289e-08,-3.6223e-08,-7.1974e-09,7.0895e-08,2.0884e-07,3.8811e-07,5.3821e-07,5.2466e-07,1.6794e-07,-6.8787e-07,-2.0538e-06,-3.6517e-06,-4.8185e-06,-4.5584e-06,-1.829e-06,3.932e-06,1.217e-05,2.0754e-05,2.6048e-05,2.3796e-05,1.08e-05,-1.308e-05,-4.3424e-05,-7.1243e-05,-8.5034e-05,-7.4729e-05,-3.6316e-05,2.4744e-05,9.3203e-05,0.00014769,0.00016767,0.00014131,7.111e-05,-2.53e-05,-0.00012019,-0.00018487,-0.00019971,-0.00016101,-8.2063e-05,1.1928e-05,9.2958e-05,0.00013968,0.0001437,0.00011062,5.6219e-05,-2.969e-07,-4.3031e-05,-6.3692e-05,-6.2461e-05,-4.5841e-05,-2.297e-05,-2.0524e-06,1.1884e-05,1.752e-05,1.6402e-05,1.1464e-05,5.6157e-06,8.6162e-07,-1.9495e-06,-2.9058e-06,-2.602e-06,-1.7306e-06,-8.2333e-07,-1.6168e-07,1.8863e-07,2.9043e-07,2.4933e-07,1.5774e-07,7.2513e-08,1.627e-08,-1.0643e-08,-1.748e-08,-1.4431e-08
-1.7535e-08,-3.9017e-08,-6.3651e-08,-7.5936e-08,-4.7034e-08,6.12e-08,2.7957e-07,5.9931e-07,9.2982e-07,1.0657e-06,6.9692e-07,-5.0154e-07,-2.6803e-06,-5.559e-06,-8.2043e-06,-9.0092e-06,-6.0448e-06,2.1422e-06,1.5429e-05,3.1131e-05,4.373e-05,4.5903e-05,3.0995e-05,-3.5724e-06,-5.3237e-05,-0.00010523,-0.00014081,-0.00014104,-9.4532e-05,-4.2582e-06,0.00010982,0.00021461,0.0002739,0.00026146,0.00017218,2.6445e-05,-0.00013497,-0.00026401,-0.00032188,-0.00029252,-0.00018782,-4.2622e-05,9.8305e-05,0.00019579,0.0002285,0.00019757,0.00012296,3.3897e-05,-4.2085e-05,-8.7479e-05,-9.798e-05,-8.0574e-05,-4.8376e-05,-1.485e-05,1.0442e-05,2.3529e-05,2.5376e-05,1.9846e-05,1.1453e-05,3.7297e-06,-1.4612e-06,-3.8059e-06,-3.9687e-06,-2.9524e-06,-1.6329e-06,-5.4737e-07,1.0819e-07,3.6973e-07,3.7475e-07,2.6532e-07,1.4031e-07,4.744e-08,-3.3738e-09,-2.1534e-08,-2.136e-08
-2.1667e-08,-5.7395e-08,-1.0485e-07,-1.4326e-07,-1.2792e-07,8.2335e-09,3.3338e-07,8.6783e-07,1.5108e-06,1.9689e-06,1.7379e-06,2.0738e-07,-3.0633e-06,-7.9166e-06,-1.3152e-05,-1.6327e-05,-1.4116e-05,-3.4414e-06,1.6741e-05,4.3551e-05,6.9164e-05,8.1718e-05,6.8726e-05,2.2511e-05,-5.408e-05,-0.0001444,-0.00021971,-0.00024695,-0.00020092,-7.6884e-05,0.00010224,0.00028838,0.00042159,0.00045064,0.0003532,0.00014739,-0.00011115,-0.00034657,-0.00048855,-0.00049666,-0.00037373,-0.00016337,6.7018e-05,0.00025037,0.00034187,0.00033064,0.00023823,0.00010629,-2.0372e-05,-0.00010857,-0.00014443,-0.00013297,-9.1542e-05,-4.0955e-05,1.9479e-06,2.8202e-05,3.6824e-05,3.2305e-05,2.1215e-05,9.3961e-06,4.6388e-07,-4.3768e-06,-5.6649e-06,-4.7414e-06,-2.9665e-06,-1.2884e-06,-1.4822e-07,4.0425e-07,5.2557e-07,4.204e-07,2.5037e-07,1.0586e-07,1.6864e-08,-2.2093e-08,-2.9391e-08
-2.267e-08,-7.864e-08,-1.6273e-07,-2.4995e-07,-2.7513e-07,-1.2778e-07,3.2438e-07,1.1657e-06,2.3133e-06,3.3796e-06,3.5928e-06,1.891e-06,-2.7021e-06,-1.0404e-05,-1.9862e-05,-2.7596e-05,-2.8223e-05,-1.5924e-05,1.2812e-05,5.5859e-05,0.00010299,0.0001361,0.00013349,7.805e-05,-3.29e-05,-0.00018019,-0.00032244,-0.00040546,-0.00038047,-0.00022541,3.9265e-05,0.00034867,0.00060939,0.0007297,0.00065381,0.00038639,-3.7271e-06,-0.00040381,-0.00069503,-0.00079335,-0.00067774,-0.00039499,-4.0089e-05,0.00027905,0.0004782,0.00052108,0.00042394,0.00024158,4.2702e-05,-0.00011455,-0.00019839,-0.00020675,-0.00016008,-8.8605e-05,-2.0133e-05,2.7744e-05,4.96e-05,4.9555e-05,3.6494e-05,1.9521e-05,5.0786e-06,-3.9198e-06,-7.4676e-06,-7.1739e-06,-5.0244e-06,-2.5868e-06,-7.2565e-07,3.1651e-07,6.7642e-07,6.272e-07,4.178e-07,2.0637e-07,6.0215e-08,-1.3975e-08,-3.682e-08
-1.5943e-08,-9.851e-08,-2.3771e-07,-4.0838e-07,-5.2192e-07,-4.0694e-07,1.713e-07,1.4187e-06,3.3296e-06,5.4443e-06,6.6517e-06,5.2216e-06,-7.3071e-07,-1.2246e-05,-2.8151e-05,-4.3847e-05,-5.1122e-05,-3.9846e-05,-1.9263e-06,6.3205e-05,0.00014361,0.00021333,0.00023704,0.00018158,3.1925e-05,-0.00019437,-0.0004419,-0.00062705,-0.00066333,-0.00049551,-0.00012981,0.00035431,0.00081973,0.0011134,0.0011206,0.00081145,0.00025909,-0.00037971,-0.00091614,-0.0011941,-0.0011431,-0.00079864,-0.0002844,0.00023595,0.00061639,0.00077354,0.0007042,0.00047295,0.00017886,-8.2782e-05,-0.00024941,-0.0003026,-0.00026204,-0.00016867,-6.57e-05,1.5408e-05,6.0614e-05,7.147e-05,5.89e-05,3.6254e-05,1.4249e-05,-1.2229e-06,-8.8321e-06,-1.0189e-05,-7.9978e-06,-4.6988e-06,-1.8367e-06,-2.4941e-08,7.6978e-07,8.7656e-07,6.5608e-07,3.6739e-07,1.4131e-07,1.1422e-08,-3.9997e-08
6.0248e-09,-1.0813e-07,-3.2485e-07,-6.2815e-07,-9.0767e-07,-9.129e-07,-2.5588e-07,1.4787e-06,4.4701e-06,8.2623e-06,1.1363e-05,1.1119e-05,4.2107e-06,-1.1956e-05,-3.7074e-05,-6.5649e-05,-8.5891e-05,-8.1316e-05,-3.6064e-05,5.6593e-05,0.0001852,0.00031507,0.00039203,0.00035757,0.00017317,-0.00015414,-0.00055677,-0.00091325,-0.0010807,-0.00094643,-0.00048053,0.00023315,0.0010062,0.0015984,0.0017995,0.0015091,0.00078251,-0.00017856,-0.0010915,-0.001689,-0.0018101,-0.0014504,-0.00075445,4.4427e-05,0.00070936,0.0010772,0.0010999,0.00084079,0.00043307,2.3802e-05,-0.00027545,-0.00041449,-0.00040379,-0.00029407,-0.00014856,-1.9624e-05,6.3662e-05,9.6187e-05,8.9548e-05,6.2079e-05,3.0537e-05,5.6217e-06,-8.7077e-06,-1.3455e-05,-1.1997e-05,-7.9117e-06,-3.768e-06,-8.2326e-07,6.9844e-07,1.1337e-06,9.7076e-07,6.0888e-07,2.7952e-07,6.7171e-08,-3.2331e-08
5.4427e-08,-9.1762e-08,-4.0974e-07,-9.1025e-07,-1.4722e-06,-1.7522e-06,-1.1477e-06,1.0904e-06,5.5032e-06,1.1805e-05,1.816e-05,2.073e-05,1.4082e-05,-7.0318e-06,-4.4409e-05,-9.2447e-05,-0.00013532,-0.00014779,-0.00010178,2.1234e-05,0.00021498,0.00043702,0.00060912,0.00063526,0.00043653,-6.6929e-06,-0.00062291,-0.0012467,-0.0016564,-0.0016471,-0.0011165,-0.00012862,0.0010771,0.0021456,0.0027212,0.0025771,0.0017083,0.00034783,-0.0011065,-0.0022265,-0.0027006,-0.0024339,-0.0015674,-0.00041208,0.00067076,0.0013924,0.001619,0.0013879,0.00086386,0.00026058,-0.0002373,-0.0005244,-0.00058622,-0.00047793,-0.00028635,-9.3246e-05,4.8015e-05,0.00011882,0.00012819,9.9403e-05,5.7143e-05,1.937e-05,-5.3219e-06,-1.618e-05,-1.6927e-05,-1.2488e-05,-6.8707e-06,-2.3671e-06,2.8568e-07,1.322e-06,1.3493e-06,9.478e-07,4.9805e-07,1.7154e-07,-3.1846e-09
1.446e-07,-2.4535e-08,-4.6305e-07,-1.238e-06,-2.2445e-06,-3.0459e-06,-2.7608e-06,-1.4213e-07,5.9796e-06,1.5797e-05,2.7314e-05,3.5326e-05,3.1476e-05,6.3328e-06,-4.6013e-05,-0.00012158,-0.0002008,-0.00024726,-0.00021489,-6.4981e-05,0.00020991,0.00056416,0.00089178,0.0010448,0.00088031,0.00032551,-0.00056315,-0.0015772,-0.0023923,-0.0026658,-0.0021673,-0.00089533,0.00087645,0.0026544,0.0038762,0.0041076,0.0032105,0.0014098,-0.0007709,-0.0026868,-0.0037926,-0.003823,-0.0028641,-0.0012963,0.00036065,0.0016335,0.0022405,0.0021493,0.0015398,0.00070355,-7.2791e-05,-0.00059546,-0.00079897,-0.00072999,-0.00049919,-0.00022691,-3.0166e-06,0.00012985,0.00017192,0.00014978,9.7628e-05,4.3676e-05,4.0304e-06,-1.6882e-05,-2.2315e-05,-1.8565e-05,-1.1523e-05,-5.0327e-06,-7.3334e-07,1.3022e-06,1.7463e-06,1.3901e-06,8.2097e-07,3.4789e-07,6.3106e-08
2.957e-07,1.2946e-07,-4.3446e-07,-1.5647e-06,-3.2245e-06,-4.9107e-06,-5.4097e-06,-2.7806e-06,5.1491e-06,1.9552e-05,3.8707e-05,5.6063e-05,5.9506e-05,3.3445e-05,-3.5134e-05,-0.00014703,-0.00028062,-0.00038656,-0.00039398,-0.00023235,0.00013332,0.00066471,0.0012285,0.00161,0.0015713,0.00094694,-0.0002572,-0.0018039,-0.003247,-0.0040505,-0.0037777,-0.0022846,0.00016605,0.002933,0.0051796,0.0061563,0.0054775,0.0032812,0.00020026,-0.0028495,-0.0049852,-0.0056527,-0.0047919,-0.002816,-0.00042698,0.001648,0.0028937,0.0031355,0.0025302,0.001448,0.00030803,-0.00056417,-0.0010125,-0.0010506,-0.00080657,-0.00044697,-0.00011315,0.00011329,0.00021341,0.00021265,0.00015526,8.2943e-05,2.3128e-05,-1.3137e-05,-2.7075e-05,-2.5994e-05,-1.805e-05,-9.2629e-06,-2.7224e-06,8.5264e-07,2.0652e-06,1.9188e-06,1.2675e-06,6.2309e-07,1.8769e-07
5.292e-07,4.1763e-07,-2.4702e-07,-1.7991e-06,-4.3571e-06,-7.4238e-06,-9.4369e-06,-7.5538e-06,1.8865e-06,2.1788e-05,5.1518e-05,8.3583e-05,0.00010146,8.107e-05,-1.8371e-06,-0.00015795,-0.00036762,-0.0005685,-0.00065801,-0.00051877,-6.7772e-05,0.00068337,0.0015825,0.002336,0.0025751,0.0019858,0.00046564,-0.0017568,-0.0041076,-0.0057985,-0.0060832,-0.0045581,-0.0013864,0.0026657,0.0064256,0.0086946,0.0086764,0.0062841,0.0021977,-0.0023615,-0.0060533,-0.0078746,-0.0074731,-0.0052105,-0.0019696,0.0011973,0.0034311,0.0043071,0.0038876,0.002601,0.0010242,-0.0003331,-0.0011688,-0.0014225,-0.0012216,-0.00078226,-0.00031325,4.5142e-05,0.0002389,0.00028362,0.0002319,0.00014184,5.6801e-05,-1.3709e-06,-2.924e-05,-3.4127e-05,-2.6594e-05,-1.5512e-05,-6.1377e-06,-3.4829e-07,2.1368e-06,2.4774e-06,1.8424e-06,1.0236e-06,3.9659e-07
8.6542e-07,8.9691e-07,2.0641e-07,-1.7905e-06,-5.4991e-06,-1.057e-05,-1.5151e-05,-1.5319e-05,-5.3464e-06,2.0442e-05,6.3825e-05,0.00011742,0.00016013,0.00015699,6.7222e-05,-0.00013729,-0.00044632,-0.00078785,-0.0010219,-0.00096682,-0.00046331,0.00053513,0.001879,0.0031928,0.0039386,0.0035825,0.0018268,-0.00118,-0.0047578,-0.007814,-0.0091686,-0.0079943,-0.0042042,0.0013874,0.0072361,0.011546,0.012893,0.010751,0.0057101,-0.00071159,-0.0065992,-0.010299,-0.010952,-0.0087177,-0.004608,-5.7735e-05,0.0036004,0.005543,0.0056207,0.0042645,0.0022191,0.00023365,-0.0011713,-0.0017996,-0.0017426,-0.001259,-0.00063969,-0.00010751,0.00022611,0.00035227,0.00032636,0.00022436,0.00011062,2.323e-05,-2.5711e-05,-4.1551e-05,-3.6922e-05,-2.4142e-05,-1.1493e-05,-2.7259e-06,1.7007e-06,2.9509e-06,2.5229e-06,1.5688e-06,7.184e-07
1.3179e-06,1.6279e-06,1.0618e-06,-1.3163e-06,-6.3828e-06,-1.4175e-05,-2.2729e-05,-2.696e-05,-1.8467e-05,1.253e-05,7.2184e-05,0.00015521,0.00023677,0.00026896,0.00018837,-6.0879e-05,-0.00049006,-0.0010261,-0.0014899,-0.0016174,-0.0011372,0.00010173,0.0019934,0.0040941,0.0056641,0.0058659,0.0040865,0.00027624,-0.0048457,-0.0098562,-0.013008,-0.012836,-0.0087743,-0.0015267,0.0070128,0.014311,0.018047,0.016952,0.011287,0.002774,-0.0060085,-0.012525,-0.015126,-0.013517,-0.0087157,-0.0025563,0.0030207,0.0066037,0.0076572,0.0065078,0.0040458,0.001309,-0.00087739,-0.0020957,-0.0023412,-0.0018923,-0.0011302,-0.00038577,0.00014281,0.00039988,0.00043226,0.00033237,0.00019017,6.6567e-05,-1.2084e-05,-4.5815e-05,-4.8185e-05,-3.5264e-05,-1.9286e-05,-6.7917e-06,3.9334e-07,3.1461e-06,3.242e-06,2.2602e-06,1.1795e-06
1.8853e-06,2.6638e-06,2.4749e-06,-7.9259e-08,-6.5838e-06,-1.7819e-05,-3.2074e-05,-4.3212e-05,-3.9623e-05,-5.8651e-06,7.1272e-05,0.00019186,0.00032964,0.00042299,0.00037946,0.00010245,-0.00045851,-0.0012457,-0.0020466,-0.0024993,-0.0021789,-0.00076666,0.0017414,0.0048743,0.0076757,0.0089162,0.0075144,0.0030467,-0.0038628,-0.011486,-0.017388,-0.019209,-0.015586,-0.0068388,0.0049075,0.016286,0.023788,0.024994,0.019461,0.0089024,-0.0034268,-0.013878,-0.019651,-0.019644,-0.014641,-0.0068141,0.001172,0.0070966,0.0097999,0.009327,0.0066399,0.0030917,-9.6018e-05,-0.0021731,-0.0029495,-0.0026753,-0.0018164,-0.00083587,-5.3444e-05,0.00039736,0.00053557,0.00046357,0.00029981,0.00013512,1.7336e-05,-4.3209e-05,-5.8644e-05,-4.8527e-05,-2.9871e-05,-1.3093e-05,-2.2467e-06,2.7769e-06,3.8703e-06,3.0686e-06,1.7968e-06
2.5413e-06,4.0344e-06,4.6019e-06,2.2819e-06,-5.5017e-06,-2.0762e-05,-4.265e-05,-6.4398e-05,-7.0897e-05,-3.9409e-05,5.3707e-05,0.00021865,0.00043233,0.00062079,0.00065714,0.00038909,-0.00029687,-0.0013849,-0.0026464,-0.0036146,-0.003668,-0.0022414,0.00087714,0.0052693,0.009781,0.012713,0.012338,0.0076181,-0.0011425,-0.012022,-0.021821,-0.027012,-0.025026,-0.015382,-0.00017119,0.01641,0.029377,0.034673,0.030622,0.018534,0.0022254,-0.013358,-0.023857,-0.026887,-0.022611,-0.013366,-0.0025903,0.0064536,0.011681,0.012595,0.010079,0.0057819,0.0014055,-0.0018369,-0.0034464,-0.003564,-0.0027126,-0.0015028,-0.00041335,0.00030428,0.00061225,0.00060912,0.0004409,0.00023497,6.9217e-05,-2.8671e-05,-6.5427e-05,-6.287e-05,-4.3284e-05,-2.2121e-05,-6.7488e-06,1.4605e-06,4.2007e-06,3.918e-06,2.5668e-06
3.2235e-06,5.7239e-06,7.5676e-06,6.1594e-06,-2.368e-06,-2.1885e-05,-5.3302e-05,-9.0092e-05,-0.00011383,-9.3049e-05,1.0219e-05,0.00022271,0.00053196,0.00085663,0.0010326,0.00083661,6.2446e-05,-0.0013546,-0.0032033,-0.0049207,-0.0056519,-0.0044941,-0.00089702,0.0049054,0.011634,0.017076,0.018671,0.014463,0.0041063,-0.010519,-0.025469,-0.035795,-0.037235,-0.027937,-0.0094931,0.013239,0.033589,0.045325,0.044841,0.032439,0.012178,-0.0096322,-0.026665,-0.034662,-0.032613,-0.022668,-0.0089858,0.0039318,0.012728,0.016007,0.014327,0.0095406,0.0038809,-0.00083696,-0.0036481,-0.0044631,-0.003802,-0.0024202,-0.00099085,6.9761e-05,0.00062671,0.0007511,0.00060952,0.00037025,0.00015047,4.056e-06,-6.4371e-05,-7.6271e-05,-5.9031e-05,-3.4172e-05,-1.3646e-05,-1.2674e-06,3.9391e-06,4.6715e-06,3.4538e-06
3.8237e-06,7.6465e-06,1.1421e-05,1.1919e-05,3.7045e-06,-1.9671e-05,-6.21e-05,-0.00011874,-0.0001688,-0.00017121,-6.9685e-05,0.000187,0.00060781,0.0011139,0.0015062,0.0014771,0.00069429,-0.0010386,-0.0035828,-0.0063113,-0.008116,-0.0076635,-0.0039032,0.0033063,0.012708,0.021597,0.026414,0.023936,0.012719,-0.0057941,-0.027089,-0.044624,-0.051926,-0.045042,-0.024365,0.0050002,0.034654,0.055662,0.061665,0.051097,0.027663,-0.0010962,-0.026548,-0.041904,-0.04424,-0.034962,-0.018712,-0.0013462,0.012146,0.019032,0.019174,0.014435,0.0075676,0.0011165,-0.0033052,-0.0052128,-0.0050203,-0.0035971,-0.0018345,-0.00036397,0.00053165,0.00086054,0.00079402,0.00054121,0.00026702,6.1919e-05,-5.0052e-05,-8.5564e-05,-7.5855e-05,-4.9171e-05,-2.3371e-05,-5.9112e-06,2.7099e-06,5.1198e-06,4.3766e-06
4.1824e-06,9.6227e-06,1.6084e-05,1.9815e-05,1.3622e-05,-1.2277e-05,-6.6268e-05,-0.00014733,-0.00023425,-0.00027666,-0.00019642,9.1144e-05,0.00063074,0.001362,0.0020607,0.0023278,0.0016707,-0.0003013,-0.0036002,-0.0076004,-0.010951,-0.01181,-0.0084409,-7.514e-05,0.012295,0.025594,0.03516,0.036144,0.025445,0.0034821,-0.025043,-0.051989,-0.068195,-0.066756,-0.045906,-0.010258,0.030278,0.063673,0.079902,0.074428,0.049678,0.013978,-0.021573,-0.046991,-0.056551,-0.050104,-0.0323,-0.010303,0.0089489,0.020882,0.024175,0.020369,0.012633,0.0043205,-0.0021133,-0.0055821,-0.006241,-0.0050016,-0.002975,-0.0010545,0.00027037,0.00089656,0.00097282,0.00074186,0.00042216,0.00015164,-1.6097e-05,-8.6377e-05,-9.1539e-05,-6.6473e-05,-3.6119e-05,-1.2942e-05,8.0398e-08,4.9809e-06,5.1981e-06
4.0902e-06,1.1362e-05,2.1297e-05,2.9882e-05,2.8155e-05,2.3127e-06,-6.2242e-05,-0.00017113,-0.00030598,-0.00040909,-0.00037838,-8.6612e-05,0.00056403,0.0015546,0.0026558,0.0033802,0.0030462,0.00099906,-0.003027,-0.0085133,-0.013925,-0.016861,-0.01472,-0.0057947,0.0095377,0.028085,0.044101,0.050788,0.042756,0.018624,-0.017382,-0.05577,-0.084358,-0.092391,-0.074736,-0.034406,0.017792,0.066593,0.097442,0.10152,0.078681,0.037192,-0.009527,-0.047749,-0.067955,-0.067384,-0.049926,-0.023762,0.0020308,0.020522,0.028605,0.027019,0.019104,0.0090286,0.00026088,-0.0052739,-0.0072655,-0.0065452,-0.0044103,-0.0020485,-0.0002178,0.00080754,0.0011131,0.00095782,0.00061447,0.00027834,4.4157e-05,-7.3296e-05,-0.0001028,-8.4674e-05,-5.1683e-05,-2.2694e-05,-4.3905e-06,3.9115e-06,5.7204e-06
3.3009e-06,1.2459e-05,2.6572e-05,4.1824e-05,4.7727e-05,2.6007e-05,-4.5906e-05,-0.00018371,-0.00037658,-0.0005637,-0.00061942,-0.00036619,0.00036615,0.0016299,0.0032231,0.0045886,0.0048394,0.0029873,-0.0016103,-0.0086918,-0.016657,-0.022563,-0.022779,-0.014322,0.0035052,0.027816,0.051971,0.067018,0.064637,0.040687,-0.0020426,-0.053315,-0.097861,-0.12026,-0.11062,-0.068858,-0.0055662,0.061031,0.11118,0.13037,0.11424,0.069671,0.011818,-0.041559,-0.076167,-0.085374,-0.071207,-0.04225,-0.0096916,0.016731,0.031452,0.033774,0.026797,0.015384,0.0041346,-0.0039439,-0.0078227,-0.0080702,-0.0060896,-0.0033682,-0.00098871,0.00053495,0.0011709,0.0011646,0.00083579,0.00044386,0.00013662,-4.0307e-05,-0.00010536,-0.00010149,-6.929e-05,-3.5237e-05,-1.1078e-05,1.5388e-06,5.6903e-06
1.5565e-06,1.2411e-05,3.1177e-05,5.4908e-05,7.219e-05,6.0229e-05,-1.3051e-05,-0.00017723,-0.00043516,-0.00072986,-0.0009161,-0.00076139,-4.2701e-06,0.0015143,0.0036653,0.0058609,0.007013,0.0057423,0.00089511,-0.0077175,-0.018623,-0.028432,-0.032398,-0.025918,-0.0066766,0.023351,0.057052,0.083324,0.090348,0.070164,0.022851,-0.041645,-0.10532,-0.1475,-0.15213,-0.11412,-0.042215,0.043261,0.11707,0.15772,0.15469,0.11165,0.044331,-0.025604,-0.078288,-0.10184,-0.095005,-0.065767,-0.027083,0.008226,0.031455,0.039706,0.035246,0.023344,0.0097466,-0.0012391,-0.0075815,-0.0093452,-0.0078991,-0.0049958,-0.0020815,2.0239e-05,0.0010938,0.0013274,0.0010695,0.00064492,0.00026507,1.8437e-05,-9.4168e-05,-0.00011373,-8.7475e-05,-5.0238e-05,-2.0194e-05,-2.489e-06,4.8168e-06
-1.3742e-06,1.0661e-05,3.415e-05,6.79e-05,0.0001006,0.00010547,3.9952e-05,-0.00014319,-0.00046778,-0.00089046,-0.0012551,-0.001275,-0.00058141,0.0011295,0.0038601,0.0070539,0.0094561,0.0092637,0.0046817,-0.0051559,-0.019175,-0.033748,-0.043026,-0.040504,-0.021655,0.013233,0.057274,0.097505,0.11825,0.10667,0.05859,-0.017822,-0.10274,-0.17008,-0.19632,-0.1693,-0.093673,0.0097048,0.11047,0.17908,0.19689,0.16204,0.089054,0.002736,-0.071027,-0.11377,-0.11929,-0.093566,-0.050551,-0.0061498,0.027214,0.043598,0.043665,0.032607,0.017183,0.0031466,-0.0061816,-0.010072,-0.0096549,-0.0068598,-0.0035048,-0.00078525,0.00082582,0.0014019,0.0012895,0.00087141,0.00042962,0.00010757,-6.4004e-05,-0.00011747,-0.00010403,-6.6852e-05,-3.1686e-05,-8.4348e-06,2.804e-06
-5.6471e-06,6.665e-06,3.4365e-05,7.907e-05,0.00013104,0.00016084,0.00011533,-7.3554e-05,-0.00045844,-0.0010221,-0.0016116,-0.0018937,-0.0013838,0.00040377,0.0036703,0.0079765,0.011973,0.013441,0.0098369,-0.0006219,-0.0176,-0.037569,-0.053737,-0.057538,-0.041653,-0.0037772,0.05041,0.10676,0.1457,0.14862,0.10544,0.020556,-0.085897,-0.18294,-0.23866,-0.23171,-0.15995,-0.042417,0.086554,0.18896,0.23615,0.2181,0.1457,0.045381,-0.051081,-0.11756,-0.14114,-0.12397,-0.079794,-0.027183,0.017358,0.044019,0.050945,0.042558,0.026303,0.0094037,-0.003281,-0.009908,-0.011104,-0.0088248,-0.0052232,-0.0019084,0.00031552,0.0013387,0.0014612,0.0011054,0.00062521,0.00022924,-1.0203e-05,-0.00010838,-0.00011605,-8.3648e-05,-4.5134e-05,-1.6393e-05,-6.0179e-07
-1.129e-05,-1.0752e-08,3.0657e-05,8.6287e-05,0.0001606,0.00022368,0.00021302,3.7799e-05,-0.00039095,-0.0010966,-0.0019486,-0.0025846,-0.0024054,-0.00071423,0.0029602,0.0084033,0.014284,0.018028,0.01629,0.0061401,-0.013215,-0.038804,-0.063245,-0.075927,-0.066277,-0.028431,0.034377,0.1079,0.16914,0.19311,0.1622,0.074769,-0.05099,-0.18049,-0.27318,-0.29665,-0.239,-0.11434,0.041135,0.18141,0.2664,0.27527,0.2122,0.10298,-0.01567,-0.10939,-0.15683,-0.1543,-0.11359,-0.05503,0.00078369,0.039483,0.055717,0.052253,0.036677,0.017533,0.0013828,-0.0085053,-0.011941,-0.01069,-0.0071464,-0.0033417,-0.00047431,0.0010887,0.0015433,0.0013211,0.00084051,0.0003819,7.0369e-05,-8.226e-05,-0.0001202,-9.8628e-05,-5.9686e-05,-2.6215e-05,-5.5559e-06
-1.8152e-05,-9.5888e-06,2.1987e-05,8.7213e-05,0.00018546,0.00028941,0.00032993,0.00019345,-0.00025139,-0.0010837,-0.0022194,-0.0032937,-0.0036085,-0.0022404,0.0016179,0.0080974,0.016038,0.022641,0.02377,0.015172,-0.0054792,-0.036336,-0.069977,-0.094017,-0.094368,-0.060701,0.0076138,0.097744,0.18429,0.23585,0.22592,0.14439,0.0046707,-0.15724,-0.29285,-0.35741,-0.32631,-0.20506,-0.028533,0.15075,0.2807,0.32721,0.28443,0.17438,0.036854,-0.085699,-0.16221,-0.18097,-0.14967,-0.088975,-0.023085,0.02866,0.056477,0.060455,0.047555,0.027283,0.0079239,-0.0055631,-0.011838,-0.012198,-0.0091252,-0.0050334,-0.0015558,0.00061097,0.0014924,0.0014863,0.0010576,0.00055922,0.00017829,-3.5794e-05,-0.00011301,-0.00010935,-7.4046e-05,-3.7443e-05,-1.2058e-05
-2.5878e-05,-2.1978e-05,7.6426e-06,7.9608e-05,0.00020124,0.00035162,0.00045943,0.00039094,-3.0964e-05,-0.00095506,-0.0023708,-0.0039472,-0.0049194,-0.0041418,-0.00042063,0.0068443,0.016851,0.026769,0.031784,0.026229,0.0058762,-0.029184,-0.072232,-0.10967,-0.12394,-0.099544,-0.030514,0.073602,0.18662,0.27142,0.29181,0.22682,0.081874,-0.10875,-0.29043,-0.40575,-0.41486,-0.31074,-0.12285,0.09258,0.27202,0.36633,0.35622,0.25623,0.1064,-0.043897,-0.15317,-0.19971,-0.18475,-0.12727,-0.05404,0.010631,0.051774,0.065733,0.057884,0.038106,0.016244,-0.00088942,-0.010486,-0.013058,-0.010956,-0.0068807,-0.0029065,-0.00011811,0.0012692,0.0015652,0.0012527,0.00074963,0.00031072,3.2706e-05,-9.1455e-05,-0.00011315,-8.6532e-05,-4.9292e-05,-1.9901e-05
-3.3895e-05,-3.6696e-05,-1.2557e-05,6.1687e-05,0.00020346,0.0004025,0.00059135,0.0006217,0.00027119,-0.00068933,-0.0023501,-0.0044576,-0.0062293,-0.0063274,-0.0031475,0.0044902,0.016346,0.029818,0.039628,0.038735,0.020729,-0.016691,-0.068399,-0.12045,-0.15226,-0.14277,-0.079355,0.033808,0.17198,0.29381,0.35339,0.31707,0.17886,-0.032558,-0.25943,-0.43264,-0.49547,-0.42454,-0.23915,0.0047846,0.23428,0.38445,0.41967,0.34288,0.19064,0.017033,-0.12628,-0.2061,-0.21474,-0.16711,-0.090901,-0.014855,0.04045,0.066625,0.06638,0.049159,0.025988,0.0055395,-0.0076499,-0.01298,-0.012395,-0.0087316,-0.0044624,-0.0010965,0.000845,0.0015229,0.001398,0.00093655,0.00046083,0.00012256,-5.3465e-05,-0.00010751,-9.5221e-05,-6.0673e-05,-2.8649e-05
-4.1447e-05,-5.2846e-05,-3.8102e-05,3.2511e-05,0.00018818,0.00043367,0.00071263,0.00087074,0.00064583,-0.00027685,-0.0021125,-0.0047326,-0.0074015,-0.0086469,-0.0064659,0.00098075,0.014217,0.031175,0.046439,0.05178,0.038483,0.0012949,-0.057221,-0.12392,-0.17603,-0.18706,-0.13674,-0.021751,0.13727,0.29709,0.40308,0.40784,0.29089,0.070946,-0.1953,-0.42943,-0.55757,-0.53679,-0.3713,-0.11155,0.1635,0.374,0.4659,0.4266,0.2848,0.095949,-0.079481,-0.1961,-0.23513,-0.20475,-0.13143,-0.047174,0.021882,0.061843,0.071659,0.059356,0.036527,0.013531,-0.0032215,-0.011715,-0.013186,-0.010394,-0.0061174,-0.00229,0.00020944,0.0013308,0.0014647,0.0010996,0.00061777,0.00023023,1.4715e-06,-9.0448e-05,-9.8176e-05,-7.027e-05,-3.7635e-05
-4.7661e-05,-6.914e-05,-6.7699e-05,-7.6854e-06,0.00015276,0.00043724,0.00080845,0.0011173,0.0010726,0.00027605,-0.0016299,-0.004688,-0.0082845,-0.010898,-0.010183,-0.003608,0.010288,0.030297,0.051282,0.064178,0.058046,0.02428,-0.038059,-0.11794,-0.19175,-0.22822,-0.19892,-0.091263,0.081165,0.27633,0.433,0.49013,0.4103,0.19788,-0.096533,-0.38923,-0.59045,-0.63582,-0.50977,-0.25155,0.058864,0.32914,0.48609,0.49825,0.38178,0.18922,-0.012714,-0.16678,-0.24154,-0.23588,-0.17243,-0.084706,-0.0037988,0.050505,0.072415,0.067459,0.046989,0.022656,0.0027355,-0.0091067,-0.013094,-0.011655,-0.0077283,-0.0036301,-0.00062423,0.00097236,0.0014273,0.0012164,0.00076737,0.00034913,7.1888e-05,-6.094e-05,-9.3718e-05,-7.6687e-05,-4.6009e-05
-5.1645e-05,-8.4013e-05,-9.9299e-05,-5.7275e-05,9.6408e-05,0.00040707,0.00086408,0.0013368,0.0015206,0.00094467,-0.00089807,-0.004261,-0.0087309,-0.012847,-0.014019,-0.0090527,0.004567,0.026802,0.053268,0.074577,0.077879,0.051063,-0.011114,-0.10114,-0.19619,-0.26153,-0.26083,-0.17084,0.0046659,0.22852,0.43607,0.55406,0.52692,0.34074,0.034456,-0.30819,-0.58474,-0.70912,-0.64232,-0.40646,-0.076467,0.24705,0.47281,0.54826,0.47264,0.2907,0.071676,-0.11694,-0.23041,-0.25606,-0.20997,-0.12487,-0.03557,0.032344,0.067622,0.072235,0.056332,0.032256,0.0099582,-0.0051277,-0.011942,-0.012307,-0.0091279,-0.0050161,-0.0016159,0.00044765,0.0012674,0.001266,0.00089341,0.00046996,0.00015413,-1.9262e-05,-8.0727e-05,-7.8626e-05,-5.2824e-05
-5.2615e-05,-9.5782e-05,-0.00013024,-0.00011322,2.0744e-05,0.00033992,0.0008669,0.0015031,0.0019508,0.001686,5.8119e-05,-0.003423,-0.0086189,-0.014251,-0.017628,-0.014988,-0.0027245,0.020547,0.051688,0.081621,0.096133,0.079767,0.022447,-0.073159,-0.18688,-0.2824,-0.31648,-0.2547,-0.088602,0.15331,0.40712,0.5902,0.62909,0.48872,0.19098,-0.18666,-0.53398,-0.74501,-0.7552,-0.56417,-0.23512,0.12882,0.42125,0.56793,0.54758,0.39219,0.16881,-0.047651,-0.19963,-0.2614,-0.23984,-0.1643,-0.071494,0.0078617,0.056734,0.072624,0.06346,0.0415,0.017985,8.9541e-05,-0.0096471,-0.012176,-0.010144,-0.0063237,-0.0026994,-0.00022321,0.00097836,0.0012314,0.00097955,0.00058151,0.00024248,3.2806e-05,-5.8898e-05,-7.509e-05,-5.7143e-05
-5.0016e-05,-0.00010287,-0.00015753,-0.00017125,-7.012e-05,0.0002364,0.00080854,0.0015927,0.0023202,0.0024418,0.0011836,-0.0021894,-0.0078733,-0.014895,-0.020637,-0.020933,-0.011144,0.011696,0.046144,0.084133,0.11086,0.108,0.060498,-0.034892,-0.16259,-0.28696,-0.35969,-0.33565,-0.19248,0.053563,0.34396,0.5909,0.70502,0.62876,0.3623,-0.029806,-0.43602,-0.7344,-0.8348,-0.71033,-0.40581,-0.020016,0.33037,0.55074,0.59715,0.48417,0.27154,0.037598,-0.14906,-0.24909,-0.25805,-0.19918,-0.10885,-0.02162,0.039833,0.067915,0.067365,0.049467,0.026188,0.0062466,-0.0062499,-0.011155,-0.010622,-0.0074185,-0.0037872,-0.00099986,0.00056722,0.0011029,0.0010116,0.0006719,0.00032959,9.1982e-05,-2.892e-05,-6.5568e-05,-5.8178e-05
-4.3634e-05,-0.00010403,-0.00017818,-0.0002263,-0.00016976,0.0001014,0.00068658,0.0015875,0.0025871,0.0031444,0.0023964,-0.00062337,-0.006482,-0.014624,-0.022692,-0.026342,-0.020062,0.00073247,0.03664,0.081306,0.12024,0.13311,0.10011,0.011446,-0.12364,-0.27271,-0.38492,-0.40586,-0.29876,-0.064689,0.24802,0.55157,0.74438,0.74697,0.53454,0.15244,-0.29386,-0.67234,-0.86957,-0.83003,-0.57437,-0.18967,0.2035,0.49359,0.61356,0.55698,0.37115,0.133,-0.080837,-0.21804,-0.26146,-0.22574,-0.14437,-0.054026,0.01771,0.057892,0.067276,0.055262,0.033834,0.012897,-0.0019221,-0.0092245,-0.010451,-0.0081726,-0.00478,-0.0018243,5.6312e-05,0.00088032,0.00097976,0.00073014,0.00040731,0.00015373,7.4897e-06,-5.0176e-05,-5.5417e-05
-3.3659e-05,-9.8546e-05,-0.00018965,-0.00027307,-0.00027005,-5.6069e-05,0.00050557,0.0014782,0.0027169,0.0037248,0.0035956,0.0011673,-0.0045049,-0.013369,-0.023512,-0.030671,-0.028721,-0.011568,0.023632,0.072852,0.12291,0.15249,0.13786,0.062483,-0.072056,-0.23902,-0.38805,-0.45788,-0.39808,-0.19262,0.12465,0.47169,0.73989,0.83041,0.6922,0.34618,-0.11584,-0.55919,-0.85178,-0.90973,-0.72533,-0.3669,0.048472,0.39757,0.59193,0.60206,0.45828,0.23094,0.00067175,-0.16914,-0.24823,-0.24071,-0.17467,-0.086722,-0.0081672,0.042921,0.062795,0.058139,0.040175,0.019489,0.0030395,-0.0064663,-0.009578,-0.008483,-0.0055781,-0.0026269,-0.00051831,0.00057425,0.00088034,0.00074767,0.00046762,0.00021272,4.769e-05,-2.9706e-05,-4.8722e-05
-2.0703e-05,-8.6397e-05,-0.00019021,-0.00030676,-0.00036209,-0.0002237,0.00027706,0.0012666,0.0026872,0.0041216,0.0046731,0.0030403,-0.002073,-0.011165,-0.022925,-0.033449,-0.036328,-0.02421,0.0080096,0.059085,0.11807,0.16398,0.17022,0.11403,-0.011463,-0.18739,-0.36706,-0.48566,-0.48101,-0.31957,-0.017269,0.35523,0.68852,0.86894,0.82008,0.535,0.084918,-0.40107,-0.77894,-0.93921,-0.84384,-0.53649,-0.12308,0.26824,0.53123,0.61324,0.52419,0.32289,0.089222,-0.10536,-0.21826,-0.24186,-0.19663,-0.11681,-0.03578,0.023951,0.05398,0.057613,0.044543,0.025429,0.0082414,-0.0030621,-0.0080279,-0.0082874,-0.006095,-0.0033341,-0.0011103,0.00020551,0.00071697,0.00071974,0.0005038,0.00026347,8.8388e-05,-5.591e-06,-3.8384e-05
-5.7446e-06,-6.8285e-05,-0.0001792,-0.00032367,-0.00043732,-0.00038726,1.8602e-05,0.00096569,0.002492,0.0042897,0.0055273,0.0048349,0.0006243,-0.0081536,-0.020907,-0.034347,-0.042155,-0.036098,-0.0089939,0.04093,0.10577,0.16613,0.19406,0.16157,0.053291,-0.12138,-0.3225,-0.48542,-0.53936,-0.43429,-0.16624,0.21047,0.59224,0.85668,0.90526,0.70199,0.29197,-0.20947,-0.65444,-0.9131,-0.91767,-0.68305,-0.29692,0.11516,0.43467,0.58767,0.56191,0.40041,0.17739,-0.031516,-0.17327,-0.22833,-0.20785,-0.1415,-0.062789,0.0024384,0.041369,0.053544,0.046445,0.030158,0.013238,0.00072332,-0.0058997,-0.0075753,-0.0062699,-0.0038785,-0.0016684,-0.00019683,0.00050055,0.00064633,0.00051133,0.00030106,0.00012602,2.0242e-05,-2.5115e-05
9.9773e-06,-4.5598e-05,-0.00015721,-0.00032178,-0.00048862,-0.00053238,-0.00024824,0.00059879,0.0021429,0.0042072,0.0060764,0.0063922,0.0033603,-0.0045723,-0.017587,-0.033225,-0.045635,-0.046172,-0.025941,0.019826,0.08682,0.15845,0.20701,0.20083,0.11669,-0.046286,-0.25748,-0.45626,-0.56723,-0.52639,-0.30952,0.049091,0.45798,0.79308,0.93895,0.83189,0.48747,6.1232e-17,-0.48747,-0.83189,-0.93895,-0.79308,-0.45798,-0.049091,0.30952,0.52639,0.56723,0.45626,0.25748,0.046286,-0.11669,-0.20083,-0.20701,-0.15845,-0.08682,-0.019826,0.025941,0.046172,0.045635,0.033225,0.017587,0.0045723,-0.0033603,-0.0063922,-0.0060764,-0.0042072,-0.0021429,-0.00059879,0.00024824,0.00053238,0.00048862,0.00032178,0.00015721,4.5598e-05,-9.9773e-06
2.5115e-05,-2.0242e-05,-0.00012602,-0.00030106,-0.00051133,-0.00064633,-0.00050055,0.00019683,0.0016684,0.0038785,0.0062699,0.0075753,0.0058997,-0.00072332,-0.013238,-0.030158,-0.046445,-0.053544,-0.041369,-0.0024384,0.062789,0.1415,0.20785,0.22833,0.17327,0.031516,-0.17739,-0.40041,-0.56191,-0.58767,-0.43467,-0.11516,0.29692,0.68305,0.91767,0.9131,0.65444,0.20947,-0.29197,-0.70199,-0.90526,-0.85668,-0.59224,-0.21047,0.16624,0.43429,0.53936,0.48542,0.3225,0.12138,-0.053291,-0.16157,-0.19406,-0.16613,-0.10577,-0.04093,0.0089939,0.036098,0.042155,0.034347,0.020907,0.0081536,-0.0006243,-0.0048349,-0.0055273,-0.0042897,-0.002492,-0.00096569,-1.8602e-05,0.00038726,0.00043732,0.00032367,0.0001792,6.8285e-05,5.7446e-06
3.8384e-05,5.591e-06,-8.8388e-05,-0.00026347,-0.0005038,-0.00071974,-0.00071697,-0.00020551,0.0011103,0.0033341,0.006095,0.0082874,0.0080279,0.0030621,-0.0082414,-0.025429,-0.044543,-0.057613,-0.05398,-0.023951,0.03578,0.11681,0.19663,0.24186,0.21826,0.10536,-0.089222,-0.32289,-0.52419,-0.61324,-0.53123,-0.26824,0.12308,0.53649,0.84384,0.93921,0.77894,0.40107,-0.084918,-0.535,-0.82008,-0.86894,-0.68852,-0.35523,0.017269,0.31957,0.48101,0.48566,0.36706,0.18739,0.011463,-0.11403,-0.17022,-0.16398,-0.11807,-0.059085,-0.0080096,0.02421,0.036328,0.033449,0.022925,0.011165,0.002073,-0.0030403,-0.0046731,-0.0041216,-0.0026872,-0.0012666,-0.00027706,0.0002237,0.00036209,0.00030676,0.00019021,8.6397e-05,2.0703e-05
4.8722e-05,2.9706e-05,-4.769e-05,-0.00021272,-0.00046762,-0.00074767,-0.00088034,-0.00057425,0.00051831,0.0026269,0.0055781,0.008483,0.009578,0.0064663,-0.0030395,-0.019489,-0.040175,-0.058139,-0.062795,-0.042921,0.0081672,0.086722,0.17467,0.24071,0.24823,0.16914,-0.00067175,-0.23094,-0.45828,-0.60206,-0.59193,-0.39757,-0.048472,0.3669,0.72533,0.90973,0.85178,0.55919,0.11584,-0.34618,-0.6922,-0.83041,-0.73989,-0.47169,-0.12465,0.19262,0.39808,0.45788,0.38805,0.23902,0.072056,-0.062483,-0.13786,-0.15249,-0.12291,-0.072852,-0.023632,0.011568,0.028721,0.030671,0.023512,0.013369,0.0045049,-0.0011673,-0.0035956,-0.0037248,-0.0027169,-0.0014782,-0.00050557,5.6069e-05,0.00027005,0.00027307,0.00018965,9.8546e-05,3.3659e-05
5.5417e-05,5.0176e-05,-7.4897e-06,-0.00015373,-0.00040731,-0.00073014,-0.00097976,-0.00088032,-5.6312e-05,0.0018243,0.00478,0.0081726,0.010451,0.0092245,0.0019221,-0.012897,-0.033834,-0.055262,-0.067276,-0.057892,-0.01771,0.054026,0.14437,0.22574,0.26146,0.21804,0.080837,-0.133,-0.37115,-0.55698,-0.61356,-0.49359,-0.2035,0.18967,0.57437,0.83003,0.86957,0.67234,0.29386,-0.15244,-0.53454,-0.74697,-0.74438,-0.55157,-0.24802,0.064689,0.29876,0.40586,0.38492,0.27271,0.12364,-0.011446,-0.10011,-0.13311,-0.12024,-0.081306,-0.03664,-0.00073247,0.020062,0.026342,0.022692,0.014624,0.006482,0.00062337,-0.0023964,-0.0031444,-0.0025871,-0.0015875,-0.00068658,-0.0001014,0.00016976,0.0002263,0.00017818,0.00010403,4.3634e-05
5.8178e-05,6.5568e-05,2.892e-05,-9.1982e-05,-0.00032959,-0.0006719,-0.0010116,-0.0011029,-0.00056722,0.00099986,0.0037872,0.0074185,0.010622,0.011155,0.0062499,-0.0062466,-0.026188,-0.049467,-0.067365,-0.067915,-0.039833,0.02162,0.10885,0.19918,0.25805,0.24909,0.14906,-0.037598,-0.27154,-0.48417,-0.59715,-0.55074,-0.33037,0.020016,0.40581,0.71033,0.8348,0.7344,0.43602,0.029806,-0.3623,-0.62876,-0.70502,-0.5909,-0.34396,-0.053563,0.19248,0.33565,0.35969,0.28696,0.16259,0.034892,-0.060498,-0.108,-0.11086,-0.084133,-0.046144,-0.011696,0.011144,0.020933,0.020637,0.014895,0.0078733,0.0021894,-0.0011836,-0.0024418,-0.0023202,-0.0015927,-0.00080854,-0.0002364,7.012e-05,0.00017125,0.00015753,0.00010287,5.0016e-05
5.7143e-05,7.509e-05,5.8898e-05,-3.2806e-05,-0.00024248,-0.00058151,-0.00097955,-0.0012314,-0.00097836,0.00022321,0.0026994,0.0063237,0.010144,0.012176,0.0096471,-8.9541e-05,-0.017985,-0.0415,-0.06346,-0.072624,-0.056734,-0.0078617,0.071494,0.1643,0.23984,0.2614,0.19963,0.047651,-0.16881,-0.39219,-0.54758,-0.56793,-0.42125,-0.12882,0.23512,0.56417,0.7552,0.74501,0.53398,0.18666,-0.19098,-0.48872,-0.62909,-0.5902,-0.40712,-0.15331,0.088602,0.2547,0.31648,0.2824,0.18688,0.073159,-0.022447,-0.079767,-0.096133,-0.081621,-0.051688,-0.020547,0.0027245,0.014988,0.017628,0.014251,0.0086189,0.003423,-5.8119e-05,-0.001686,-0.0019508,-0.0015031,-0.0008669,-0.00033992,-2.0744e-05,0.00011322,0.00013024,9.5782e-05,5.2615e-05
5.2824e-05,7.8626e-05,8.0727e-05,1.9262e-05,-0.00015413,-0.00046996,-0.00089341,-0.001266,-0.0012674,-0.00044765,0.0016159,0.0050161,0.0091279,0.012307,0.011942,0.0051277,-0.0099582,-0.032256,-0.056332,-0.072235,-0.067622,-0.032344,0.03557,0.12487,0.20997,0.25606,0.23041,0.11694,-0.071676,-0.2907,-0.47264,-0.54826,-0.47281,-0.24705,0.076467,0.40646,0.64232,0.70912,0.58474,0.30819,-0.034456,-0.34074,-0.52692,-0.55406,-0.43607,-0.22852,-0.0046659,0.17084,0.26083,0.26153,0.19619,0.10114,0.011114,-0.051063,-0.077879,-0.074577,-0.053268,-0.026802,-0.004567,0.0090527,0.014019,0.012847,0.0087309,0.004261,0.00089807,-0.00094467,-0.0015206,-0.0013368,-0.00086408,-0.00040707,-9.6408e-05,5.7275e-05,9.9299e-05,8.4013e-05,5.1645e-05
4.6009e-05,7.6687e-05,9.3718e-05,6.094e-05,-7.1888e-05,-0.00034913,-0.00076737,-0.0012164,-0.0014273,-0.00097236,0.00062423,0.0036301,0.0077283,0.011655,0.013094,0.0091067,-0.0027355,-0.022656,-0.046989,-0.067459,-0.072415,-0.050505,0.0037988,0.084706,0.17243,0.23588,0.24154,0.16678,0.012714,-0.18922,-0.38178,-0.49825,-0.48609,-0.32914,-0.058864,0.25155,0.50977,0.63582,0.59045,0.38923,0.096533,-0.19788,-0.4103,-0.49013,-0.433,-0.27633,-0.081165,0.091263,0.19892,0.22822,0.19175,0.11794,0.038059,-0.02428,-0.058046,-0.064178,-0.051282,-0.030297,-0.010288,0.003608,0.010183,0.010898,0.0082845,0.004688,0.0016299,-0.00027605,-0.0010726,-0.0011173,-0.00080845,-0.00043724,-0.00015276,7.6854e-06,6.7699e-05,6.914e-05,4.7661e-05
3.7635e-05,7.027e-05,9.8176e-05,9.0448e-05,-1.4715e-06,-0.00023023,-0.00061777,-0.0010996,-0.0014647,-0.0013308,-0.00020944,0.00229,0.0061174,0.010394,0.013186,0.011715,0.0032215,-0.013531,-0.036527,-0.059356,-0.071659,-0.061843,-0.021882,0.047174,0.13143,0.20475,0.23513,0.1961,0.079481,-0.095949,-0.2848,-0.4266,-0.4659,-0.374,-0.1635,0.11155,0.3713,0.53679,0.55757,0.42943,0.1953,-0.070946,-0.29089,-0.40784,-0.40308,-0.29709,-0.13727,0.021751,0.13674,0.18706,0.17603,0.12392,0.057221,-0.0012949,-0.038483,-0.05178,-0.046439,-0.031175,-0.014217,-0.00098075,0.0064659,0.0086469,0.0074015,0.0047326,0.0021125,0.00027685,-0.00064583,-0.00087074,-0.00071263,-0.00043367,-0.00018818,-3.2511e-05,3.8102e-05,5.2846e-05,4.1447e-05
2.8649e-05,6.0673e-05,9.5221e-05,0.00010751,5.3465e-05,-0.00012256,-0.00046083,-0.00093655,-0.001398,-0.0015229,-0.000845,0.0010965,0.0044624,0.0087316,0.012395,0.01298,0.0076499,-0.0055395,-0.025988,-0.049159,-0.06638,-0.066625,-0.04045,0.014855,0.090901,0.16711,0.21474,0.2061,0.12628,-0.017033,-0.19064,-0.34288,-0.41967,-0.38445,-0.23428,-0.0047846,0.23915,0.42454,0.49547,0.43264,0.25943,0.032558,-0.17886,-0.31707,-0.35339,-0.29381,-0.17198,-0.033808,0.079355,0.14277,0.15226,0.12045,0.068399,0.016691,-0.020729,-0.038735,-0.039628,-0.029818,-0.016346,-0.0044902,0.0031475,0.0063274,0.0062293,0.0044576,0.0023501,0.00068933,-0.00027119,-0.0006217,-0.00059135,-0.0004025,-0.00020346,-6.1687e-05,1.2557e-05,3.6696e-05,3.3895e-05
1.9901e-05,4.9292e-05,8.6532e-05,0.00011315,9.1455e-05,-3.2706e-05,-0.00031072,-0.00074963,-0.0012527,-0.0015652,-0.0012692,0.00011811,0.0029065,0.0068807,0.010956,0.013058,0.010486,0.00088942,-0.016244,-0.038106,-0.057884,-0.065733,-0.051774,-0.010631,0.05404,0.12727,0.18475,0.19971,0.15317,0.043897,-0.1064,-0.25623,-0.35622,-0.36633,-0.27202,-0.09258,0.12285,0.31074,0.41486,0.40575,0.29043,0.10875,-0.081874,-0.22682,-0.29181,-0.27142,-0.18662,-0.073602,0.030514,0.099544,0.12394,0.10967,0.072232,0.029184,-0.0058762,-0.026229,-0.031784,-0.026769,-0.016851,-0.0068443,0.00042063,0.0041418,0.0049194,0.0039472,0.0023708,0.00095506,3.0964e-05,-0.00039094,-0.00045943,-0.00035162,-0.00020124,-7.9608e-05,-7.6426e-06,2.1978e-05,2.5878e-05
1.2058e-05,3.7443e-05,7.4046e-05,0.00010935,0.00011301,3.5794e-05,-0.00017829,-0.00055922,-0.0010576,-0.0014863,-0.0014924,-0.00061097,0.0015558,0.0050334,0.0091252,0.012198,0.011838,0.0055631,-0.0079239,-0.027283,-0.047555,-0.060455,-0.056477,-0.02866,0.023085,0.088975,0.14967,0.18097,0.16221,0.085699,-0.036854,-0.17438,-0.28443,-0.32721,-0.2807,-0.15075,0.028533,0.20506,0.32631,0.35741,0.29285,0.15724,-0.0046707,-0.14439,-0.22592,-0.23585,-0.18429,-0.097744,-0.0076138,0.060701,0.094368,0.094017,0.069977,0.036336,0.0054792,-0.015172,-0.02377,-0.022641,-0.016038,-0.0080974,-0.0016179,0.0022404,0.0036085,0.0032937,0.0022194,0.0010837,0.00025139,-0.00019345,-0.00032993,-0.00028941,-0.00018546,-8.7213e-05,-2.1987e-05,9.5888e-06,1.8152e-05
5.5559e-06,2.6215e-05,5.9686e-05,9.8628e-05,0.0001202,8.226e-05,-7.0369e-05,-0.0003819,-0.00084051,-0.0013211,-0.0015433,-0.0010887,0.00047431,0.0033417,0.0071464,0.01069,0.011941,0.0085053,-0.0013828,-0.017533,-0.036677,-0.052253,-0.055717,-0.039483,-0.00078369,0.05503,0.11359,0.1543,0.15683,0.10939,0.01567,-0.10298,-0.2122,-0.27527,-0.2664,-0.18141,-0.041135,0.11434,0.239,0.29665,0.27318,0.18049,0.05099,-0.074769,-0.1622,-0.19311,-0.16914,-0.1079,-0.034377,0.028431,0.066277,0.075927,0.063245,0.038804,0.013215,-0.0061401,-0.01629,-0.018028,-0.014284,-0.0084033,-0.0029602,0.00071423,0.0024054,0.0025846,0.0019486,0.0010966,0.00039095,-3.7799e-05,-0.00021302,-0.00022368,-0.0001606,-8.6287e-05,-3.0657e-05,1.0752e-08,1.129e-05
6.0179e-07,1.6393e-05,4.5134e-05,8.3648e-05,0.00011605,0.00010838,1.0203e-05,-0.00022924,-0.00062521,-0.0011054,-0.0014612,-0.0013387,-0.00031552,0.0019084,0.0052232,0.0088248,0.011104,0.009908,0.003281,-0.0094037,-0.026303,-0.042558,-0.050945,-0.044019,-0.017358,0.027183,0.079794,0.12397,0.14114,0.11756,0.051081,-0.045381,-0.1457,-0.2181,-0.23615,-0.18896,-0.086554,0.042417,0.15995,0.23171,0.23866,0.18294,0.085897,-0.020556,-0.10544,-0.14862,-0.1457,-0.10676,-0.05041,0.0037772,0.041653,0.057538,0.053737,0.037569,0.0176,0.0006219,-0.0098369,-0.013441,-0.011973,-0.0079765,-0.0036703,-0.00040377,0.0013838,0.0018937,0.0016116,0.0010221,0.00045844,7.3554e-05,-0.00011533,-0.00016084,-0.00013104,-7.907e-05,-3.4365e-05,-6.665e-06,5.6471e-06
-2.804e-06,8.4348e-06,3.1686e-05,6.6852e-05,0.00010403,0.00011747,6.4004e-05,-0.00010757,-0.00042962,-0.00087141,-0.0012895,-0.0014019,-0.00082582,0.00078525,0.0035048,0.0068598,0.0096549,0.010072,0.0061816,-0.0031466,-0.017183,-0.032607,-0.043665,-0.043598,-0.027214,0.0061498,0.050551,0.093566,0.11929,0.11377,0.071027,-0.002736,-0.089054,-0.16204,-0.19689,-0.17908,-0.11047,-0.0097048,0.093673,0.1693,0.19632,0.17008,0.10274,0.017822,-0.05859,-0.10667,-0.11825,-0.097505,-0.057274,-0.013233,0.021655,0.040504,0.043026,0.033748,0.019175,0.0051559,-0.0046817,-0.0092637,-0.0094561,-0.0070539,-0.0038601,-0.0011295,0.00058141,0.001275,0.0012551,0.00089046,0.00046778,0.00014319,-3.9952e-05,-0.00010547,-0.0001006,-6.79e-05,-3.415e-05,-1.0661e-05,1.3742e-06
-4.8168e-06,2.489e-06,2.0194e-05,5.0238e-05,8.7475e-05,0.00011373,9.4168e-05,-1.8437e-05,-0.00026507,-0.00064492,-0.0010695,-0.0013274,-0.0010938,-2.0239e-05,0.0020815,0.0049958,0.0078991,0.0093452,0.0075815,0.0012391,-0.0097466,-0.023344,-0.035246,-0.039706,-0.031455,-0.008226,0.027083,0.065767,0.095005,0.10184,0.078288,0.025604,-0.044331,-0.11165,-0.15469,-0.15772,-0.11707,-0.043261,0.042215,0.11412,0.15213,0.1475,0.10532,0.041645,-0.022851,-0.070164,-0.090348,-0.083324,-0.057052,-0.023351,0.0066766,0.025918,0.032398,0.028432,0.018623,0.0077175,-0.00089511,-0.0057423,-0.007013,-0.0058609,-0.0036653,-0.0015143,4.2701e-06,0.00076139,0.0009161,0.00072986,0.00043516,0.00017723,1.3051e-05,-6.0229e-05,-7.219e-05,-5.4908e-05,-3.1177e-05,-1.2411e-05,-1.5565e-06
-5.6903e-06,-1.5388e-06,1.1078e-05,3.5237e-05,6.929e-05,0.00010149,0.00010536,4.0307e-05,-0.00013662,-0.00044386,-0.00083579,-0.0011646,-0.0011709,-0.00053495,0.00098871,0.0033682,0.0060896,0.0080702,0.0078227,0.0039439,-0.0041346,-0.015384,-0.026797,-0.033774,-0.031452,-0.016731,0.0096916,0.04225,0.071207,0.085374,0.076167,0.041559,-0.011818,-0.069671,-0.11424,-0.13037,-0.11118,-0.061031,0.0055662,0.068858,0.11062,0.12026,0.097861,0.053315,0.0020426,-0.040687,-0.064637,-0.067018,-0.051971,-0.027816,-0.0035052,0.014322,0.022779,0.022563,0.016657,0.0086918,0.0016103,-0.0029873,-0.0048394,-0.0045886,-0.0032231,-0.0016299,-0.00036615,0.00036619,0.00061942,0.0005637,0.00037658,0.00018371,4.5906e-05,-2.6007e-05,-4.7727e-05,-4.1824e-05,-2.6572e-05,-1.2459e-05,-3.3009e-06
-5.7204e-06,-3.9115e-06,4.3905e-06,2.2694e-05,5.1683e-05,8.4674e-05,0.0001028,7.3296e-05,-4.4157e-05,-0.00027834,-0.00061447,-0.00095782,-0.0011131,-0.00080754,0.0002178,0.0020485,0.0044103,0.0065452,0.0072655,0.0052739,-0.00026088,-0.0090286,-0.019104,-0.027019,-0.028605,-0.020522,-0.0020308,0.023762,0.049926,0.067384,0.067955,0.047749,0.009527,-0.037192,-0.078681,-0.10152,-0.097442,-0.066593,-0.017792,0.034406,0.074736,0.092391,0.084358,0.05577,0.017382,-0.018624,-0.042756,-0.050788,-0.044101,-0.028085,-0.0095377,0.0057947,0.01472,0.016861,0.013925,0.0085133,0.003027,-0.00099906,-0.0030462,-0.0033802,-0.0026558,-0.0015546,-0.00056403,8.6612e-05,0.00037838,0.00040909,0.00030598,0.00017113,6.2242e-05,-2.3127e-06,-2.8155e-05,-2.9882e-05,-2.1297e-05,-1.1362e-05,-4.0902e-06
-5.1981e-06,-4.9809e-06,-8.0398e-08,1.2942e-05,3.6119e-05,6.6473e-05,9.1539e-05,8.6377e-05,1.6097e-05,-0.00015164,-0.00042216,-0.00074186,-0.00097282,-0.00089656,-0.00027037,0.0010545,0.002975,0.0050016,0.006241,0.0055821,0.0021133,-0.0043205,-0.012633,-0.020369,-0.024175,-0.020882,-0.0089489,0.010303,0.0323,0.050104,0.056551,0.046991,0.021573,-0.013978,-0.049678,-0.074428,-0.079902,-0.063673,-0.030278,0.010258,0.045906,0.066756,0.068195,0.051989,0.025043,-0.0034821,-0.025445,-0.036144,-0.03516,-0.025594,-0.012295,7.514e-05,0.0084409,0.01181,0.010951,0.0076004,0.0036002,0.0003013,-0.0016707,-0.0023278,-0.0020607,-0.001362,-0.00063074,-9.1144e-05,0.00019642,0.00027666,0.00023425,0.00014733,6.6268e-05,1.2277e-05,-1.3622e-05,-1.9815e-05,-1.6084e-05,-9.6227e-06,-4.1824e-06
-4.3766e-06,-5.1198e-06,-2.7099e-06,5.9112e-06,2.3371e-05,4.9171e-05,7.5855e-05,8.5564e-05,5.0052e-05,-6.1919e-05,-0.00026702,-0.00054121,-0.00079402,-0.00086054,-0.00053165,0.00036397,0.0018345,0.0035971,0.0050203,0.0052128,0.0033052,-0.0011165,-0.0075676,-0.014435,-0.019174,-0.019032,-0.012146,0.0013462,0.018712,0.034962,0.04424,0.041904,0.026548,0.0010962,-0.027663,-0.051097,-0.061665,-0.055662,-0.034654,-0.0050002,0.024365,0.045042,0.051926,0.044624,0.027089,0.0057941,-0.012719,-0.023936,-0.026414,-0.021597,-0.012708,-0.0033063,0.0039032,0.0076635,0.008116,0.0063113,0.0035828,0.0010386,-0.00069429,-0.0014771,-0.0015062,-0.0011139,-0.00060781,-0.000187,6.9685e-05,0.00017121,0.0001688,0.00011874,6.21e-05,1.9671e-05,-3.7045e-06,-1.1919e-05,-1.1421e-05,-7.6465e-06,-3.8237e-06
-3.4538e-06,-4.6715e-06,-3.9391e-06,1.2674e-06,1.3646e-05,3.4172e-05,5.9031e-05,7.6271e-05,6.4371e-05,-4.056e-06,-0.00015047,-0.00037025,-0.00060952,-0.0007511,-0.00062671,-6.9761e-05,0.00099085,0.0024202,0.003802,0.0044631,0.0036481,0.00083696,-0.0038809,-0.0095406,-0.014327,-0.016007,-0.012728,-0.0039318,0.0089858,0.022668,0.032613,0.034662,0.026665,0.0096322,-0.012178,-0.032439,-0.044841,-0.045325,-0.033589,-0.013239,0.0094931,0.027937,0.037235,0.035795,0.025469,0.010519,-0.0041063,-0.014463,-0.018671,-0.017076,-0.011634,-0.0049054,0.00089702,0.0044941,0.0056519,0.0049207,0.0032033,0.0013546,-6.2446e-05,-0.00083661,-0.0010326,-0.00085663,-0.00053196,-0.00022271,-1.0219e-05,9.3049e-05,0.00011383,9.0092e-05,5.3302e-05,2.1885e-05,2.368e-06,-6.1594e-06,-7.5676e-06,-5.7239e-06,-3.2235e-06
-2.5668e-06,-3.918e-06,-4.2007e-06,-1.4605e-06,6.7488e-06,2.2121e-05,4.3284e-05,6.287e-05,6.5427e-05,2.8671e-05,-6.9217e-05,-0.00023497,-0.0004409,-0.00060912,-0.00061225,-0.00030428,0.00041335,0.0015028,0.0027126,0.003564,0.0034464,0.0018369,-0.0014055,-0.0057819,-0.010079,-0.012595,-0.011681,-0.0064536,0.0025903,0.013366,0.022611,0.026887,0.023857,0.013358,-0.0022254,-0.018534,-0.030622,-0.034673,-0.029377,-0.01641,0.00017119,0.015382,0.025026,0.027012,0.021821,0.012022,0.0011425,-0.0076181,-0.012338,-0.012713,-0.009781,-0.0052693,-0.00087714,0.0022414,0.003668,0.0036146,0.0026464,0.0013849,0.00029687,-0.00038909,-0.00065714,-0.00062079,-0.00043233,-0.00021865,-5.3707e-05,3.9409e-05,7.0897e-05,6.4398e-05,4.265e-05,2.0762e-05,5.5017e-06,-2.2819e-06,-4.6019e-06,-4.0344e-06,-2.5413e-06
-1.7968e-06,-3.0686e-06,-3.8703e-06,-2.7769e-06,2.2467e-06,1.3093e-05,2.9871e-05,4.8527e-05,5.8644e-05,4.3209e-05,-1.7336e-05,-0.00013512,-0.00029981,-0.00046357,-0.00053557,-0.00039736,5.3444e-05,0.00083587,0.0018164,0.0026753,0.0029495,0.0021731,9.6018e-05,-0.0030917,-0.0066399,-0.009327,-0.0097999,-0.0070966,-0.001172,0.0068141,0.014641,0.019644,0.019651,0.013878,0.0034268,-0.0089024,-0.019461,-0.024994,-0.023788,-0.016286,-0.0049075,0.0068388,0.015586,0.019209,0.017388,0.011486,0.0038628,-0.0030467,-0.0075144,-0.0089162,-0.0076757,-0.0048743,-0.0017414,0.00076666,0.0021789,0.0024993,0.0020466,0.0012457,0.00045851,-0.00010245,-0.00037946,-0.00042299,-0.00032964,-0.00019186,-7.1272e-05,5.8651e-06,3.9623e-05,4.3212e-05,3.2074e-05,1.7819e-05,6.5838e-06,7.9259e-08,-2.4749e-06,-2.6638e-06,-1.8853e-06
-1.1795e-06,-2.2602e-06,-3.242e-06,-3.1461e-06,-3.9334e-07,6.7917e-06,1.9286e-05,3.5264e-05,4.8185e-05,4.5815e-05,1.2084e-05,-6.6567e-05,-0.00019017,-0.00033237,-0.00043226,-0.00039988,-0.00014281,0.00038577,0.0011302,0.0018923,0.0023412,0.0020957,0.00087739,-0.001309,-0.0040458,-0.0065078,-0.0076572,-0.0066037,-0.0030207,0.0025563,0.0087157,0.013517,0.015126,0.012525,0.0060085,-0.002774,-0.011287,-0.016952,-0.018047,-0.014311,-0.0070128,0.0015267,0.0087743,0.012836,0.013008,0.0098562,0.0048457,-0.00027624,-0.0040865,-0.0058659,-0.0056641,-0.0040941,-0.0019934,-0.00010173,0.0011372,0.0016174,0.0014899,0.0010261,0.00049006,6.0879e-05,-0.00018837,-0.00026896,-0.00023677,-0.00015521,-7.2184e-05,-1.253e-05,1.8467e-05,2.696e-05,2.2729e-05,1.4175e-05,6.3828e-06,1.3163e-06,-1.0618e-06,-1.6279e-06,-1.3179e-06
-7.184e-07,-1.5688e-06,-2.5229e-06,-2.9509e-06,-1.7007e-06,2.7259e-06,1.1493e-05,2.4142e-05,3.6922e-05,4.1551e-05,2.5711e-05,-2.323e-05,-0.00011062,-0.00022436,-0.00032636,-0.00035227,-0.00022611,0.00010751,0.00063969,0.001259,0.0017426,0.0017996,0.0011713,-0.00023365,-0.0022191,-0.0042645,-0.0056207,-0.005543,-0.0036004,5.7735e-05,0.004608,0.0087177,0.010952,0.010299,0.0065992,0.00071159,-0.0057101,-0.010751,-0.012893,-0.011546,-0.0072361,-0.0013874,0.0042042,0.0079943,0.0091686,0.007814,0.0047578,0.00118,-0.0018268,-0.0035825,-0.0039386,-0.0031928,-0.001879,-0.00053513,0.00046331,0.00096682,0.0010219,0.00078785,0.00044632,0.00013729,-6.7222e-05,-0.00015699,-0.00016013,-0.00011742,-6.3825e-05,-2.0442e-05,5.3464e-06,1.5319e-05,1.5151e-05,1.057e-05,5.4991e-06,1.7905e-06,-2.0641e-07,-8.9691e-07,-8.6542e-07
-3.9659e-07,-1.0236e-06,-1.8424e-06,-2.4774e-06,-2.1368e-06,3.4829e-07,6.1377e-06,1.5512e-05,2.6594e-05,3.4127e-05,2.924e-05,1.3709e-06,-5.6801e-05,-0.00014184,-0.0002319,-0.00028362,-0.0002389,-4.5142e-05,0.00031325,0.00078226,0.0012216,0.0014225,0.0011688,0.0003331,-0.0010242,-0.002601,-0.0038876,-0.0043071,-0.0034311,-0.0011973,0.0019696,0.0052105,0.0074731,0.0078746,0.0060533,0.0023615,-0.0021977,-0.0062841,-0.0086764,-0.0086946,-0.0064256,-0.0026657,0.0013864,0.0045581,0.0060832,0.0057985,0.0041076,0.0017568,-0.00046564,-0.0019858,-0.0025751,-0.002336,-0.0015825,-0.00068337,6.7772e-05,0.00051877,0.00065801,0.0005685,0.00036762,0.00015795,1.8371e-06,-8.107e-05,-0.00010146,-8.3583e-05,-5.1518e-05,-2.1788e-05,-1.8865e-06,7.5538e-06,9.4369e-06,7.4238e-06,4.3571e-06,1.7991e-06,2.4702e-07,-4.1763e-07,-5.292e-07
-1.8769e-07,-6.2309e-07,-1.2675e-06,-1.9188e-06,-2.0652e-06,-8.5264e-07,2.7224e-06,9.2629e-06,1.805e-05,2.5994e-05,2.7075e-05,1.3137e-05,-2.3128e-05,-8.2943e-05,-0.00015526,-0.00021265,-0.00021341,-0.00011329,0.00011315,0.00044697,0.00080657,0.0010506,0.0010125,0.00056417,-0.00030803,-0.001448,-0.0025302,-0.0031355,-0.0028937,-0.001648,0.00042698,0.002816,0.0047919,0.0056527,0.0049852,0.0028495,-0.00020026,-0.0032812,-0.0054775,-0.0061563,-0.0051796,-0.002933,-0.00016605,0.0022846,0.0037777,0.0040505,0.003247,0.0018039,0.0002572,-0.00094694,-0.0015713,-0.00161,-0.0012285,-0.00066471,-0.00013332,0.00023235,0.00039398,0.00038656,0.00028062,0.00014703,3.5134e-05,-3.3445e-05,-5.9506e-05,-5.6063e-05,-3.8707e-05,-1.9552e-05,-5.1491e-06,2.7806e-06,5.4097e-06,4.9107e-06,3.2245e-06,1.5647e-06,4.3446e-07,-1.2946e-07,-2.957e-07
-6.3106e-08,-3.4789e-07,-8.2097e-07,-1.3901e-06,-1.7463e-06,-1.3022e-06,7.3334e-07,5.0327e-06,1.1523e-05,1.8565e-05,2.2315e-05,1.6882e-05,-4.0304e-06,-4.3676e-05,-9.7628e-05,-0.00014978,-0.00017192,-0.00012985,3.0166e-06,0.00022691,0.00049919,0.00072999,0.00079897,0.00059546,7.2791e-05,-0.00070355,-0.0015398,-0.0021493,-0.0022405,-0.0016335,-0.00036065,0.0012963,0.0028641,0.003823,0.0037926,0.0026868,0.0007709,-0.0014098,-0.0032105,-0.0041076,-0.0038762,-0.0026544,-0.00087645,0.00089533,0.0021673,0.0026658,0.0023923,0.0015772,0.00056315,-0.00032551,-0.00088031,-0.0010448,-0.00089178,-0.00056416,-0.00020991,6.4981e-05,0.00021489,0.00024726,0.0002008,0.00012158,4.6013e-05,-6.3328e-06,-3.1476e-05,-3.5326e-05,-2.7314e-05,-1.5797e-05,-5.9796e-06,1.4213e-07,2.7608e-06,3.0459e-06,2.2445e-06,1.238e-06,4.6305e-07,2.4535e-08,-1.446e-07
3.1846e-09,-1.7154e-07,-4.9805e-07,-9.478e-07,-1.3493e-06,-1.322e-06,-2.8568e-07,2.3671e-06,6.8707e-06,1.2488e-05,1.6927e-05,1.618e-05,5.3219e-06,-1.937e-05,-5.7143e-05,-9.9403e-05,-0.00012819,-0.00011882,-4.8015e-05,9.3246e-05,0.00028635,0.00047793,0.00058622,0.0005244,0.0002373,-0.00026058,-0.00086386,-0.0013879,-0.001619,-0.0013924,-0.00067076,0.00041208,0.0015674,0.0024339,0.0027006,0.0022265,0.0011065,-0.00034783,-0.0017083,-0.0025771,-0.0027212,-0.0021456,-0.0010771,0.00012862,0.0011165,0.0016471,0.0016564,0.0012467,0.00062291,6.6929e-06,-0.00043653,-0.00063526,-0.00060912,-0.00043702,-0.00021498,-2.1234e-05,0.00010178,0.00014779,0.00013532,9.2447e-05,4.4409e-05,7.0318e-06,-1.4082e-05,-2.073e-05,-1.816e-05,-1.1805e-05,-5.5032e-06,-1.0904e-06,1.1477e-06,1.7522e-06,1.4722e-06,9.1025e-07,4.0974e-07,9.1762e-08,-5.4427e-08
3.2331e-08,-6.7171e-08,-2.7952e-07,-6.0888e-07,-9.7076e-07,-1.1337e-06,-6.9844e-07,8.2326e-07,3.768e-06,7.9117e-06,1.1997e-05,1.3455e-05,8.7077e-06,-5.6217e-06,-3.0537e-05,-6.2079e-05,-8.9548e-05,-9.6187e-05,-6.3662e-05,1.9624e-05,0.00014856,0.00029407,0.00040379,0.00041449,0.00027545,-2.3802e-05,-0.00043307,-0.00084079,-0.0010999,-0.0010772,-0.00070936,-4.4427e-05,0.00075445,0.0014504,0.0018101,0.001689,0.0010915,0.00017856,-0.00078251,-0.0015091,-0.0017995,-0.0015984,-0.0010062,-0.00023315,0.00048053,0.00094643,0.0010807,0.00091325,0.00055677,0.00015414,-0.00017317,-0.00035757,-0.00039203,-0.00031507,-0.0001852,-5.6593e-05,3.6064e-05,8.1316e-05,8.5891e-05,6.5649e-05,3.7074e-05,1.1956e-05,-4.2107e-06,-1.1119e-05,-1.1363e-05,-8.2623e-06,-4.4701e-06,-1.4787e-06,2.5588e-07,9.129e-07,9.0767e-07,6.2815e-07,3.2485e-07,1.0813e-07,-6.0248e-09
3.9997e-08,-1.1422e-08,-1.4131e-07,-3.6739e-07,-6.5608e-07,-8.7656e-07,-7.6978e-07,2.4941e-08,1.8367e-06,4.6988e-06,7.9978e-06,1.0189e-05,8.8321e-06,1.2229e-06,-1.4249e-05,-3.6254e-05,-5.89e-05,-7.147e-05,-6.0614e-05,-1.5408e-05,6.57e-05,0.00016867,0.00026204,0.0003026,0.00024941,8.2782e-05,-0.00017886,-0.00047295,-0.0007042,-0.00077354,-0.00061639,-0.00023595,0.0002844,0.00079864,0.0011431,0.0011941,0.00091614,0.00037971,-0.00025909,-0.00081145,-0.0011206,-0.0011134,-0.00081973,-0.00035431,0.00012981,0.00049551,0.00066333,0.00062705,0.0004419,0.00019437,-3.1925e-05,-0.00018158,-0.00023704,-0.00021333,-0.00014361,-6.3205e-05,1.9263e-06,3.9846e-05,5.1122e-05,4.3847e-05,2.8151e-05,1.2246e-05,7.3071e-07,-5.2216e-06,-6.6517e-06,-5.4443e-06,-3.3296e-06,-1.4187e-06,-1.713e-07,4.0694e-07,5.2192e-07,4.0838e-07,2.3771e-07,9.851e-08,1.5943e-08
3.682e-08,1.3975e-08,-6.0215e-08,-2.0637e-07,-4.178e-07,-6.272e-07,-6.7642e-07,-3.1651e-07,7.2565e-07,2.5868e-06,5.0244e-06,7.1739e-06,7.4676e-06,3.9198e-06,-5.0786e-06,-1.9521e-05,-3.6494e-05,-4.9555e-05,-4.96e-05,-2.7744e-05,2.0133e-05,8.8605e-05,0.00016008,0.00020675,0.00019839,0.00011455,-4.2702e-05,-0.00024158,-0.00042394,-0.00052108,-0.0004782,-0.00027905,4.0089e-05,0.00039499,0.00067774,0.00079335,0.00069503,0.00040381,3.7271e-06,-0.00038639,-0.00065381,-0.0007297,-0.00060939,-0.00034867,-3.9265e-05,0.00022541,0.00038047,0.00040546,0.00032244,0.00018019,3.29e-05,-7.805e-05,-0.00013349,-0.0001361,-0.00010299,-5.5859e-05,-1.2812e-05,1.5924e-05,2.8223e-05,2.7596e-05,1.9862e-05,1.0404e-05,2.7021e-06,-1.891e-06,-3.5928e-06,-3.3796e-06,-2.3133e-06,-1.1657e-06,-3.2438e-07,1.2778e-07,2.7513e-07,2.4995e-07,1.6273e-07,7.864e-08,2.267e-08
2.9391e-08,2.2093e-08,-1.6864e-08,-1.0586e-07,-2.5037e-07,-4.204e-07,-5.2557e-07,-4.0425e-07,1.4822e-07,1.2884e-06,2.9665e-06,4.7414e-06,5.6649e-06,4.3768e-06,-4.6388e-07,-9.3961e-06,-2.1215e-05,-3.2305e-05,-3.6824e-05,-2.8202e-05,-1.9479e-06,4.0955e-05,9.1542e-05,0.00013297,0.00014443,0.00010857,2.0372e-05,-0.00010629,-0.00023823,-0.00033064,-0.00034187,-0.00025037,-6.7018e-05,0.00016337,0.00037373,0.00049666,0.00048855,0.00034657,0.00011115,-0.00014739,-0.0003532,-0.00045064,-0.00042159,-0.00028838,-0.00010224,7.6884e-05,0.00020092,0.00024695,0.00021971,0.0001444,5.408e-05,-2.2511e-05,-6.8726e-05,-8.1718e-05,-6.9164e-05,-4.3551e-05,-1.6741e-05,3.4414e-06,1.4116e-05,1.6327e-05,1.3152e-05,7.9166e-06,3.0633e-06,-2.0738e-07,-1.7379e-06,-1.9689e-06,-1.5108e-06,-8.6783e-07,-3.3338e-07,-8.2335e-09,1.2792e-07,1.4326e-07,1.0485e-07,5.7395e-08,2.1667e-08
2.136e-08,2.1534e-08,3.3738e-09,-4.744e-08,-1.4031e-07,-2.6532e-07,-3.7475e-07,-3.6973e-07,-1.0819e-07,5.4737e-07,1.6329e-06,2.9524e-06,3.9687e-06,3.8059e-06,1.4612e-06,-3.7297e-06,-1.1453e-05,-1.9846e-05,-2.5376e-05,-2.3529e-05,-1.0442e-05,1.485e-05,4.8376e-05,8.0574e-05,9.798e-05,8.7479e-05,4.2085e-05,-3.3897e-05,-0.00012296,-0.00019757,-0.0002285,-0.00019579,-9.8305e-05,4.2622e-05,0.00018782,0.00029252,0.00032188,0.00026401,0.00013497,-2.6445e-05,-0.00017218,-0.00026146,-0.0002739,-0.00021461,-0.00010982,4.2582e-06,9.4532e-05,0.00014104,0.00014081,0.00010523,5.3237e-05,3.5724e-06,-3.0995e-05,-4.5903e-05,-4.373e-05,-3.1131e-05,-1.5429e-05,-2.1422e-06,6.0448e-06,9.0092e-06,8.2043e-06,5.559e-06,2.6803e-06,5.0154e-07,-6.9692e-07,-1.0657e-06,-9.2982e-07,-5.9931e-07,-2.7957e-07,-6.12e-08,4.7034e-08,7.5936e-08,6.3651e-08,3.9017e-08,1.7535e-08
1.4431e-08,1.748e-08,1.0643e-08,-1.627e-08,-7.2513e-08,-1.5774e-07,-2.4933e-07,-2.9043e-07,-1.8863e-07,1.6168e-07,8.2333e-07,1.7306e-06,2.602e-06,2.9058e-06,1.9495e-06,-8.6162e-07,-5.6157e-06,-1.1464e-05,-1.6402e-05,-1.752e-05,-1.1884e-05,2.0524e-06,2.297e-05,4.5841e-05,6.2461e-05,6.3692e-05,4.3031e-05,2.969e-07,-5.6219e-05,-0.00011062,-0.0001437,-0.00013968,-9.2958e-05,-1.1928e-05,8.2063e-05,0.00016101,0.00019971,0.00018487,0.00012019,2.53e-05,-7.111e-05,-0.00014131,-0.00016767,-0.00014769,-9.3203e-05,-2.4744e-05,3.6316e-05,7.4729e-05,8.5034e-05,7.1243e-05,4.3424e-05,1.308e-05,-1.08e-05,-2.3796e-05,-2.6048e-05,-2.0754e-05,-1.217e-05,-3.932e-06,1.829e-06,4.5584e-06,4.8185e-06,3.6517e-06,2.0538e-06,6.8787e-07,-1.6794e-07,-5.2466e-07,-5.3821e-07,-3.8811e-07,-2.0884e-07,-7.0895e-08,7.1974e-09,3.6223e-08,3.6289e-08,2.4919e-08,1.2804e-08
9.1521e-09,1.2727e-08,1.1432e-08,-1.4828e-09,-3.3511e-08,-8.7995e-08,-1.5597e-07,-2.0694e-07,-1.8431e-07,-1.3989e-08,3.6545e-07,9.4973e-07,1.6057e-06,2.0301e-06,1.7751e-06,3.8194e-07,-2.3734e-06,-6.1823e-06,-9.9866e-06,-1.202e-05,-1.0241e-05,-3.1663e-06,9.1294e-06,2.426e-05,3.7521e-05,4.2963e-05,3.5462e-05,1.3176e-05,-2.062e-05,-5.735e-05,-8.515e-05,-9.2729e-05,-7.3812e-05,-3.0364e-05,2.6942e-05,8.1608e-05,0.00011671,0.00012088,9.2454e-05,4.0212e-05,-1.9781e-05,-6.9829e-05,-9.6602e-05,-9.5172e-05,-6.9748e-05,-3.1156e-05,7.6066e-06,3.588e-05,4.8274e-05,4.5266e-05,3.1714e-05,1.4266e-05,-1.1717e-06,-1.1051e-05,-1.4561e-05,-1.3006e-05,-8.6958e-06,-3.8847e-06,-1.0253e-07,2.0353e-06,2.6502e-06,2.2576e-06,1.4385e-06,6.3164e-07,6.308e-08,-2.2335e-07,-2.9094e-07,-2.3673e-07,-1.4361e-07,-6.1503e-08,-9.1962e-09,1.4529e-08,1.9255e-08,1.4996e-08,8.6556e-09
5.4682e-09,8.5563e-09,9.5466e-09,4.2392e-09,-1.2785e-08,-4.5588e-08,-9.1935e-08,-1.3684e-07,-1.4764e-07,-7.5952e-08,1.2746e-07,4.8169e-07,9.3361e-07,1.3215e-06,1.3731e-06,7.6673e-07,-7.2896e-07,-3.0626e-06,-5.7258e-06,-7.7086e-06,-7.6873e-06,-4.4836e-06,2.3002e-06,1.1703e-05,2.1205e-05,2.716e-05,2.5928e-05,1.5406e-05,-3.5995e-06,-2.684e-05,-4.7407e-05,-5.7808e-05,-5.2721e-05,-3.1368e-05,1.537e-06,3.6866e-05,6.3966e-05,7.433e-05,6.4656e-05,3.8044e-05,2.8667e-06,-3.0244e-05,-5.2072e-05,-5.7739e-05,-4.7845e-05,-2.7585e-05,-4.4028e-06,1.476e-05,2.5564e-05,2.7095e-05,2.137e-05,1.1988e-05,2.5933e-06,-4.2592e-06,-7.5643e-06,-7.6805e-06,-5.7626e-06,-3.1279e-06,-7.9358e-07,7.1968e-07,1.3482e-06,1.3151e-06,9.3837e-07,4.9074e-07,1.3606e-07,-6.9994e-08,-1.4461e-07,-1.3599e-07,-9.2287e-08,-4.6342e-08,-1.3477e-08,3.7835e-09,9.324e-09,8.4917e-09,5.4823e-09
