-7.0803e-07,3.3137e-05,8.045e-05,0.00013727,0.00019489,0.00023959,0.00025357,0.00021747,0.00011443,-6.4543e-05,-0.00031489,-0.00061385,-0.00091829,-0.0011668,-0.0012869,-0.0012072,-0.0008739,-0.00026803,0.00057989,0.0015819,0.0025955,0.003439,0.0039197,0.00387,0.0031864,0.0018624,7.5355e-06,-0.0021547,-0.0043122,-0.0061117,-0.0072197,-0.0073871,-0.0065031,-0.0046271,-0.0019902,0.0010376,0.0040067,0.0064656,0.0080409,0.0085028,0.0078042,0.0060863,0.0036476,0.00088669,-0.0017712,-0.0039482,-0.0053743,-0.0059231,-0.0056189,-0.0046159,-0.0031569,-0.0015213,2.7096e-05,0.0012807,0.0021136,0.0024885,0.002446,0.002083,0.0015252,0.00090027,0.00031621,-0.00015187,-0.00046612,-0.00062279,-0.00064392,-0.00056666,-0.00043284,-0.00028061,-0.0001392,-2.6696e-05,4.942e-05,9.0107e-05,0.00010177,9.3296e-05,7.3661e-05
-1.5241e-05,2.4881e-05,8.4656e-05,0.00016069,0.0002434,0.00031623,0.00035626,0.00033688,0.0002327,2.6381e-05,-0.00028361,-0.00067583,-0.0011015,-0.0014853,-0.0017321,-0.0017422,-0.0014311,-0.00075294,0.00027727,0.0015698,0.0029585,0.0042156,0.0050835,0.00532,0.0047505,0.0033153,0.0011022,-0.0016456,-0.0045533,-0.0071668,-0.0090285,-0.0097625,-0.0091516,-0.0071904,-0.004101,-0.00030609,0.0036382,0.0071368,0.00966,0.010837,0.010519,0.008801,0.0059997,0.0025874,-0.00089566,-0.0039374,-0.0061387,-0.0072706,-0.007296,-0.0063546,-0.0047179,-0.0027274,-0.00072692,0.00099395,0.0022394,0.0029231,0.0030627,0.0027563,0.0021499,0.0014035,0.00066071,2.9688e-05,-0.00042659,-0.00068917,-0.00077473,-0.0007231,-0.00058417,-0.00040658,-0.00023001,-8.1239e-05,2.6267e-05,9.0291e-05,0.00011648,0.00011468,9.5767e-05
-3.7397e-05,8.3217e-06,8.1567e-05,0.00018027,0.00029456,0.00040515,0.00048337,0.00049387,0.00040016,0.00017317,-0.00019845,-0.00069799,-0.0012732,-0.0018344,-0.0022611,-0.0024181,-0.0021802,-0.0014633,-0.0002545,0.001364,0.0032069,0.0049969,0.0064001,0.0070805,0.0067666,0.005318,0.0027766,-0.00061153,-0.0044117,-0.0080576,-0.010942,-0.012523,-0.012435,-0.010565,-0.0070956,-0.0024852,0.0025999,0.0073982,0.011185,0.013402,0.013748,0.012235,0.0091673,0.0050849,0.00065384,-0.0034533,-0.006672,-0.0086314,-0.0091973,-0.0084687,-0.0067329,-0.004393,-0.001884,0.00040356,0.0021815,0.0032935,0.0037168,0.00354,0.0029254,0.0020669,0.0011505,0.00032552,-0.00031091,-0.00071702,-0.00089866,-0.00089541,-0.0007645,-0.00056612,-0.0003525,-0.00016155,-1.5016e-05,7.9902e-05,0.00012694,0.00013635,0.00012087
-6.9189e-05,-1.9545e-05,6.731e-05,0.00019171,0.00034441,0.00050386,0.00063534,0.00069322,0.00062714,0.00039223,-3.7518e-05,-0.00065502,-0.0014082,-0.0021945,-0.0028653,-0.0032433,-0.0031515,-0.0024526,-0.0010903,0.00087504,0.0032476,0.0057016,0.0078166,0.0091418,0.009279,0.0079726,0.0051847,0.0011391,-0.003682,-0.0085941,-0.012814,-0.015594,-0.016365,-0.014856,-0.011162,-0.0057472,0.00061738,0.006986,0.0124,0.016055,0.017444,0.016433,0.01328,0.0085704,0.0030993,-0.0022754,-0.006784,-0.009867,-0.011248,-0.010948,-0.0092472,-0.006604,-0.0035522,-0.00060208,0.0018405,0.003523,0.0043597,0.0044136,0.0038552,0.0029117,0.0018166,0.00076969,-8.7613e-05,-0.00068113,-0.00099846,-0.0010742,-0.00097118,-0.00076145,-0.00051177,-0.00027384,-8.0442e-05,5.3967e-05,0.00012957,0.00015615,0.00014801
-0.00011269,-6.2117e-05,3.717e-05,0.00018932,0.0003871,0.00060767,0.00081033,0.00093794,0.0009233,0.0007011,0.0002246,-0.00051528,-0.0014724,-0.0025346,-0.0035244,-0.0042158,-0.0043682,-0.0037739,-0.0023127,-3.7148e-06,0.0029618,0.006215,0.0092427,0.011458,0.012304,0.011367,0.0084856,0.0038232,-0.0021138,-0.008525,-0.01443,-0.018832,-0.020899,-0.020131,-0.016475,-0.010356,-0.0026285,0.0055694,0.013006,0.018574,0.021483,0.021388,0.018439,0.013233,0.0066855,-0.00014041,-0.0062299,-0.010781,-0.013319,-0.013739,-0.012279,-0.0094352,-0.005843,-0.0021496,0.0010945,0.0035099,0.0049192,0.0053372,0.0049292,0.0039515,0.0026882,0.0013987,0.00027992,-0.00054993,-0.0010505,-0.0012448,-0.0011976,-0.00099233,-0.00071181,-0.00042429,-0.00017666,6.5411e-06,0.00011979,0.00017102,0.00017553
-0.00016983,-0.00012302,-1.4334e-05,0.00016598,0.00041462,0.00070907,0.0010034,0.001228,0.0012963,0.0011171,0.00061593,-0.00024107,-0.0014219,-0.0028106,-0.0042025,-0.0053183,-0.0058412,-0.0054735,-0.004007,-0.001393,0.0022038,0.0063849,0.010543,0.013938,0.015817,0.015561,0.012829,0.0076729,0.00058458,-0.007535,-0.015496,-0.022007,-0.025909,-0.026393,-0.023175,-0.016576,-0.0074901,0.0027538,0.012621,0.020639,0.025651,0.027015,0.024693,0.019239,0.011666,0.0032504,-0.0047102,-0.011113,-0.015219,-0.016734,-0.015805,-0.012938,-0.0088622,-0.0043748,-0.00019812,0.0031267,0.0052957,0.0062465,0.0061186,0.0051876,0.0037891,0.002249,0.00083224,-0.00028563,-0.0010243,-0.001386,-0.0014319,-0.0012549,-0.00095465,-0.00061839,-0.00031056,-6.9135e-05,9.1944e-05,0.00017687,0.00020091
-0.00024221,-0.00020588,-9.3248e-05,0.00011321,0.00041664,0.00079726,0.0012054,0.0015594,0.0017501,0.0016558,0.0011655,0.00021039,-0.0012028,-0.0029638,-0.0048456,-0.0065132,-0.0075623,-0.0075844,-0.0062541,-0.0034224,0.00080422,0.0060202,0.011532,0.016431,0.019737,0.020567,0.018338,0.01292,0.0047354,-0.0052479,-0.015629,-0.024789,-0.031168,-0.033556,-0.031339,-0.024641,-0.014334,-0.0019091,0.010776,0.021824,0.029623,0.033125,0.032011,0.026708,0.018284,0.0082182,-0.0018753,-0.010535,-0.016681,-0.019754,-0.019745,-0.017125,-0.012697,-0.0074137,-0.0021946,0.0022206,0.0053607,0.0070485,0.00737,0.0066038,0.0051322,0.0033532,0.0016116,0.00015475,-0.00088239,-0.0014694,-0.0016561,-0.0015407,-0.0012392,-0.00086012,-0.00048878,-0.00018034,3.9445e-05,0.00016855,0.00022067
-0.00033073,-0.00031394,-0.00020585,2.1377e-05,0.00038053,0.00085785,0.0014028,0.0019222,0.0022834,0.0023284,0.0019011,0.00088497,-0.00075257,-0.0029205,-0.0053785,-0.0077378,-0.0094975,-0.010117,-0.0091216,-0.0062217,-0.0014242,0.0048923,0.011966,0.018719,0.023906,0.026331,0.025085,0.019775,0.010674,-0.0012358,-0.014363,-0.026733,-0.036322,-0.041414,-0.040946,-0.034725,-0.02351,-0.0089014,0.0069238,0.021591,0.032941,0.039406,0.040253,0.035683,0.026741,0.015085,0.0026616,-0.0086539,-0.01736,-0.02254,-0.023947,-0.021952,-0.0174,-0.01139,-0.0050589,0.00061785,0.0049559,0.0076184,0.0086008,0.0081604,0.0067148,0.0047359,0.0026585,0.00081753,-0.00058104,-0.0014594,-0.001845,-0.0018352,-0.0015602,-0.0011509,-0.00071687,-0.00033441,-4.5019e-05,0.00013988,0.0002303
-0.00043529,-0.00044965,-0.00035815,-0.00011984,0.00029155,0.00087268,0.001576,0.0022998,0.0028872,0.0031395,0.002846,0.0018287,-2.0096e-06,-0.0025923,-0.0057036,-0.0089002,-0.01158,-0.01305,-0.012652,-0.0099087,-0.0046765,0.0027419,0.01155,0.020506,0.028083,0.032708,0.033065,0.028395,0.018723,0.0049611,-0.011151,-0.027281,-0.040876,-0.049613,-0.051839,-0.046902,-0.035317,-0.018708,0.00045792,0.019297,0.035016,0.045391,0.049138,0.046089,0.037166,0.024147,0.0093045,-0.0050226,-0.016829,-0.02474,-0.028168,-0.027303,-0.02297,-0.016398,-0.0089491,-0.0018689,0.0038965,0.0077983,0.0096951,0.0097882,0.0085122,0.0064079,0.0040077,0.0017494,-7.1714e-05,-0.0013132,-0.0019658,-0.0021171,-0.001907,-0.0014887,-0.00099845,-0.00053807,-0.0001691,8.3823e-05,0.0002242
-0.00055439,-0.00061412,-0.00055529,-0.00032082,0.00013344,0.00082005,0.0017001,0.0026675,0.0035429,0.0040837,0.0040156,0.0030838,0.001121,-0.0018792,-0.005701,-0.0098761,-0.013702,-0.016318,-0.016848,-0.014575,-0.0091409,-0.00071021,0.0099368,0.021423,0.031924,0.039443,0.042168,0.038857,0.029159,0.013806,-0.0053908,-0.025761,-0.044184,-0.057625,-0.063691,-0.061098,-0.049953,-0.031775,-0.0092542,0.014212,0.035118,0.050454,0.058217,0.057707,0.049576,0.035632,0.018444,0.00084023,-0.014592,-0.025911,-0.032069,-0.032966,-0.029333,-0.022484,-0.014002,-0.0054287,0.0019776,0.007399,0.010501,0.011384,0.010471,0.0083597,0.0056826,0.0029936,0.00069637,-0.00098173,-0.001978,-0.0023572,-0.0022622,-0.0018663,-0.0013341,-0.00079661,-0.00034022,-7.2259e-06,0.00019587
-0.00068477,-0.00080655,-0.00080073,-0.0005911,-0.00011072,0.00067534,0.0017442,0.002992,0.0042205,0.0051428,0.0054129,0.0046832,0.0026861,-0.00067331,-0.0052309,-0.010508,-0.015712,-0.019806,-0.021661,-0.020268,-0.01498,-0.0057451,0.0067447,0.021023,0.03498,0.046155,0.052151,0.051115,0.042172,0.025727,0.0035485,-0.021412,-0.045453,-0.064733,-0.075968,-0.077045,-0.067461,-0.048455,-0.022826,0.0055481,0.032396,0.053798,0.066852,0.070127,0.063831,0.049664,0.030421,0.0094212,-0.010099,-0.02552,-0.035201,-0.038625,-0.036323,-0.029625,-0.020311,-0.010237,-0.0010151,0.0062047,0.010831,0.012808,0.012505,0.010556,0.0076889,0.0045843,0.0017726,-0.0004125,-0.0018343,-0.0025187,-0.0026013,-0.0022708,-0.0017202,-0.0011129,-0.00056486,-0.00014096,0.00013804
-0.00082106,-0.0010236,-0.0010954,-0.00093825,-0.00045735,0.00041212,0.0016723,0.0032306,0.0048774,0.0062827,0.0070237,0.0066452,0.0047539,0.0011337,-0.0041391,-0.010608,-0.017412,-0.023336,-0.026975,-0.02697,-0.022308,-0.012623,0.0015742,0.018802,0.036699,0.052321,0.062608,0.064963,0.057816,0.041065,0.016278,-0.013415,-0.043753,-0.070027,-0.087906,-0.09424,-0.087673,-0.068944,-0.040793,-0.0074912,0.025909,0.054468,0.074202,0.08273,0.079593,0.066206,0.045473,0.021172,-0.0027734,-0.02296,-0.037013,-0.043848,-0.04366,-0.037704,-0.027906,-0.016434,-0.0052903,0.0039833,0.010467,0.013881,0.014489,0.012928,0.010008,0.0065413,0.0032003,0.0004479,-0.0014821,-0.0025573,-0.0028919,-0.0026822,-0.0021478,-0.0014863,-0.00084765,-0.00032456,4.3146e-05
-0.00095557,-0.001259,-0.0014367,-0.0013666,-0.00092072,3.766e-06,0.0014447,0.0033329,0.0054571,0.0074511,0.0088128,0.0089662,0.0073674,0.0036423,-0.0022645,-0.0099633,-0.018556,-0.026666,-0.032594,-0.034581,-0.031163,-0.021553,-0.005962,0.014216,0.036436,0.057277,0.072957,0.080003,0.075964,0.06002,0.033334,-0.00094194,-0.038061,-0.072415,-0.098499,-0.1119,-0.11016,-0.093218,-0.06354,-0.025644,0.014675,0.051378,0.07923,0.094661,0.096292,0.085019,0.063691,0.036458,0.0079442,-0.017579,-0.036861,-0.04808,-0.050942,-0.046493,-0.03673,-0.024105,-0.011031,0.0004994,0.0091658,0.014388,0.016259,0.01537,0.012592,0.0088629,0.0050109,0.0016492,-0.00086646,-0.0024224,-0.0030937,-0.0030731,-0.0026016,-0.0019116,-0.0011904,-0.00056386,-9.6233e-05
-0.0010782,-0.0015028,-0.0018179,-0.0018759,-0.0015112,-0.00057437,0.0010203,0.0032412,0.0058906,0.0085762,0.01072,0.011615,0.010543,0.006934,0.00054886,-0.0083438,-0.018859,-0.029487,-0.038234,-0.042899,-0.041485,-0.032662,-0.016204,0.006719,0.03348,0.06023,0.082429,0.095613,0.096259,0.082587,0.055106,0.016776,-0.027306,-0.07066,-0.10651,-0.12897,-0.13416,-0.12096,-0.091225,-0.049515,-0.0022643,0.043362,0.080726,0.10483,0.11309,0.10561,0.084955,0.055505,0.022548,-0.0087177,-0.034031,-0.05066,-0.057633,-0.055633,-0.046613,-0.03325,-0.018374,-0.0044662,0.0066746,0.014086,0.01761,0.017736,0.015356,0.01152,0.0072178,0.0032323,6.6178e-05,-0.0020598,-0.0031599,-0.0034084,-0.0030594,-0.0023778,-0.001591,-0.00086252,-0.00028665
-0.0011763,-0.0017414,-0.002227,-0.0024598,-0.002233,-0.0013424,0.00035888,0.0028941,0.0060973,0.0095665,0.012656,0.014526,0.014263,0.011059,0.0044381,-0.0055195,-0.018006,-0.031431,-0.04352,-0.051608,-0.053085,-0.045957,-0.029402,-0.0041987,0.027091,0.060278,0.090074,0.11093,0.11807,0.1085,0.081765,0.040369,-0.01045,-0.063432,-0.11048,-0.14406,-0.15859,-0.15149,-0.12369,-0.079481,-0.025752,0.029243,0.077356,0.11194,0.1289,0.12721,0.10889,0.078335,0.041404,0.0042385,-0.027781,-0.050835,-0.063075,-0.064628,-0.057253,-0.043765,-0.027378,-0.011094,0.0027464,0.012711,0.018305,0.019838,0.018174,0.014449,0.0098097,0.005223,0.0013633,-0.0014145,-0.0030387,-0.0036458,-0.0034913,-0.0028678,-0.0020426,-0.001221,-0.00053301
-0.0012356,-0.0019575,-0.0026464,-0.0031049,-0.0030825,-0.0023129,-0.00057457,0.0022297,0.0059886,0.010313,0.014505,0.017597,0.018463,0.016024,0.0095049,-0.0012762,-0.015672,-0.032079,-0.04799,-0.060266,-0.065628,-0.061293,-0.045672,-0.018955,0.01655,0.056457,0.094788,0.12487,0.14049,0.13716,0.11319,0.070239,0.013424,-0.049393,-0.10882,-0.15554,-0.18199,-0.18375,-0.16041,-0.1156,-0.056418,0.0079239,0.06773,0.1145,0.14234,0.14874,0.1348,0.1047,0.064687,0.021798,-0.017387,-0.047798,-0.066498,-0.07284,-0.068205,-0.055416,-0.038006,-0.019501,-0.0028371,0.0099987,0.018081,0.021453,0.020882,0.017549,0.012745,0.0076262,0.0030607,-0.00043503,-0.0026759,-0.0037375,-0.0038608,-0.0033572,-0.0025323,-0.0016357,-0.00083773
-0.0012401,-0.0021306,-0.0030529,-0.0037895,-0.0040461,-0.003488,-0.0018063,0.0011908,0.0054727,0.010691,0.016123,0.020682,0.023028,0.021777,0.015798,0.004562,-0.01154,-0.030986,-0.051105,-0.068313,-0.078617,-0.07834,-0.064947,-0.037819,0.001224,0.047798,0.095358,0.1361,0.16227,0.16764,0.14888,0.10646,0.045004,-0.0273,-0.099877,-0.16156,-0.20256,-0.21624,-0.20037,-0.15752,-0.094575,-0.021501,0.050498,0.11094,0.15182,0.16881,0.16169,0.13406,0.092313,0.044292,-0.0022095,-0.040737,-0.067054,-0.079509,-0.078878,-0.067822,-0.050095,-0.029714,-0.010242,0.0057027,0.016666,0.022326,0.023273,0.020677,0.015945,0.010419,0.0051765,0.00092119,-0.0020189,-0.0036321,-0.0041248,-0.0038151,-0.0030414,-0.002098,-0.0011998
-0.0011733,-0.0022372,-0.0034181,-0.0044838,-0.0050986,-0.0048565,-0.0033492,-0.0002698,0.0044612,0.010571,0.017343,0.023599,0.027789,0.028201,0.023296,0.01211,-0.005332,-0.027706,-0.052278,-0.075077,-0.091394,-0.096565,-0.086941,-0.060852,-0.019364,0.033404,0.090528,0.14315,0.18191,0.1986,0.18792,0.14871,0.084639,0.0038763,-0.082048,-0.16014,-0.21821,-0.24705,-0.24212,-0.20439,-0.14011,-0.05963,0.024469,0.099667,0.15562,0.18578,0.18821,0.16549,0.12388,0.071806,0.018238,-0.028894,-0.063866,-0.083771,-0.088538,-0.080452,-0.063339,-0.041642,-0.019553,-0.00038269,0.013793,0.022185,0.025109,0.023652,0.019293,0.013547,0.0077052,0.0026827,-0.0010209,-0.003278,-0.0042363,-0.0042042,-0.0035445,-0.0025938,-0.0016142
-0.0010195,-0.0022527,-0.0037088,-0.0051493,-0.0062028,-0.0063913,-0.0051986,-0.002183,0.002876,0.0098202,0.017983,0.026129,0.032518,0.035104,0.03189,0.021396,0.0031626,-0.021824,-0.0509,-0.079805,-0.10315,-0.11522,-0.11111,-0.087855,-0.04546,0.012531,0.079083,0.14446,0.19766,0.22837,0.22894,0.19616,0.13223,0.044818,-0.053917,-0.14931,-0.22666,-0.27389,-0.28369,-0.25483,-0.19237,-0.10663,-0.011265,0.079202,0.15192,0.19778,0.21267,0.19773,0.15862,0.10411,0.044211,-0.011642,-0.056082,-0.08471,-0.096336,-0.092622,-0.077279,-0.055058,-0.030751,-0.0083952,0.0092284,0.020757,0.026126,0.026256,0.022634,0.016918,0.010612,0.004858,0.00035368,-0.002627,-0.0041464,-0.0044826,-0.0040102,-0.0031031,-0.0020708
-0.00076481,-0.0021526,-0.0038892,-0.0057407,-0.007309,-0.0080481,-0.0073287,-0.0045572,0.00065845,0.0083181,0.017855,0.028027,0.036939,0.042215,0.041375,0.032344,0.014053,-0.013,-0.046386,-0.081697,-0.11294,-0.13335,-0.13664,-0.11832,-0.077007,-0.015315,0.059956,0.13843,0.2076,0.25491,0.27012,0.24746,0.18712,0.095729,-0.014411,-0.12722,-0.22555,-0.2942,-0.32265,-0.30689,-0.25014,-0.16212,-0.057187,0.048325,0.13899,0.20284,0.23316,0.22913,0.19537,0.14061,0.075666,0.011441,-0.042951,-0.081405,-0.10134,-0.10352,-0.091299,-0.069584,-0.043688,-0.018379,0.0027922,0.017788,0.026056,0.028243,0.025774,0.020403,0.01383,0.0074306,0.0021245,-0.0016391,-0.0038078,-0.0046056,-0.0044023,-0.0036005,-0.0025547
-0.0003987,-0.0019141,-0.0039223,-0.006207,-0.0083562,-0.0097646,-0.0096898,-0.0073733,-0.0022225,0.0059649,0.016779,0.029034,0.040729,0.049192,0.051443,0.04475,0.02732,-0.0010061,-0.038222,-0.079956,-0.11974,-0.14983,-0.16245,-0.15139,-0.11358,-0.050288,0.032337,0.12363,0.20977,0.27599,0.30921,0.3007,0.24805,0.15621,0.037052,-0.092367,-0.21261,-0.30527,-0.3562,-0.35807,-0.31156,-0.22511,-0.11323,0.0062117,0.11528,0.19898,0.24757,0.25776,0.2326,0.18029,0.11219,0.040498,-0.023898,-0.073006,-0.10259,-0.11223,-0.10464,-0.084684,-0.05807,-0.03026,-0.0056145,0.013068,0.024635,0.029352,0.02849,0.023837,0.017256,0.010355,0.0042899,-0.00028686,-0.0031786,-0.0045284,-0.0046811,-0.0040553,-0.0030457
8.4353e-05,-0.0015188,-0.0037728,-0.0064947,-0.0092748,-0.011462,-0.012207,-0.01058,-0.0057624,0.0026941,0.014599,0.028893,0.043541,0.055627,0.061683,0.058278,0.042788,0.014231,-0.02602,-0.07385,-0.12252,-0.16338,-0.1872,-0.18589,-0.15436,-0.092122,-0.0042147,0.098852,0.20228,0.28921,0.34363,0.35345,0.31312,0.22519,0.10041,-0.043727,-0.18586,-0.30439,-0.38132,-0.40542,-0.37413,-0.29388,-0.17868,-0.04742,0.079644,0.18439,0.25374,0.28143,0.26839,0.22175,0.15297,0.075316,0.0013949,-0.05881,-0.099176,-0.11778,-0.11643,-0.099674,-0.073449,-0.043829,-0.015986,0.0064537,0.021634,0.029326,0.03054,0.027022,0.020753,0.013552,0.0068226,0.0014395,-0.0022268,-0.0042097,-0.0048057,-0.0044335,-0.0035188
0.00068368,-0.00095419,-0.0034102,-0.006551,-0.0099892,-0.013047,-0.014781,-0.01409,-0.0099142,-0.0015164,0.011195,0.027368,0.045023,0.061068,0.071593,0.072452,0.060107,0.032596,-0.009567,-0.06278,-0.12027,-0.17269,-0.20939,-0.2203,-0.19808,-0.14007,-0.049666,0.063298,0.18349,0.29223,0.37058,0.40283,0.37976,0.30082,0.17485,0.019057,-0.14377,-0.28909,-0.39489,-0.44562,-0.43481,-0.36606,-0.25208,-0.11218,0.031421,0.15756,0.24961,0.29787,0.30056,0.26318,0.19677,0.11529,0.032917,-0.038337,-0.09028,-0.11921,-0.12572,-0.11374,-0.089227,-0.058729,-0.028193,-0.0021077,0.016877,0.027924,0.031675,0.029738,0.024151,0.016914,0.0096673,0.0035282,-0.00093426,-0.0036153,-0.0047372,-0.0046989,-0.0039455
0.0013913,-0.00021621,-0.0028111,-0.0063277,-0.010423,-0.014416,-0.017291,-0.017784,-0.014585,-0.0066344,0.006502,0.024267,0.044835,0.065041,0.080599,0.086672,0.078753,0.053758,0.011124,-0.046341,-0.11213,-0.17643,-0.22735,-0.25284,-0.24308,-0.19286,-0.10343,0.016682,0.15216,0.2829,0.38721,0.44565,0.44487,0.38052,0.25873,0.095531,-0.08552,-0.25733,-0.39397,-0.47523,-0.49013,-0.4386,-0.33122,-0.18694,-0.029376,0.11748,0.23336,0.30481,0.32675,0.30245,0.24191,0.15936,0.07027,-0.011409,-0.075291,-0.11566,-0.13155,-0.12599,-0.10467,-0.074457,-0.041967,-0.012558,0.010264,0.02495,0.031658,0.031756,0.027257,0.020298,0.012739,0.0059432,0.0006994,-0.0027218,-0.0044411,-0.0048158,-0.0042948
0.0021912,0.00068943,-0.0019632,-0.0057855,-0.010503,-0.015462,-0.019599,-0.02151,-0.019633,-0.012567,0.0005236,0.019462,0.042688,0.067081,0.088087,0.10023,0.098029,0.077161,0.03578,-0.024389,-0.097437,-0.17342,-0.23944,-0.28154,-0.28733,-0.24873,-0.1643,-0.040653,0.10758,0.25945,0.39083,0.47858,0.5049,0.46104,0.34952,0.18433,-0.011099,-0.20773,-0.37598,-0.49085,-0.53632,-0.50792,-0.41316,-0.26973,-0.10196,0.063767,0.20364,0.30018,0.34458,0.33719,0.28639,0.20607,0.11263,0.021787,-0.05386,-0.10639,-0.133,-0.13547,-0.11895,-0.090373,-0.056901,-0.024713,0.0017916,0.02027,0.030282,0.032847,0.029863,0.023539,0.015925,0.0086219,0.0026538,-0.0015199,-0.0038913,-0.0047516,-0.0045351
0.0030593,0.0017459,-0.0008667,-0.0048981,-0.010168,-0.016079,-0.021559,-0.025088,-0.024874,-0.019157,-0.0066594,0.012905,0.038361,0.066768,0.093437,0.11236,0.11709,0.10202,0.063844,0.0029097,-0.075834,-0.16269,-0.24407,-0.30434,-0.32853,-0.30543,-0.23046,-0.10766,0.049755,0.22069,0.3791,0.49836,0.55607,0.53855,0.44392,0.28312,0.078504,-0.13978,-0.33897,-0.48938,-0.56962,-0.5701,-0.49433,-0.35782,-0.18472,-0.003197,0.15966,0.2823,0.35177,0.36496,0.32789,0.25356,0.15874,0.060657,-0.025975,-0.090911,-0.12926,-0.14126,-0.13117,-0.10572,-0.072452,-0.038259,-0.0084304,0.01383,0.027389,0.032803,0.031758,0.026454,0.019086,0.011476,0.0048858,-1.7662e-05,-0.0030728,-0.0044794,-0.0046365
0.003964,0.0029251,0.00046285,-0.0036564,-0.0093697,-0.016173,-0.023022,-0.028325,-0.030082,-0.026185,-0.014882,0.0046502,0.031734,0.063761,0.096066,0.12224,0.13498,0.12736,0.094476,0.035044,-0.047317,-0.14359,-0.23991,-0.31926,-0.36422,-0.36034,-0.29952,-0.18257,-0.020519,0.16618,0.35028,0.50204,0.59455,0.60884,0.5379,0.38865,0.18126,-0.053992,-0.28186,-0.46832,-0.58645,-0.62102,-0.5707,-0.44776,-0.2752,-0.082179,0.10141,0.25003,0.34637,0.38334,0.36397,0.29964,0.20695,0.10418,0.0079933,-0.069034,-0.11974,-0.14252,-0.14042,-0.11968,-0.08796,-0.052749,-0.020173,0.0056764,0.022889,0.031456,0.032741,0.028852,0.022067,0.014395,0.0073296,0.0017577,-0.0019845,-0.0039809,-0.0045732
0.0048674,0.0041876,0.0019943,-0.0020706,-0.0080837,-0.015667,-0.023851,-0.031019,-0.035006,-0.033378,-0.023896,-0.0051444,0.022806,0.057832,0.095475,0.12911,0.1507,0.15204,0.12657,0.07115,-0.012293,-0.11587,-0.22593,-0.32449,-0.39195,-0.41062,-0.36858,-0.26291,-0.10161,0.096364,0.30337,0.48723,0.61677,0.66757,0.62694,0.49682,0.29408,0.048016,-0.20461,-0.42597,-0.58376,-0.65674,-0.63797,-0.53551,-0.37014,-0.17107,0.029677,0.20292,0.32691,0.39017,0.39217,0.34194,0.25524,0.15092,0.047265,-0.040921,-0.1041,-0.13857,-0.14586,-0.13139,-0.10268,-0.067625,-0.033087,-0.0040394,0.016775,0.02869,0.032642,0.03055,0.0247,0.017248,0.0098981,0.0037592,-0.00064103,-0.0032487,-0.0043256
0.0057267,0.0054847,0.0036807,-0.00017266,-0.0063096,-0.014512,-0.023929,-0.032976,-0.03938,-0.040417,-0.033376,-0.01621,0.011712,0.048899,0.091294,0.13227,0.16322,0.17482,0.15881,0.11003,0.0284,-0.079777,-0.20159,-0.31861,-0.40943,-0.45333,-0.43442,-0.34557,-0.19106,0.012606,0.23835,0.45235,0.61967,0.71057,0.70625,0.60287,0.41292,0.16346,-0.10834,-0.36168,-0.55926,-0.67368,-0.69186,-0.61669,-0.46565,-0.26694,-0.053829,0.14135,0.29255,0.38371,0.41018,0.37799,0.30137,0.1991,0.090654,-0.0071187,-0.082307,-0.12894,-0.14676,-0.14003,-0.11583,-0.082237,-0.046712,-0.015055,0.0091359,0.02446,0.03133,0.03138,0.02682,0.019894,0.012486,0.0059211,0.00092612,-0.0022883,-0.0038823
0.0064975,0.00676,0.0054612,0.0019842,-0.0040756,-0.012688,-0.023168,-0.034025,-0.04294,-0.046962,-0.042936,-0.028174,-0.0012751,0.037043,0.083321,0.13116,0.17163,0.19444,0.1897,0.15018,0.073504,-0.036046,-0.16685,-0.30064,-0.41473,-0.48565,-0.49362,-0.42698,-0.28565,-0.082751,0.15622,0.39678,0.601,0.73411,0.77108,0.70168,0.53295,0.28848,0.0045916,-0.27601,-0.51167,-0.669,-0.7284,-0.68681,-0.55737,-0.3661,-0.14655,0.066565,0.24325,0.36279,0.41604,0.40544,0.34296,0.24663,0.13661,0.031437,-0.054694,-0.11346,-0.14257,-0.14485,-0.12663,-0.09588,-0.060494,-0.027003,0.00015548,0.018799,0.028733,0.031207,0.028271,0.022187,0.014976,0.0081609,0.0026691,-0.0011188,-0.0032425
0.0071357,0.0079531,0.0072634,0.0043263,-0.001439,-0.010214,-0.021523,-0.034028,-0.045444,-0.052663,-0.052144,-0.040576,-0.015744,0.022521,0.071548,0.12541,0.17513,0.20968,0.21772,0.18989,0.12139,0.014063,-0.12231,-0.27024,-0.40641,-0.50509,-0.54283,-0.5033,-0.38154,-0.18647,0.059068,0.32106,0.55949,0.7352,0.81705,0.78801,0.64878,0.41829,0.13063,-0.17079,-0.44091,-0.6408,-0.74422,-0.7416,-0.64073,-0.46435,-0.24513,-0.01929,0.17981,0.32696,0.40831,0.4222,0.37765,0.29128,0.18327,0.073444,-0.021959,-0.092268,-0.133,-0.14526,-0.13435,-0.10783,-0.073819,-0.039428,-0.0098857,0.011827,0.024844,0.029943,0.028923,0.023987,0.017245,0.010384,0.0045253,0.00022649,-0.002416
0.0076012,0.0090028,0.0090075,0.0067634,0.0015147,-0.0071467,-0.018993,-0.032898,-0.046688,-0.05719,-0.060555,-0.052892,-0.031166,0.0057662,0.056189,0.11489,0.17315,0.21949,0.24133,0.22733,0.17011,0.068819,-0.069139,-0.22773,-0.38368,-0.50968,-0.57897,-0.57063,-0.4745,-0.29457,-0.049968,0.2269,0.49509,0.71189,0.84047,0.85687,0.75481,0.54741,0.26519,-0.049142,-0.34823,-0.58835,-0.73685,-0.77725,-0.71124,-0.55715,-0.3456,-0.11327,0.10389,0.27656,0.38618,0.42659,0.4033,0.33077,0.22858,0.11729,0.014852,-0.065834,-0.11801,-0.14088,-0.13837,-0.11741,-0.086044,-0.051807,-0.020623,0.0037496,0.01973,0.027552,0.028676,0.025171,0.01917,0.012487,0.0064201,0.0017016,-0.0014247
0.0078604,0.0098515,0.010611,0.0091927,0.0046759,-0.003581,-0.015626,-0.030602,-0.046526,-0.060254,-0.06773,-0.064561,-0.046916,-0.012632,0.037671,0.099735,0.16538,0.22303,0.25917,0.26064,0.21754,0.1261,-0.0091026,-0.17413,-0.34653,-0.49813,-0.59945,-0.62529,-0.56014,-0.4025,-0.16686,0.1172,0.40902,0.66345,0.83865,0.90391,0.84556,0.66998,0.40283,0.084678,-0.23619,-0.51225,-0.70491,-0.79078,-0.76479,-0.63992,-0.44359,-0.21174,0.017996,0.2128,0.34959,0.41752,0.41808,0.36296,0.27042,0.16114,0.054379,-0.034966,-0.097895,-0.13154,-0.13825,-0.12401,-0.096538,-0.06358,-0.031623,-0.0051517,0.013531,0.024058,0.027477,0.025641,0.02064,0.014368,0.0082712,0.0032497,-0.00030091
0.0078893,0.010449,0.011993,0.011505,0.0079163,0.00035453,-0.011521,-0.02717,-0.044877,-0.06163,-0.073276,-0.075025,-0.062313,-0.031953,0.016627,0.080327,0.15181,0.21976,0.27007,0.28809,0.2615,0.1835,0.055539,-0.11116,-0.29573,-0.46996,-0.60242,-0.66407,-0.6342,-0.50543,-0.28687,-0.0041121,0.30381,0.59051,0.81013,0.92569,0.91604,0.78014,0.53761,0.22544,-0.10861,-0.41445,-0.64835,-0.78022,-0.79796,-0.70838,-0.53457,-0.31058,-0.074641,0.13772,0.29929,0.39456,0.42068,0.38597,0.30669,0.20304,0.095026,-0.00077108,-0.07323,-0.11736,-0.13375,-0.12716,-0.10473,-0.074186,-0.042413,-0.01453,0.0064579,0.019551,0.025321,0.025333,0.021562,0.015929,0.0099933,0.0048061,0.00091319
0.007675,0.010757,0.013082,0.013594,0.011096,0.0045039,-0.0068254,-0.0227,-0.041742,-0.061173,-0.076866,-0.083759,-0.076656,-0.051387,-0.0061341,0.057318,0.13276,0.20948,0.27322,0.30817,0.29985,0.2385,0.12215,-0.041143,-0.23286,-0.4256,-0.58686,-0.68447,-0.69281,-0.59858,-0.40484,-0.13222,0.18316,0.49508,0.75485,0.92001,0.96213,0.87239,0.66341,0.36725,0.029622,-0.2982,-0.56844,-0.74486,-0.80828,-0.75878,-0.61416,-0.40544,-0.17026,0.054083,0.23684,0.35806,0.41038,0.39831,0.33553,0.24104,0.13505,0.035402,-0.044883,-0.098729,-0.12483,-0.12654,-0.11014,-0.083097,-0.052503,-0.023993,-0.00122,0.01418,0.022257,0.024221,0.021868,0.017086,0.011504,0.0063024,0.0021683
0.0072179,0.01075,0.01382,0.015356,0.014074,0.0086926,-0.0017217,-0.017349,-0.037203,-0.058833,-0.078268,-0.090313,-0.089275,-0.070083,-0.029677,0.031585,0.10885,0.19239,0.26819,0.31972,0.33071,0.28857,0.18788,0.033105,-0.16022,-0.3664,-0.55278,-0.68489,-0.73281,-0.67745,-0.51549,-0.26175,0.051803,0.38051,0.67423,0.88606,0.98089,0.942,0.77436,0.5039,0.17284,-0.16793,-0.46783,-0.68531,-0.79441,-0.7882,-0.67844,-0.49198,-0.26475,-0.034764,0.16451,0.3091,0.38715,0.39906,0.35537,0.27331,0.17266,0.072035,-0.013964,-0.0763,-0.11174,-0.12204,-0.11242,-0.089855,-0.061424,-0.033129,-0.0091874,0.0081487,0.018385,0.022324,0.02152,0.017771,0.012728,0.0076704,0.0034108
0.0065314,0.01042,0.014163,0.016708,0.016713,0.012739,0.0035774,-0.011326,-0.031419,-0.054662,-0.07736,-0.094343,-0.099571,-0.087202,-0.052993,0.004179,0.081003,0.16904,0.25496,0.322,0.35251,0.33139,0.24982,0.10845,-0.080722,-0.29453,-0.50115,-0.66478,-0.75196,-0.73822,-0.6138,-0.38708,-0.084811,0.25131,0.57111,0.82457,0.97074,0.9853,0.8652,0.62929,0.3149,-0.028945,-0.35034,-0.60352,-0.75633,-0.79481,-0.72417,-0.5662,-0.35397,-0.12507,0.085212,0.24948,0.35164,0.38785,0.36511,0.29829,0.20615,0.10754,0.018246,-0.050949,-0.094927,-0.11375,-0.1114,-0.094109,-0.068753,-0.041527,-0.017104,0.001703,0.013852,0.019704,0.020518,0.017942,0.013605,0.0088468,0.004586
0.0056416,0.0097773,0.014091,0.017583,0.018893,0.016463,0.0088446,-0.0048834,-0.024623,-0.048812,-0.074147,-0.095631,-0.10706,-0.10198,-0.075063,-0.023734,0.050365,0.14035,0.234,0.31477,0.36416,0.36498,0.30522,0.18164,0.0022786,-0.21293,-0.43393,-0.62467,-0.74907,-0.77795,-0.69528,-0.50269,-0.22082,0.11284,0.44961,0.73777,0.93166,1,0.93166,0.73777,0.44961,0.11284,-0.22082,-0.50269,-0.69528,-0.77795,-0.74907,-0.62467,-0.43393,-0.21293,0.0022786,0.18164,0.30522,0.36498,0.36416,0.31477,0.234,0.14035,0.050365,-0.023734,-0.075063,-0.10198,-0.10706,-0.095631,-0.074147,-0.048812,-0.024623,-0.0048834,0.0088446,0.016463,0.018893,0.017583,0.014091,0.0097773,0.0056416
0.004586,0.0088468,0.013605,0.017942,0.020518,0.019704,0.013852,0.001703,-0.017104,-0.041527,-0.068753,-0.094109,-0.1114,-0.11375,-0.094927,-0.050949,0.018246,0.10754,0.20615,0.29829,0.36511,0.38785,0.35164,0.24948,0.085212,-0.12507,-0.35397,-0.5662,-0.72417,-0.79481,-0.75633,-0.60352,-0.35034,-0.028945,0.3149,0.62929,0.8652,0.9853,0.97074,0.82457,0.57111,0.25131,-0.084811,-0.38708,-0.6138,-0.73822,-0.75196,-0.66478,-0.50115,-0.29453,-0.080722,0.10845,0.24982,0.33139,0.35251,0.322,0.25496,0.16904,0.081003,0.004179,-0.052993,-0.087202,-0.099571,-0.094343,-0.07736,-0.054662,-0.031419,-0.011326,0.0035774,0.012739,0.016713,0.016708,0.014163,0.01042,0.0065314
0.0034108,0.0076704,0.012728,0.017771,0.02152,0.022324,0.018385,0.0081487,-0.0091874,-0.033129,-0.061424,-0.089855,-0.11242,-0.12204,-0.11174,-0.0763,-0.013964,0.072035,0.17266,0.27331,0.35537,0.39906,0.38715,0.3091,0.16451,-0.034764,-0.26475,-0.49198,-0.67844,-0.7882,-0.79441,-0.68531,-0.46783,-0.16793,0.17284,0.5039,0.77436,0.942,0.98089,0.88606,0.67423,0.38051,0.051803,-0.26175,-0.51549,-0.67745,-0.73281,-0.68489,-0.55278,-0.3664,-0.16022,0.033105,0.18788,0.28857,0.33071,0.31972,0.26819,0.19239,0.10885,0.031585,-0.029677,-0.070083,-0.089275,-0.090313,-0.078268,-0.058833,-0.037203,-0.017349,-0.0017217,0.0086926,0.014074,0.015356,0.01382,0.01075,0.0072179
0.0021683,0.0063024,0.011504,0.017086,0.021868,0.024221,0.022257,0.01418,-0.00122,-0.023993,-0.052503,-0.083097,-0.11014,-0.12654,-0.12483,-0.098729,-0.044883,0.035402,0.13505,0.24104,0.33553,0.39831,0.41038,0.35806,0.23684,0.054083,-0.17026,-0.40544,-0.61416,-0.75878,-0.80828,-0.74486,-0.56844,-0.2982,0.029622,0.36725,0.66341,0.87239,0.96213,0.92001,0.75485,0.49508,0.18316,-0.13222,-0.40484,-0.59858,-0.69281,-0.68447,-0.58686,-0.4256,-0.23286,-0.041143,0.12215,0.2385,0.29985,0.30817,0.27322,0.20948,0.13276,0.057318,-0.0061341,-0.051387,-0.076656,-0.083759,-0.076866,-0.061173,-0.041742,-0.0227,-0.0068254,0.0045039,0.011096,0.013594,0.013082,0.010757,0.007675
0.00091319,0.0048061,0.0099933,0.015929,0.021562,0.025333,0.025321,0.019551,0.0064579,-0.01453,-0.042413,-0.074186,-0.10473,-0.12716,-0.13375,-0.11736,-0.07323,-0.00077108,0.095026,0.20304,0.30669,0.38597,0.42068,0.39456,0.29929,0.13772,-0.074641,-0.31058,-0.53457,-0.70838,-0.79796,-0.78022,-0.64835,-0.41445,-0.10861,0.22544,0.53761,0.78014,0.91604,0.92569,0.81013,0.59051,0.30381,-0.0041121,-0.28687,-0.50543,-0.6342,-0.66407,-0.60242,-0.46996,-0.29573,-0.11116,0.055539,0.1835,0.2615,0.28809,0.27007,0.21976,0.15181,0.080327,0.016627,-0.031953,-0.062313,-0.075025,-0.073276,-0.06163,-0.044877,-0.02717,-0.011521,0.00035453,0.0079163,0.011505,0.011993,0.010449,0.0078893
-0.00030091,0.0032497,0.0082712,0.014368,0.02064,0.025641,0.027477,0.024058,0.013531,-0.0051517,-0.031623,-0.06358,-0.096538,-0.12401,-0.13825,-0.13154,-0.097895,-0.034966,0.054379,0.16114,0.27042,0.36296,0.41808,0.41752,0.34959,0.2128,0.017996,-0.21174,-0.44359,-0.63992,-0.76479,-0.79078,-0.70491,-0.51225,-0.23619,0.084678,0.40283,0.66998,0.84556,0.90391,0.83865,0.66345,0.40902,0.1172,-0.16686,-0.4025,-0.56014,-0.62529,-0.59945,-0.49813,-0.34653,-0.17413,-0.0091026,0.1261,0.21754,0.26064,0.25917,0.22303,0.16538,0.099735,0.037671,-0.012632,-0.046916,-0.064561,-0.06773,-0.060254,-0.046526,-0.030602,-0.015626,-0.003581,0.0046759,0.0091927,0.010611,0.0098515,0.0078604
-0.0014247,0.0017016,0.0064201,0.012487,0.01917,0.025171,0.028676,0.027552,0.01973,0.0037496,-0.020623,-0.051807,-0.086044,-0.11741,-0.13837,-0.14088,-0.11801,-0.065834,0.014852,0.11729,0.22858,0.33077,0.4033,0.42659,0.38618,0.27656,0.10389,-0.11327,-0.3456,-0.55715,-0.71124,-0.77725,-0.73685,-0.58835,-0.34823,-0.049142,0.26519,0.54741,0.75481,0.85687,0.84047,0.71189,0.49509,0.2269,-0.049968,-0.29457,-0.4745,-0.57063,-0.57897,-0.50968,-0.38368,-0.22773,-0.069139,0.068819,0.17011,0.22733,0.24133,0.21949,0.17315,0.11489,0.056189,0.0057662,-0.031166,-0.052892,-0.060555,-0.05719,-0.046688,-0.032898,-0.018993,-0.0071467,0.0015147,0.0067634,0.0090075,0.0090028,0.0076012
-0.002416,0.00022649,0.0045253,0.010384,0.017245,0.023987,0.028923,0.029943,0.024844,0.011827,-0.0098857,-0.039428,-0.073819,-0.10783,-0.13435,-0.14526,-0.133,-0.092268,-0.021959,0.073444,0.18327,0.29128,0.37765,0.4222,0.40831,0.32696,0.17981,-0.01929,-0.24513,-0.46435,-0.64073,-0.7416,-0.74422,-0.6408,-0.44091,-0.17079,0.13063,0.41829,0.64878,0.78801,0.81705,0.7352,0.55949,0.32106,0.059068,-0.18647,-0.38154,-0.5033,-0.54283,-0.50509,-0.40641,-0.27024,-0.12231,0.014063,0.12139,0.18989,0.21772,0.20968,0.17513,0.12541,0.071548,0.022521,-0.015744,-0.040576,-0.052144,-0.052663,-0.045444,-0.034028,-0.021523,-0.010214,-0.001439,0.0043263,0.0072634,0.0079531,0.0071357
-0.0032425,-0.0011188,0.0026691,0.0081609,0.014976,0.022187,0.028271,0.031207,0.028733,0.018799,0.00015548,-0.027003,-0.060494,-0.09588,-0.12663,-0.14485,-0.14257,-0.11346,-0.054694,0.031437,0.13661,0.24663,0.34296,0.40544,0.41604,0.36279,0.24325,0.066565,-0.14655,-0.3661,-0.55737,-0.68681,-0.7284,-0.669,-0.51167,-0.27601,0.0045916,0.28848,0.53295,0.70168,0.77108,0.73411,0.601,0.39678,0.15622,-0.082751,-0.28565,-0.42698,-0.49362,-0.48565,-0.41473,-0.30064,-0.16685,-0.036046,0.073504,0.15018,0.1897,0.19444,0.17163,0.13116,0.083321,0.037043,-0.0012751,-0.028174,-0.042936,-0.046962,-0.04294,-0.034025,-0.023168,-0.012688,-0.0040756,0.0019842,0.0054612,0.00676,0.0064975
-0.0038823,-0.0022883,0.00092612,0.0059211,0.012486,0.019894,0.02682,0.03138,0.03133,0.02446,0.0091359,-0.015055,-0.046712,-0.082237,-0.11583,-0.14003,-0.14676,-0.12894,-0.082307,-0.0071187,0.090654,0.1991,0.30137,0.37799,0.41018,0.38371,0.29255,0.14135,-0.053829,-0.26694,-0.46565,-0.61669,-0.69186,-0.67368,-0.55926,-0.36168,-0.10834,0.16346,0.41292,0.60287,0.70625,0.71057,0.61967,0.45235,0.23835,0.012606,-0.19106,-0.34557,-0.43442,-0.45333,-0.40943,-0.31861,-0.20159,-0.079777,0.0284,0.11003,0.15881,0.17482,0.16322,0.13227,0.091294,0.048899,0.011712,-0.01621,-0.033376,-0.040417,-0.03938,-0.032976,-0.023929,-0.014512,-0.0063096,-0.00017266,0.0036807,0.0054847,0.0057267
-0.0043256,-0.0032487,-0.00064103,0.0037592,0.0098981,0.017248,0.0247,0.03055,0.032642,0.02869,0.016775,-0.0040394,-0.033087,-0.067625,-0.10268,-0.13139,-0.14586,-0.13857,-0.1041,-0.040921,0.047265,0.15092,0.25524,0.34194,0.39217,0.39017,0.32691,0.20292,0.029677,-0.17107,-0.37014,-0.53551,-0.63797,-0.65674,-0.58376,-0.42597,-0.20461,0.048016,0.29408,0.49682,0.62694,0.66757,0.61677,0.48723,0.30337,0.096364,-0.10161,-0.26291,-0.36858,-0.41062,-0.39195,-0.32449,-0.22593,-0.11587,-0.012293,0.07115,0.12657,0.15204,0.1507,0.12911,0.095475,0.057832,0.022806,-0.0051444,-0.023896,-0.033378,-0.035006,-0.031019,-0.023851,-0.015667,-0.0080837,-0.0020706,0.0019943,0.0041876,0.0048674
-0.0045732,-0.0039809,-0.0019845,0.0017577,0.0073296,0.014395,0.022067,0.028852,0.032741,0.031456,0.022889,0.0056764,-0.020173,-0.052749,-0.08796,-0.11968,-0.14042,-0.14252,-0.11974,-0.069034,0.0079933,0.10418,0.20695,0.29964,0.36397,0.38334,0.34637,0.25003,0.10141,-0.082179,-0.2752,-0.44776,-0.5707,-0.62102,-0.58645,-0.46832,-0.28186,-0.053992,0.18126,0.38865,0.5379,0.60884,0.59455,0.50204,0.35028,0.16618,-0.020519,-0.18257,-0.29952,-0.36034,-0.36422,-0.31926,-0.23991,-0.14359,-0.047317,0.035044,0.094476,0.12736,0.13498,0.12224,0.096066,0.063761,0.031734,0.0046502,-0.014882,-0.026185,-0.030082,-0.028325,-0.023022,-0.016173,-0.0093697,-0.0036564,0.00046285,0.0029251,0.003964
-0.0046365,-0.0044794,-0.0030728,-1.7662e-05,0.0048858,0.011476,0.019086,0.026454,0.031758,0.032803,0.027389,0.01383,-0.0084304,-0.038259,-0.072452,-0.10572,-0.13117,-0.14126,-0.12926,-0.090911,-0.025975,0.060657,0.15874,0.25356,0.32789,0.36496,0.35177,0.2823,0.15966,-0.003197,-0.18472,-0.35782,-0.49433,-0.5701,-0.56962,-0.48938,-0.33897,-0.13978,0.078504,0.28312,0.44392,0.53855,0.55607,0.49836,0.3791,0.22069,0.049755,-0.10766,-0.23046,-0.30543,-0.32853,-0.30434,-0.24407,-0.16269,-0.075834,0.0029097,0.063844,0.10202,0.11709,0.11236,0.093437,0.066768,0.038361,0.012905,-0.0066594,-0.019157,-0.024874,-0.025088,-0.021559,-0.016079,-0.010168,-0.0048981,-0.0008667,0.0017459,0.0030593
-0.0045351,-0.0047516,-0.0038913,-0.0015199,0.0026538,0.0086219,0.015925,0.023539,0.029863,0.032847,0.030282,0.02027,0.0017916,-0.024713,-0.056901,-0.090373,-0.11895,-0.13547,-0.133,-0.10639,-0.05386,0.021787,0.11263,0.20607,0.28639,0.33719,0.34458,0.30018,0.20364,0.063767,-0.10196,-0.26973,-0.41316,-0.50792,-0.53632,-0.49085,-0.37598,-0.20773,-0.011099,0.18433,0.34952,0.46104,0.5049,0.47858,0.39083,0.25945,0.10758,-0.040653,-0.1643,-0.24873,-0.28733,-0.28154,-0.23944,-0.17342,-0.097437,-0.024389,0.03578,0.077161,0.098029,0.10023,0.088087,0.067081,0.042688,0.019462,0.0005236,-0.012567,-0.019633,-0.02151,-0.019599,-0.015462,-0.010503,-0.0057855,-0.0019632,0.00068943,0.0021912
-0.0042948,-0.0048158,-0.0044411,-0.0027218,0.0006994,0.0059432,0.012739,0.020298,0.027257,0.031756,0.031658,0.02495,0.010264,-0.012558,-0.041967,-0.074457,-0.10467,-0.12599,-0.13155,-0.11566,-0.075291,-0.011409,0.07027,0.15936,0.24191,0.30245,0.32675,0.30481,0.23336,0.11748,-0.029376,-0.18694,-0.33122,-0.4386,-0.49013,-0.47523,-0.39397,-0.25733,-0.08552,0.095531,0.25873,0.38052,0.44487,0.44565,0.38721,0.2829,0.15216,0.016682,-0.10343,-0.19286,-0.24308,-0.25284,-0.22735,-0.17643,-0.11213,-0.046341,0.011124,0.053758,0.078753,0.086672,0.080599,0.065041,0.044835,0.024267,0.006502,-0.0066344,-0.014585,-0.017784,-0.017291,-0.014416,-0.010423,-0.0063277,-0.0028111,-0.00021621,0.0013913
-0.0039455,-0.0046989,-0.0047372,-0.0036153,-0.00093426,0.0035282,0.0096673,0.016914,0.024151,0.029738,0.031675,0.027924,0.016877,-0.0021077,-0.028193,-0.058729,-0.089227,-0.11374,-0.12572,-0.11921,-0.09028,-0.038337,0.032917,0.11529,0.19677,0.26318,0.30056,0.29787,0.24961,0.15756,0.031421,-0.11218,-0.25208,-0.36606,-0.43481,-0.44562,-0.39489,-0.28909,-0.14377,0.019057,0.17485,0.30082,0.37976,0.40283,0.37058,0.29223,0.18349,0.063298,-0.049666,-0.14007,-0.19808,-0.2203,-0.20939,-0.17269,-0.12027,-0.06278,-0.009567,0.032596,0.060107,0.072452,0.071593,0.061068,0.045023,0.027368,0.011195,-0.0015164,-0.0099142,-0.01409,-0.014781,-0.013047,-0.0099892,-0.006551,-0.0034102,-0.00095419,0.00068368
-0.0035188,-0.0044335,-0.0048057,-0.0042097,-0.0022268,0.0014395,0.0068226,0.013552,0.020753,0.027022,0.03054,0.029326,0.021634,0.0064537,-0.015986,-0.043829,-0.073449,-0.099674,-0.11643,-0.11778,-0.099176,-0.05881,0.0013949,0.075316,0.15297,0.22175,0.26839,0.28143,0.25374,0.18439,0.079644,-0.04742,-0.17868,-0.29388,-0.37413,-0.40542,-0.38132,-0.30439,-0.18586,-0.043727,0.10041,0.22519,0.31312,0.35345,0.34363,0.28921,0.20228,0.098852,-0.0042147,-0.092122,-0.15436,-0.18589,-0.1872,-0.16338,-0.12252,-0.07385,-0.02602,0.014231,0.042788,0.058278,0.061683,0.055627,0.043541,0.028893,0.014599,0.0026941,-0.0057624,-0.01058,-0.012207,-0.011462,-0.0092748,-0.0064947,-0.0037728,-0.0015188,8.4353e-05
-0.0030457,-0.0040553,-0.0046811,-0.0045284,-0.0031786,-0.00028686,0.0042899,0.010355,0.017256,0.023837,0.02849,0.029352,0.024635,0.013068,-0.0056145,-0.03026,-0.05807,-0.084684,-0.10464,-0.11223,-0.10259,-0.073006,-0.023898,0.040498,0.11219,0.18029,0.2326,0.25776,0.24757,0.19898,0.11528,0.0062117,-0.11323,-0.22511,-0.31156,-0.35807,-0.3562,-0.30527,-0.21261,-0.092367,0.037052,0.15621,0.24805,0.3007,0.30921,0.27599,0.20977,0.12363,0.032337,-0.050288,-0.11358,-0.15139,-0.16245,-0.14983,-0.11974,-0.079956,-0.038222,-0.0010061,0.02732,0.04475,0.051443,0.049192,0.040729,0.029034,0.016779,0.0059649,-0.0022225,-0.0073733,-0.0096898,-0.0097646,-0.0083562,-0.006207,-0.0039223,-0.0019141,-0.0003987
-0.0025547,-0.0036005,-0.0044023,-0.0046056,-0.0038078,-0.0016391,0.0021245,0.0074306,0.01383,0.020403,0.025774,0.028243,0.026056,0.017788,0.0027922,-0.018379,-0.043688,-0.069584,-0.091299,-0.10352,-0.10134,-0.081405,-0.042951,0.011441,0.075666,0.14061,0.19537,0.22913,0.23316,0.20284,0.13899,0.048325,-0.057187,-0.16212,-0.25014,-0.30689,-0.32265,-0.2942,-0.22555,-0.12722,-0.014411,0.095729,0.18712,0.24746,0.27012,0.25491,0.2076,0.13843,0.059956,-0.015315,-0.077007,-0.11832,-0.13664,-0.13335,-0.11294,-0.081697,-0.046386,-0.013,0.014053,0.032344,0.041375,0.042215,0.036939,0.028027,0.017855,0.0083181,0.00065845,-0.0045572,-0.0073287,-0.0080481,-0.007309,-0.0057407,-0.0038892,-0.0021526,-0.00076481
-0.0020708,-0.0031031,-0.0040102,-0.0044826,-0.0041464,-0.002627,0.00035368,0.004858,0.010612,0.016918,0.022634,0.026256,0.026126,0.020757,0.0092284,-0.0083952,-0.030751,-0.055058,-0.077279,-0.092622,-0.096336,-0.08471,-0.056082,-0.011642,0.044211,0.10411,0.15862,0.19773,0.21267,0.19778,0.15192,0.079202,-0.011265,-0.10663,-0.19237,-0.25483,-0.28369,-0.27389,-0.22666,-0.14931,-0.053917,0.044818,0.13223,0.19616,0.22894,0.22837,0.19766,0.14446,0.079083,0.012531,-0.04546,-0.087855,-0.11111,-0.11522,-0.10315,-0.079805,-0.0509,-0.021824,0.0031626,0.021396,0.03189,0.035104,0.032518,0.026129,0.017983,0.0098202,0.002876,-0.002183,-0.0051986,-0.0063913,-0.0062028,-0.0051493,-0.0037088,-0.0022527,-0.0010195
-0.0016142,-0.0025938,-0.0035445,-0.0042042,-0.0042363,-0.003278,-0.0010209,0.0026827,0.0077052,0.013547,0.019293,0.023652,0.025109,0.022185,0.013793,-0.00038269,-0.019553,-0.041642,-0.063339,-0.080452,-0.088538,-0.083771,-0.063866,-0.028894,0.018238,0.071806,0.12388,0.16549,0.18821,0.18578,0.15562,0.099667,0.024469,-0.05963,-0.14011,-0.20439,-0.24212,-0.24705,-0.21821,-0.16014,-0.082048,0.0038763,0.084639,0.14871,0.18792,0.1986,0.18191,0.14315,0.090528,0.033404,-0.019364,-0.060852,-0.086941,-0.096565,-0.091394,-0.075077,-0.052278,-0.027706,-0.005332,0.01211,0.023296,0.028201,0.027789,0.023599,0.017343,0.010571,0.0044612,-0.0002698,-0.0033492,-0.0048565,-0.0050986,-0.0044838,-0.0034181,-0.0022372,-0.0011733
-0.0011998,-0.002098,-0.0030414,-0.0038151,-0.0041248,-0.0036321,-0.0020189,0.00092119,0.0051765,0.010419,0.015945,0.020677,0.023273,0.022326,0.016666,0.0057027,-0.010242,-0.029714,-0.050095,-0.067822,-0.078878,-0.079509,-0.067054,-0.040737,-0.0022095,0.044292,0.092313,0.13406,0.16169,0.16881,0.15182,0.11094,0.050498,-0.021501,-0.094575,-0.15752,-0.20037,-0.21624,-0.20256,-0.16156,-0.099877,-0.0273,0.045004,0.10646,0.14888,0.16764,0.16227,0.1361,0.095358,0.047798,0.001224,-0.037819,-0.064947,-0.07834,-0.078617,-0.068313,-0.051105,-0.030986,-0.01154,0.004562,0.015798,0.021777,0.023028,0.020682,0.016123,0.010691,0.0054727,0.0011908,-0.0018063,-0.003488,-0.0040461,-0.0037895,-0.0030529,-0.0021306,-0.0012401
-0.00083773,-0.0016357,-0.0025323,-0.0033572,-0.0038608,-0.0037375,-0.0026759,-0.00043503,0.0030607,0.0076262,0.012745,0.017549,0.020882,0.021453,0.018081,0.0099987,-0.0028371,-0.019501,-0.038006,-0.055416,-0.068205,-0.07284,-0.066498,-0.047798,-0.017387,0.021798,0.064687,0.1047,0.1348,0.14874,0.14234,0.1145,0.06773,0.0079239,-0.056418,-0.1156,-0.16041,-0.18375,-0.18199,-0.15554,-0.10882,-0.049393,0.013424,0.070239,0.11319,0.13716,0.14049,0.12487,0.094788,0.056457,0.01655,-0.018955,-0.045672,-0.061293,-0.065628,-0.060266,-0.04799,-0.032079,-0.015672,-0.0012762,0.0095049,0.016024,0.018463,0.017597,0.014505,0.010313,0.0059886,0.0022297,-0.00057457,-0.0023129,-0.0030825,-0.0031049,-0.0026464,-0.0019575,-0.0012356
-0.00053301,-0.001221,-0.0020426,-0.0028678,-0.0034913,-0.0036458,-0.0030387,-0.0014145,0.0013633,0.005223,0.0098097,0.014449,0.018174,0.019838,0.018305,0.012711,0.0027464,-0.011094,-0.027378,-0.043765,-0.057253,-0.064628,-0.063075,-0.050835,-0.027781,0.0042385,0.041404,0.078335,0.10889,0.12721,0.1289,0.11194,0.077356,0.029243,-0.025752,-0.079481,-0.12369,-0.15149,-0.15859,-0.14406,-0.11048,-0.063432,-0.01045,0.040369,0.081765,0.1085,0.11807,0.11093,0.090074,0.060278,0.027091,-0.0041987,-0.029402,-0.045957,-0.053085,-0.051608,-0.04352,-0.031431,-0.018006,-0.0055195,0.0044381,0.011059,0.014263,0.014526,0.012656,0.0095665,0.0060973,0.0028941,0.00035888,-0.0013424,-0.002233,-0.0024598,-0.002227,-0.0017414,-0.0011763
-0.00028665,-0.00086252,-0.001591,-0.0023778,-0.0030594,-0.0034084,-0.0031599,-0.0020598,6.6178e-05,0.0032323,0.0072178,0.01152,0.015356,0.017736,0.01761,0.014086,0.0066746,-0.0044662,-0.018374,-0.03325,-0.046613,-0.055633,-0.057633,-0.05066,-0.034031,-0.0087177,0.022548,0.055505,0.084955,0.10561,0.11309,0.10483,0.080726,0.043362,-0.0022643,-0.049515,-0.091225,-0.12096,-0.13416,-0.12897,-0.10651,-0.07066,-0.027306,0.016776,0.055106,0.082587,0.096259,0.095613,0.082429,0.06023,0.03348,0.006719,-0.016204,-0.032662,-0.041485,-0.042899,-0.038234,-0.029487,-0.018859,-0.0083438,0.00054886,0.006934,0.010543,0.011615,0.01072,0.0085762,0.0058906,0.0032412,0.0010203,-0.00057437,-0.0015112,-0.0018759,-0.0018179,-0.0015028,-0.0010782
-9.6233e-05,-0.00056386,-0.0011904,-0.0019116,-0.0026016,-0.0030731,-0.0030937,-0.0024224,-0.00086646,0.0016492,0.0050109,0.0088629,0.012592,0.01537,0.016259,0.014388,0.0091658,0.0004994,-0.011031,-0.024105,-0.03673,-0.046493,-0.050942,-0.04808,-0.036861,-0.017579,0.0079442,0.036458,0.063691,0.085019,0.096292,0.094661,0.07923,0.051378,0.014675,-0.025644,-0.06354,-0.093218,-0.11016,-0.1119,-0.098499,-0.072415,-0.038061,-0.00094194,0.033334,0.06002,0.075964,0.080003,0.072957,0.057277,0.036436,0.014216,-0.005962,-0.021553,-0.031163,-0.034581,-0.032594,-0.026666,-0.018556,-0.0099633,-0.0022645,0.0036423,0.0073674,0.0089662,0.0088128,0.0074511,0.0054571,0.0033329,0.0014447,3.766e-06,-0.00092072,-0.0013666,-0.0014367,-0.001259,-0.00095557
4.3146e-05,-0.00032456,-0.00084765,-0.0014863,-0.0021478,-0.0026822,-0.0028919,-0.0025573,-0.0014821,0.0004479,0.0032003,0.0065413,0.010008,0.012928,0.014489,0.013881,0.010467,0.0039833,-0.0052903,-0.016434,-0.027906,-0.037704,-0.04366,-0.043848,-0.037013,-0.02296,-0.0027734,0.021172,0.045473,0.066206,0.079593,0.08273,0.074202,0.054468,0.025909,-0.0074912,-0.040793,-0.068944,-0.087673,-0.09424,-0.087906,-0.070027,-0.043753,-0.013415,0.016278,0.041065,0.057816,0.064963,0.062608,0.052321,0.036699,0.018802,0.0015742,-0.012623,-0.022308,-0.02697,-0.026975,-0.023336,-0.017412,-0.010608,-0.0041391,0.0011337,0.0047539,0.0066452,0.0070237,0.0062827,0.0048774,0.0032306,0.0016723,0.00041212,-0.00045735,-0.00093825,-0.0010954,-0.0010236,-0.00082106
0.00013804,-0.00014096,-0.00056486,-0.0011129,-0.0017202,-0.0022708,-0.0026013,-0.0025187,-0.0018343,-0.0004125,0.0017726,0.0045843,0.0076889,0.010556,0.012505,0.012808,0.010831,0.0062047,-0.0010151,-0.010237,-0.020311,-0.029625,-0.036323,-0.038625,-0.035201,-0.02552,-0.010099,0.0094212,0.030421,0.049664,0.063831,0.070127,0.066852,0.053798,0.032396,0.0055481,-0.022826,-0.048455,-0.067461,-0.077045,-0.075968,-0.064733,-0.045453,-0.021412,0.0035485,0.025727,0.042172,0.051115,0.052151,0.046155,0.03498,0.021023,0.0067447,-0.0057451,-0.01498,-0.020268,-0.021661,-0.019806,-0.015712,-0.010508,-0.0052309,-0.00067331,0.0026861,0.0046832,0.0054129,0.0051428,0.0042205,0.002992,0.0017442,0.00067534,-0.00011072,-0.0005911,-0.00080073,-0.00080655,-0.00068477
0.00019587,-7.2259e-06,-0.00034022,-0.00079661,-0.0013341,-0.0018663,-0.0022622,-0.0023572,-0.001978,-0.00098173,0.00069637,0.0029936,0.0056826,0.0083597,0.010471,0.011384,0.010501,0.007399,0.0019776,-0.0054287,-0.014002,-0.022484,-0.029333,-0.032966,-0.032069,-0.025911,-0.014592,0.00084023,0.018444,0.035632,0.049576,0.057707,0.058217,0.050454,0.035118,0.014212,-0.0092542,-0.031775,-0.049953,-0.061098,-0.063691,-0.057625,-0.044184,-0.025761,-0.0053908,0.013806,0.029159,0.038857,0.042168,0.039443,0.031924,0.021423,0.0099368,-0.00071021,-0.0091409,-0.014575,-0.016848,-0.016318,-0.013702,-0.0098761,-0.005701,-0.0018792,0.001121,0.0030838,0.0040156,0.0040837,0.0035429,0.0026675,0.0017001,0.00082005,0.00013344,-0.00032082,-0.00055529,-0.00061412,-0.00055439
0.0002242,8.3823e-05,-0.0001691,-0.00053807,-0.00099845,-0.0014887,-0.001907,-0.0021171,-0.0019658,-0.0013132,-7.1714e-05,0.0017494,0.0040077,0.0064079,0.0085122,0.0097882,0.0096951,0.0077983,0.0038965,-0.0018689,-0.0089491,-0.016398,-0.02297,-0.027303,-0.028168,-0.02474,-0.016829,-0.0050226,0.0093045,0.024147,0.037166,0.046089,0.049138,0.045391,0.035016,0.019297,0.00045792,-0.018708,-0.035317,-0.046902,-0.051839,-0.049613,-0.040876,-0.027281,-0.011151,0.0049611,0.018723,0.028395,0.033065,0.032708,0.028083,0.020506,0.01155,0.0027419,-0.0046765,-0.0099087,-0.012652,-0.01305,-0.01158,-0.0089002,-0.0057036,-0.0025923,-2.0096e-06,0.0018287,0.002846,0.0031395,0.0028872,0.0022998,0.001576,0.00087268,0.00029155,-0.00011984,-0.00035815,-0.00044965,-0.00043529
0.0002303,0.00013988,-4.5019e-05,-0.00033441,-0.00071687,-0.0011509,-0.0015602,-0.0018352,-0.001845,-0.0014594,-0.00058104,0.00081753,0.0026585,0.0047359,0.0067148,0.0081604,0.0086008,0.0076184,0.0049559,0.00061785,-0.0050589,-0.01139,-0.0174,-0.021952,-0.023947,-0.02254,-0.01736,-0.0086539,0.0026616,0.015085,0.026741,0.035683,0.040253,0.039406,0.032941,0.021591,0.0069238,-0.0089014,-0.02351,-0.034725,-0.040946,-0.041414,-0.036322,-0.026733,-0.014363,-0.0012358,0.010674,0.019775,0.025085,0.026331,0.023906,0.018719,0.011966,0.0048923,-0.0014242,-0.0062217,-0.0091216,-0.010117,-0.0094975,-0.0077378,-0.0053785,-0.0029205,-0.00075257,0.00088497,0.0019011,0.0023284,0.0022834,0.0019222,0.0014028,0.00085785,0.00038053,2.1377e-05,-0.00020585,-0.00031394,-0.00033073
0.00022067,0.00016855,3.9445e-05,-0.00018034,-0.00048878,-0.00086012,-0.0012392,-0.0015407,-0.0016561,-0.0014694,-0.00088239,0.00015475,0.0016116,0.0033532,0.0051322,0.0066038,0.00737,0.0070485,0.0053607,0.0022206,-0.0021946,-0.0074137,-0.012697,-0.017125,-0.019745,-0.019754,-0.016681,-0.010535,-0.0018753,0.0082182,0.018284,0.026708,0.032011,0.033125,0.029623,0.021824,0.010776,-0.0019091,-0.014334,-0.024641,-0.031339,-0.033556,-0.031168,-0.024789,-0.015629,-0.0052479,0.0047354,0.01292,0.018338,0.020567,0.019737,0.016431,0.011532,0.0060202,0.00080422,-0.0034224,-0.0062541,-0.0075844,-0.0075623,-0.0065132,-0.0048456,-0.0029638,-0.0012028,0.00021039,0.0011655,0.0016558,0.0017501,0.0015594,0.0012054,0.00079726,0.00041664,0.00011321,-9.3248e-05,-0.00020588,-0.00024221
0.00020091,0.00017687,9.1944e-05,-6.9135e-05,-0.00031056,-0.00061839,-0.00095465,-0.0012549,-0.0014319,-0.001386,-0.0010243,-0.00028563,0.00083224,0.002249,0.0037891,0.0051876,0.0061186,0.0062465,0.0052957,0.0031267,-0.00019812,-0.0043748,-0.0088622,-0.012938,-0.015805,-0.016734,-0.015219,-0.011113,-0.0047102,0.0032504,0.011666,0.019239,0.024693,0.027015,0.025651,0.020639,0.012621,0.0027538,-0.0074901,-0.016576,-0.023175,-0.026393,-0.025909,-0.022007,-0.015496,-0.007535,0.00058458,0.0076729,0.012829,0.015561,0.015817,0.013938,0.010543,0.0063849,0.0022038,-0.001393,-0.004007,-0.0054735,-0.0058412,-0.0053183,-0.0042025,-0.0028106,-0.0014219,-0.00024107,0.00061593,0.0011171,0.0012963,0.001228,0.0010034,0.00070907,0.00041462,0.00016598,-1.4334e-05,-0.00012302,-0.00016983
0.00017553,0.00017102,0.00011979,6.5411e-06,-0.00017666,-0.00042429,-0.00071181,-0.00099233,-0.0011976,-0.0012448,-0.0010505,-0.00054993,0.00027992,0.0013987,0.0026882,0.0039515,0.0049292,0.0053372,0.0049192,0.0035099,0.0010945,-0.0021496,-0.005843,-0.0094352,-0.012279,-0.013739,-0.013319,-0.010781,-0.0062299,-0.00014041,0.0066855,0.013233,0.018439,0.021388,0.021483,0.018574,0.013006,0.0055694,-0.0026285,-0.010356,-0.016475,-0.020131,-0.020899,-0.018832,-0.01443,-0.008525,-0.0021138,0.0038232,0.0084856,0.011367,0.012304,0.011458,0.0092427,0.006215,0.0029618,-3.7148e-06,-0.0023127,-0.0037739,-0.0043682,-0.0042158,-0.0035244,-0.0025346,-0.0014724,-0.00051528,0.0002246,0.0007011,0.0009233,0.00093794,0.00081033,0.00060767,0.0003871,0.00018932,3.717e-05,-6.2117e-05,-0.00011269
0.00014801,0.00015615,0.00012957,5.3967e-05,-8.0442e-05,-0.00027384,-0.00051177,-0.00076145,-0.00097118,-0.0010742,-0.00099846,-0.00068113,-8.7613e-05,0.00076969,0.0018166,0.0029117,0.0038552,0.0044136,0.0043597,0.003523,0.0018405,-0.00060208,-0.0035522,-0.006604,-0.0092472,-0.010948,-0.011248,-0.009867,-0.006784,-0.0022754,0.0030993,0.0085704,0.01328,0.016433,0.017444,0.016055,0.0124,0.006986,0.00061738,-0.0057472,-0.011162,-0.014856,-0.016365,-0.015594,-0.012814,-0.0085941,-0.003682,0.0011391,0.0051847,0.0079726,0.009279,0.0091418,0.0078166,0.0057016,0.0032476,0.00087504,-0.0010903,-0.0024526,-0.0031515,-0.0032433,-0.0028653,-0.0021945,-0.0014082,-0.00065502,-3.7518e-05,0.00039223,0.00062714,0.00069322,0.00063534,0.00050386,0.00034441,0.00019171,6.731e-05,-1.9545e-05,-6.9189e-05
0.00012087,0.00013635,0.00012694,7.9902e-05,-1.5016e-05,-0.00016155,-0.0003525,-0.00056612,-0.0007645,-0.00089541,-0.00089866,-0.00071702,-0.00031091,0.00032552,0.0011505,0.0020669,0.0029254,0.00354,0.0037168,0.0032935,0.0021815,0.00040356,-0.001884,-0.004393,-0.0067329,-0.0084687,-0.0091973,-0.0086314,-0.006672,-0.0034533,0.00065384,0.0050849,0.0091673,0.012235,0.013748,0.013402,0.011185,0.0073982,0.0025999,-0.0024852,-0.0070956,-0.010565,-0.012435,-0.012523,-0.010942,-0.0080576,-0.0044117,-0.00061153,0.0027766,0.005318,0.0067666,0.0070805,0.0064001,0.0049969,0.0032069,0.001364,-0.0002545,-0.0014633,-0.0021802,-0.0024181,-0.0022611,-0.0018344,-0.0012732,-0.00069799,-0.00019845,0.00017317,0.00040016,0.00049387,0.00048337,0.00040515,0.00029456,0.00018027,8.1567e-05,8.3217e-06,-3.7397e-05
9.5767e-05,0.00011468,0.00011648,9.0291e-05,2.6267e-05,-8.1239e-05,-0.00023001,-0.00040658,-0.00058417,-0.0007231,-0.00077473,-0.00068917,-0.00042659,2.9688e-05,0.00066071,0.0014035,0.0021499,0.0027563,0.0030627,0.0029231,0.0022394,0.00099395,-0.00072692,-0.0027274,-0.0047179,-0.0063546,-0.007296,-0.0072706,-0.0061387,-0.0039374,-0.00089566,0.0025874,0.0059997,0.008801,0.010519,0.010837,0.00966,0.0071368,0.0036382,-0.00030609,-0.004101,-0.0071904,-0.0091516,-0.0097625,-0.0090285,-0.0071668,-0.0045533,-0.0016456,0.0011022,0.0033153,0.0047505,0.00532,0.0050835,0.0042156,0.0029585,0.0015698,0.00027727,-0.00075294,-0.0014311,-0.0017422,-0.0017321,-0.0014853,-0.0011015,-0.00067583,-0.00028361,2.6381e-05,0.0002327,0.00033688,0.00035626,0.00031623,0.0002434,0.00016069,8.4656e-05,2.4881e-05,-1.5241e-05
7.3661e-05,9.3296e-05,0.00010177,9.0107e-05,4.942e-05,-2.6696e-05,-0.0001392,-0.00028061,-0.00043284,-0.00056666,-0.00064392,-0.00062279,-0.00046612,-0.00015187,0.00031621,0.00090027,0.0015252,0.002083,0.002446,0.0024885,0.0021136,0.0012807,2.7096e-05,-0.0015213,-0.0031569,-0.0046159,-0.0056189,-0.0059231,-0.0053743,-0.0039482,-0.0017712,0.00088669,0.0036476,0.0060863,0.0078042,0.0085028,0.0080409,0.0064656,0.0040067,0.0010376,-0.0019902,-0.0046271,-0.0065031,-0.0073871,-0.0072197,-0.0061117,-0.0043122,-0.0021547,7.5355e-06,0.0018624,0.0031864,0.00387,0.0039197,0.003439,0.0025955,0.0015819,0.00057989,-0.00026803,-0.0008739,-0.0012072,-0.0012869,-0.0011668,-0.00091829,-0.00061385,-0.00031489,-6.4543e-05,0.00011443,0.00021747,0.00025357,0.00023959,0.00019489,0.00013727,8.045e-05,3.3137e-05,-7.0803e-07
