7.433e-05,8.9863e-05,9.2454e-05,7.3554e-05,2.53e-05,-5.7037e-05,-0.00017218,-0.00031017,-0.00045064,-0.000563,-0.00060939,-0.00055049,-0.00035431,-6.3332e-06,0.00048053,0.0010592,0.0016471,0.0021331,0.0023923,0.0023092,0.0018039,0.00085825,-0.00046564,-0.0020199,-0.0035825,-0.0048864,-0.0056641,-0.0056988,-0.0048743,-0.0032107,-0.00087714,0.0018227,0.0044941,0.0067161,0.008116,0.0084392,0.0076004,0.0057034,0.003027,-2.3527e-05,-0.0029873,-0.005429,-0.007013,-0.0075568,-0.0070539,-0.0056633,-0.0036703,-0.0014267,0.00071423,0.0024576,0.0036085,0.0040918,0.0039472,0.003305,0.0023501,0.0012814,0.00027685,-0.00053209,-0.0010726,-0.0013299,-0.0013368,-0.0011569,-0.0008669,-0.00054036,-0.0002364,6.2118e-06,0.00016976,0.00025447,0.00027307,0.00024483,0.00019021,0.00012702,6.8285e-05,2.1665e-05,-9.9773e-06
9.4558e-05,0.00012088,0.0001333,0.00012019,6.9827e-05,-2.6445e-05,-0.00017044,-0.0003532,-0.00055202,-0.0007297,-0.00083709,-0.00081973,-0.00062852,-0.00023315,0.00036394,0.0011165,0.0019298,0.0026658,0.0031596,0.003247,0.0027988,0.0017568,0.00016293,-0.0018268,-0.0039493,-0.0058659,-0.0072144,-0.0076757,-0.0070416,-0.0052693,-0.0025102,0.00089702,0.0044709,0.0076635,0.0099556,0.010951,0.010456,0.0085133,0.0054074,0.0016103,-0.0023003,-0.0057423,-0.0082307,-0.0094561,-0.0093281,-0.0079765,-0.0057126,-0.0029602,-0.00017401,0.0022404,0.0039881,0.0049194,0.0050339,0.0044576,0.0034017,0.0021125,0.00082454,-0.00027605,-0.0010722,-0.0015206,-0.001642,-0.0015031,-0.0011943,-0.00080854,-0.00042538,-0.0001014,0.00013277,0.00027005,0.00032103,0.00030676,0.00025185,0.0001792,0.00010663,4.5598e-05,1.4989e-06
0.00011671,0.00015769,0.00018487,0.00018284,0.00013497,2.7123e-05,-0.00014739,-0.00038232,-0.00065381,-0.00091813,-0.0011134,-0.0011666,-0.0010062,-0.0005795,0.00012862,0.0010788,0.0021673,0.0032284,0.0040505,0.0044087,0.0041076,0.0030302,0.00118,-0.001292,-0.0040865,-0.0067862,-0.0089162,-0.010026,-0.009781,-0.0080394,-0.0049054,-0.00073534,0.0039032,0.0083181,0.01181,0.013797,0.013925,0.012138,0.0086918,0.0041132,-0.00089511,-0.0055789,-0.0092637,-0.011468,-0.011973,-0.010846,-0.0084033,-0.005138,-0.0016179,0.0016171,0.0041418,0.0057013,0.0062293,0.0058299,0.0047326,0.0032326,0.0016299,0.00017877,-0.00094467,-0.0016549,-0.0019508,-0.001896,-0.0015927,-0.001155,-0.00068658,-0.00026681,5.6069e-05,0.00026377,0.00036209,0.00037253,0.00032367,0.00024401,0.00015721,7.9658e-05,2.0242e-05
0.00013952,0.00019971,0.00024778,0.00026401,0.00022562,0.00011115,-9.3217e-05,-0.00038639,-0.00074532,-0.0011206,-0.0014366,-0.0015984,-0.0015064,-0.0010771,-0.00026858,0.00089533,0.0023082,0.0037777,0.0050406,0.0057985,0.0057709,0.0047578,0.0027001,-0.00027624,-0.0038469,-0.0075144,-0.010674,-0.012713,-0.013128,-0.011634,-0.0082447,-0.0033063,0.0025383,0.0084409,0.013488,0.016861,0.01799,0.016657,0.013048,0.0077175,0.0014909,-0.0046817,-0.0098949,-0.013441,-0.014918,-0.014284,-0.011827,-0.0080974,-0.0037824,0.00042063,0.0039228,0.0063274,0.0074681,0.0074015,0.0063611,0.004688,0.0027549,0.00089807,-0.00063034,-0.001686,-0.0022321,-0.0023202,-0.0020602,-0.0015875,-0.0010336,-0.00050557,-7.4997e-05,0.0002237,0.00038787,0.00043732,0.0004038,0.00032178,0.00022167,0.00012602,4.8428e-05
0.00016101,0.00024548,0.00032188,0.00036563,0.00034657,0.00023388,3.7271e-06,-0.00035112,-0.00081145,-0.0013241,-0.0017995,-0.0021181,-0.0021456,-0.0017585,-0.00087645,0.00050435,0.0022846,0.0042501,0.0060832,0.0074002,0.007814,0.0070135,0.0048457,0.0013825,-0.0030467,-0.0078695,-0.012338,-0.015647,-0.017076,-0.016139,-0.012708,-0.0070714,7.514e-05,0.0077249,0.01472,0.019952,0.022563,0.022103,0.018623,0.012662,0.0051559,-0.0027367,-0.0098369,-0.015151,-0.018028,-0.018252,-0.016038,-0.011967,-0.0068443,-0.0015435,0.0031475,0.0066471,0.0086469,0.0091211,0.0082845,0.0065149,0.004261,0.0019544,-5.8119e-05,-0.0015536,-0.0024418,-0.0027495,-0.0025871,-0.0021094,-0.0014782,-0.00083375,-0.00027706,0.00013525,0.00038726,0.00049391,0.00048862,0.00041168,0.00030106,0.00018674,8.8388e-05
0.00017836,0.00029252,0.0004058,0.00048855,0.00050205,0.00040381,0.00015665,-0.00025909,-0.00083222,-0.0015091,-0.0021876,-0.0027212,-0.0029348,-0.0026544,-0.0017472,-0.00016605,0.0020112,0.0045581,0.0071036,0.0091686,0.010238,0.0098562,0.0077383,0.0038628,-0.0014666,-0.0076181,-0.013696,-0.018671,-0.021554,-0.021597,-0.018453,-0.012295,-0.003828,0.0057947,0.015148,0.022779,0.027463,0.028432,0.025516,0.019175,0.010419,0.0006219,-0.008729,-0.01629,-0.021084,-0.022641,-0.021042,-0.016851,-0.01098,-0.0044902,0.0015962,0.0064659,0.0096178,0.010898,0.01047,0.0087309,0.0062026,0.003423,0.00085282,-0.0011836,-0.0025212,-0.0031444,-0.0031531,-0.0027169,-0.0020287,-0.0012666,-0.00056798,-1.8602e-05,0.00034629,0.00053238,0.00057229,0.00051133,0.00039551,0.00026347,0.00014245
0.00018782,0.00033702,0.00049666,0.00063209,0.00069503,0.000629,0.00037971,-8.9995e-05,-0.00078251,-0.0016487,-0.0025771,-0.0033933,-0.0038762,-0.0037899,-0.002933,-0.0011952,0.0013864,0.0045889,0.0079943,0.011022,0.013008,0.013318,0.011486,0.0073502,0.0011425,-0.0064747,-0.014463,-0.021544,-0.026414,-0.027979,-0.025594,-0.01923,-0.0095377,0.0022127,0.014322,0.024941,0.032398,0.035499,0.033748,0.02744,0.0176,0.0057987,-0.0061401,-0.01646,-0.02377,-0.027254,-0.026769,-0.022806,-0.016346,-0.0086431,-0.00098075,0.0055456,0.010183,0.012595,0.012847,0.011326,0.0086189,0.0053758,0.0021894,-0.00048983,-0.0023964,-0.0034502,-0.0037248,-0.0033963,-0.0026872,-0.0018168,-0.00096569,-0.00025671,0.00024824,0.00053987,0.00064633,0.0006163,0.0005038,0.00035715,0.00021272
0.0001847,0.00037373,0.00058966,0.00079335,0.0009264,0.00091614,0.00068704,0.00017856,-0.00063238,-0.0017083,-0.0029335,-0.0041076,-0.0049591,-0.0051796,-0.0044806,-0.0026657,0.00029486,0.0042042,0.0086117,0.012836,0.016044,0.017388,0.01617,0.012022,0.005048,-0.0041063,-0.01428,-0.023936,-0.031401,-0.03516,-0.034167,-0.028085,-0.017422,-0.0035052,0.011702,0.025918,0.036937,0.043026,0.043234,0.037569,0.026988,0.013215,-0.00158,-0.015172,-0.025663,-0.031784,-0.033058,-0.029818,-0.023061,-0.014217,-0.004852,0.003608,0.010095,0.014019,0.015292,0.014251,0.011524,0.0078733,0.0040391,0.00062337,-0.0019787,-0.0035956,-0.0042534,-0.0041216,-0.003447,-0.002492,-0.0014865,-0.00059879,7.405e-05,0.00050055,0.00069937,0.00071974,0.00062293,0.00046762,0.00030077
0.00016337,0.00039584,0.00067774,0.00096667,0.0011941,0.0012694,0.0010915,0.0005699,-0.00034783,-0.0016453,-0.0032105,-0.0048221,-0.0061563,-0.0068222,-0.0064256,-0.0046568,-0.0013874,0.0032428,0.0087743,0.014433,0.019209,0.022,0.021821,0.018029,0.010519,-0.00014469,-0.012719,-0.025413,-0.036144,-0.042895,-0.044101,-0.038994,-0.027816,-0.011864,0.0066766,0.025071,0.040504,0.050577,0.053737,0.049558,0.038804,0.023278,0.0054792,-0.011855,-0.026229,-0.035798,-0.039628,-0.037774,-0.031175,-0.021394,-0.010288,0.00034454,0.0090527,0.01492,0.017628,0.017407,0.014895,0.010954,0.006482,0.002256,-0.0011673,-0.0034931,-0.0046731,-0.0048514,-0.0042897,-0.0032923,-0.0021429,-0.0010639,-0.00019683,0.00039594,0.00071697,0.00081197,0.00074767,0.00059317,0.00040731
0.00011744,0.00039499,0.0007514,0.0011431,0.0014923,0.001689,0.001603,0.0011065,0.00010768,-0.0014098,-0.0033497,-0.0054775,-0.0074195,-0.0086946,-0.0087845,-0.0072361,-0.003785,0.0015267,0.0082654,0.015586,0.022295,0.027012,0.028405,0.025469,0.017801,0.0057941,-0.0092948,-0.025445,-0.040141,-0.050788,-0.055182,-0.051971,-0.040981,-0.023351,-0.0014134,0.021655,0.042368,0.057538,0.064844,0.063245,0.053153,0.036336,0.01557,-0.0058762,-0.024827,-0.038735,-0.046059,-0.046439,-0.04064,-0.030297,-0.017539,-0.004567,0.0067182,0.014988,0.019611,0.020637,0.018662,0.014624,0.0095807,0.0045049,0.00014654,-0.0030403,-0.0049004,-0.0055273,-0.0051828,-0.0042072,-0.0029412,-0.0016684,-0.00058519,0.00020551,0.00068184,0.00088034,0.00087017,0.00073014,0.00053177
4.0089e-05,0.00036142,0.00079864,0.0013099,0.0018101,0.00217,0.0022265,0.0018076,0.0007709,-0.00094723,-0.0032812,-0.0059966,-0.0086764,-0.010746,-0.011546,-0.01045,-0.0070128,-0.0011301,0.0068388,0.016012,0.025026,0.032199,0.035795,0.034363,0.027089,0.014082,-0.0034821,-0.02341,-0.042756,-0.058281,-0.067018,-0.066866,-0.057052,-0.038388,-0.013233,0.014844,0.041653,0.063102,0.075927,0.078266,0.069977,0.052629,0.029184,0.003425,-0.020729,-0.0399,-0.05178,-0.055426,-0.051282,-0.040955,-0.026802,-0.01144,0.0027245,0.013863,0.020933,0.023714,0.022692,0.018843,0.013369,0.0074544,0.002073,-0.0021236,-0.0048349,-0.0060725,-0.0060764,-0.005213,-0.0038785,-0.0024239,-0.0011103,-9.2258e-05,0.00057425,0.00090921,0.00097976,0.00087251,0.0006719
-7.5588e-05,0.0002844,0.00080508,0.0014504,0.0021314,0.0027006,0.0029601,0.0026868,0.0016758,-0.00020026,-0.0029256,-0.0062841,-0.0098285,-0.012893,-0.014664,-0.014311,-0.011162,-0.0049075,0.0042297,0.015382,0.027048,0.037235,0.043756,0.044624,0.038491,0.025043,0.0052468,-0.018624,-0.043227,-0.064637,-0.079013,-0.083324,-0.075987,-0.057274,-0.029399,0.0037772,0.037364,0.066277,0.086131,0.094017,0.088997,0.072232,0.046716,0.016691,-0.013149,-0.038483,-0.056066,-0.064178,-0.062766,-0.053268,-0.038189,-0.020547,-0.0032988,0.011144,0.021223,0.026342,0.026787,0.023512,0.017838,0.011165,0.0047142,-0.0006243,-0.0043626,-0.0063922,-0.0069028,-0.0062699,-0.0049397,-0.0033341,-0.0017877,-0.00051831,0.00037293,0.00088032,0.0010628,0.0010116,0.0008234
-0.00023595,0.00015273,0.00075445,0.0015442,0.0024339,0.0032611,0.0037926,0.0037485,0.0028495,0.00088647,-0.0021977,-0.0062294,-0.010751,-0.015015,-0.018047,-0.018786,-0.016286,-0.0099628,0.00017119,0.013335,0.027937,0.041692,0.051926,0.056029,0.051989,0.038908,0.017382,-0.010371,-0.040687,-0.06895,-0.090348,-0.10074,-0.097505,-0.080115,-0.05041,-0.012384,0.028431,0.065903,0.094368,0.10963,0.10967,0.094988,0.068399,0.034485,-0.0012949,-0.033589,-0.058046,-0.071964,-0.074577,-0.066974,-0.051688,-0.032088,-0.011696,0.0064151,0.020062,0.028154,0.030671,0.028462,0.022925,0.015658,0.0081536,0.0015736,-0.0033603,-0.0063755,-0.0075753,-0.0073202,-0.006095,-0.0043922,-0.0026269,-0.0010911,5.6312e-05,0.00077339,0.0011029,0.001136,0.00097955
-0.00044616,-4.4427e-05,0.0006293,0.0015674,0.0026894,0.003823,0.0047018,0.0049852,0.0043085,0.0023615,-0.0010118,-0.0057101,-0.011293,-0.016952,-0.021555,-0.023788,-0.022383,-0.01641,-0.0055842,0.0094931,0.027214,0.045042,0.059805,0.068195,0.067403,0.05577,0.033322,0.0020426,-0.034207,-0.070164,-0.099981,-0.11825,-0.12104,-0.10676,-0.076568,-0.034377,0.013774,0.060701,0.099332,0.12394,0.13115,0.12045,0.094233,0.057221,0.015572,-0.02428,-0.056732,-0.077879,-0.086003,-0.081621,-0.067126,-0.046144,-0.022751,-0.00073247,0.016996,0.028721,0.033992,0.033449,0.028497,0.020907,0.012443,0.0045723,-0.0017038,-0.0058997,-0.0079897,-0.0082874,-0.0072978,-0.0055781,-0.003628,-0.0018243,-0.00039574,0.00056722,0.0010814,0.0012314,0.0011311
-0.00070936,-0.00031658,0.00041208,0.0014939,0.0028641,0.0043487,0.0056527,0.006374,0.0060533,0.0042603,0.00071159,-0.0045994,-0.011287,-0.01851,-0.024994,-0.02916,-0.029377,-0.024299,-0.013239,0.0034888,0.024365,0.046672,0.066756,0.080563,0.084358,0.075532,0.053315,0.01923,-0.022851,-0.067115,-0.10667,-0.13468,-0.1457,-0.13672,-0.1079,-0.062745,-0.0076138,0.049337,0.099544,0.13554,0.15226,0.14785,0.12392,0.085083,0.038059,-0.0096478,-0.051063,-0.080868,-0.096133,-0.096543,-0.084133,-0.06264,-0.03664,-0.010658,0.011568,0.027571,0.036328,0.038148,0.034347,0.026818,0.017587,0.0084481,0.00072332,-0.0048368,-0.0080279,-0.0090768,-0.008483,-0.0068559,-0.00478,-0.0027243,-0.00099986,0.00024114,0.00097836,0.0012813,0.001266
-0.0010259,-0.00067076,8.6549e-05,0.0012963,0.0029199,0.0047919,0.006597,0.0078746,0.0080645,0.0065992,0.0030378,-0.002774,-0.010551,-0.019461,-0.028114,-0.034673,-0.03711,-0.033589,-0.022921,-0.0050002,0.018873,0.045906,0.07202,0.092391,0.10225,0.097861,0.077395,0.041645,-0.0057474,-0.05859,-0.10899,-0.14862,-0.17025,-0.16914,-0.14406,-0.097744,-0.03656,0.030514,0.093417,0.14277,0.1715,0.17603,0.15678,0.11794,0.066556,0.011114,-0.039967,-0.079767,-0.10388,-0.11086,-0.10212,-0.081306,-0.053394,-0.023632,0.0033504,0.02421,0.037201,0.042155,0.040184,0.033225,0.023534,0.013238,0.0040173,-0.0030621,-0.0075627,-0.009578,-0.0095672,-0.0081726,-0.0060572,-0.0037872,-0.0017669,-0.00022321,0.00077341,0.0012674,0.0013702
-0.0013924,-0.0011103,-0.00036065,0.00094836,0.002816,0.0050988,0.0074731,0.0094271,0.010299,0.009368,0.0060085,-0.00012576,-0.0089024,-0.019555,-0.030622,-0.040025,-0.045325,-0.044135,-0.034654,-0.016216,0.010258,0.042043,0.074736,0.10276,0.12026,0.12215,0.10532,0.069511,0.017822,-0.043416,-0.10544,-0.1584,-0.19311,-0.20275,-0.18429,-0.13924,-0.073602,0.0030872,0.079355,0.1438,0.18706,0.20345,0.19175,0.1553,0.10114,0.038613,-0.022447,-0.073368,-0.108,-0.12347,-0.12024,-0.10164,-0.072852,-0.03979,-0.0080096,0.018159,0.036098,0.045001,0.045635,0.039878,0.030158,0.018925,0.0082414,-0.0004647,-0.0064663,-0.0096694,-0.010451,-0.0094573,-0.0074185,-0.0049972,-0.0026994,-0.00083979,0.00044765,0.0011706,0.0014273
-0.0018014,-0.0016335,-0.00093813,0.00042698,0.0025118,0.0052105,0.0082075,0.010952,0.012685,0.012525,0.0096327,0.0034268,-0.0061736,-0.018534,-0.032181,-0.044841,-0.053662,-0.055662,-0.048327,-0.030278,-0.0018767,0.034406,0.073988,0.11062,0.13731,0.1475,0.13653,0.10274,0.048328,-0.020556,-0.094499,-0.1622,-0.21238,-0.23585,-0.22733,-0.18662,-0.11887,-0.033808,0.055876,0.13674,0.19693,0.22822,0.22731,0.19619,0.14151,0.073159,0.002322,-0.060498,-0.10719,-0.13311,-0.13746,-0.12291,-0.094626,-0.059085,-0.022747,0.0089939,0.032505,0.046172,0.050256,0.046445,0.037257,0.025429,0.013413,0.0030395,-0.0046192,-0.0092245,-0.01102,-0.010622,-0.0088056,-0.0063237,-0.0037893,-0.0016159,-1.4682e-05,0.00097236,0.0014199
-0.0022405,-0.0022328,-0.001648,-0.00028525,0.0019696,0.0050664,0.0087177,0.012353,0.015126,0.015992,0.013878,0.0079249,-0.0022254,-0.016148,-0.032439,-0.048688,-0.061665,-0.067765,-0.063673,-0.047148,-0.017792,0.022398,0.068858,0.11481,0.15213,0.17272,0.17008,0.14085,0.085897,0.010774,-0.074769,-0.15813,-0.22592,-0.26634,-0.27142,-0.23873,-0.17198,-0.080625,0.021751,0.11976,0.19892,0.24814,0.26153,0.23919,0.18688,0.11467,0.034892,-0.04012,-0.10011,-0.13838,-0.15249,-0.1441,-0.11807,-0.081251,-0.04093,-0.0036094,0.025941,0.045134,0.053544,0.052516,0.044543,0.032591,0.019489,0.0074957,-0.0019221,-0.0081208,-0.011155,-0.011566,-0.010144,-0.0077211,-0.0050161,-0.0025501,-0.00062423,0.00065617,0.0013308
-0.0026925,-0.0028937,-0.0024842,-0.0011973,0.0011584,0.004608,0.0089161,0.013517,0.017495,0.019651,0.018664,0.013358,0.0030339,-0.012178,-0.031042,-0.051097,-0.06879,-0.079902,-0.080251,-0.066593,-0.037563,0.0055662,0.0585,0.11412,0.16329,0.19632,0.20468,0.18294,0.13022,0.05099,-0.045086,-0.14439,-0.23149,-0.29181,-0.31433,-0.29381,-0.23194,-0.13727,-0.023841,0.091263,0.1909,0.26083,0.29211,0.2824,0.23597,0.16259,0.075433,-0.011446,-0.085548,-0.13786,-0.16392,-0.16398,-0.1423,-0.10577,-0.062416,-0.019826,0.016009,0.041369,0.054963,0.057613,0.05165,0.040175,0.026358,0.012897,0.0016922,-0.0062499,-0.010735,-0.012176,-0.011344,-0.0091279,-0.0063454,-0.0036301,-0.0013845,0.00020944,0.0011437
-0.0031355,-0.0035948,-0.0034311,-0.0023073,5.7735e-05,0.0037841,0.0087157,0.014321,0.019644,0.023346,0.023857,0.019653,0.0096322,-0.0064601,-0.027663,-0.051581,-0.074428,-0.091408,-0.097442,-0.088163,-0.061031,-0.01633,0.042215,0.10741,0.1693,0.2166,0.23866,0.22766,0.18049,0.10003,-0.0046707,-0.11937,-0.22682,-0.30962,-0.35339,-0.34955,-0.29709,-0.203,-0.081165,0.050011,0.17084,0.2638,0.31648,0.32347,0.28696,0.21582,0.12364,0.025958,-0.062483,-0.13014,-0.17022,-0.18115,-0.16613,-0.13185,-0.08682,-0.039636,0.0024384,0.034425,0.05398,0.061217,0.058139,0.047863,0.033834,0.019174,0.0062466,-0.0035286,-0.0096471,-0.012338,-0.012307,-0.010468,-0.0077283,-0.0048316,-0.00229,-0.00037486,0.000845
-0.0035435,-0.0043071,-0.0044628,-0.0036004,-0.0013389,0.0025563,0.0080369,0.014641,0.021408,0.026887,0.029269,0.026665,0.017518,0.0010962,-0.022035,-0.049678,-0.077936,-0.10152,-0.11446,-0.11118,-0.087773,-0.043261,0.019533,0.093673,0.16864,0.23171,0.27005,0.27318,0.23534,0.15724,0.046735,-0.081874,-0.20985,-0.31707,-0.3856,-0.40308,-0.3651,-0.27633,-0.1498,-0.0046659,0.13712,0.2547,0.33189,0.35969,0.33752,0.27271,0.17865,0.072056,-0.030229,-0.11403,-0.1699,-0.19406,-0.18822,-0.15845,-0.11349,-0.062789,-0.014865,0.023951,0.050102,0.062795,0.06352,0.055262,0.04165,0.026188,0.011709,8.9541e-05,-0.0077993,-0.011942,-0.012925,-0.011655,-0.0091025,-0.0061174,-0.003325,-0.0010965,0.00042556
-0.0038876,-0.0049958,-0.005543,-0.0050472,-0.0030207,0.00090373,0.0068141,0.014357,0.022611,0.030054,0.034662,0.034177,0.026548,0.010482,-0.013978,-0.044984,-0.078681,-0.10941,-0.13037,-0.13473,-0.11707,-0.074875,-0.0097048,0.072149,0.15995,0.23978,0.29665,0.31727,0.29285,0.22136,0.10875,-0.031222,-0.17886,-0.31157,-0.40784,-0.45112,-0.433,-0.35502,-0.22852,-0.072732,0.088602,0.23145,0.33565,0.38815,0.38492,0.33102,0.23902,0.12626,0.011463,-0.088586,-0.16157,-0.20112,-0.20701,-0.18428,-0.1415,-0.088773,-0.03578,0.0097542,0.042921,0.061836,0.067276,0.061925,0.049467,0.033724,0.017985,0.0046039,-0.0051277,-0.010889,-0.013094,-0.012593,-0.010394,-0.0074377,-0.0044624,-0.0019465,-0.00011811
-0.0041378,-0.0056207,-0.0066258,-0.0066037,-0.004957,-0.001172,0.0050036,0.013366,0.023083,0.032613,0.039756,0.041904,0.036485,0.021573,-0.0034311,-0.037192,-0.076084,-0.11424,-0.14414,-0.15772,-0.14793,-0.11047,-0.045281,0.042417,0.14211,0.239,0.31615,0.35741,0.35061,0.29043,0.18028,0.032558,-0.1327,-0.29089,-0.41702,-0.49013,-0.49728,-0.43607,-0.31526,-0.15331,0.02489,0.19248,0.32528,0.40586,0.42611,0.38805,0.30269,0.18739,0.062299,-0.053291,-0.14409,-0.20083,-0.22091,-0.20785,-0.16967,-0.11681,-0.059941,-0.0081672,0.032159,0.057892,0.068897,0.067365,0.056886,0.0415,0.024911,0.0099582,-0.0016083,-0.0091067,-0.012717,-0.013186,-0.01152,-0.0087316,-0.0056639,-0.0029065,-0.00078243
-0.0042645,-0.0061391,-0.0076572,-0.0082114,-0.0070966,-0.0036432,0.0025903,0.01159,0.022668,0.034323,0.04424,0.049494,0.046991,0.034121,0.009527,-0.026136,-0.069671,-0.11521,-0.15469,-0.17888,-0.17908,-0.14897,-0.086554,0.0044859,0.11434,0.22782,0.32631,0.39086,0.40575,0.3619,0.25943,0.10863,-0.070946,-0.25331,-0.4103,-0.51653,-0.55406,-0.51584,-0.40712,-0.24463,-0.053563,0.1369,0.29876,0.40998,0.45788,0.4407,0.36706,0.2536,0.12138,-0.0081371,-0.11669,-0.19188,-0.22833,-0.22758,-0.19663,-0.14586,-0.086722,-0.029586,0.01771,0.050622,0.067915,0.071087,0.06346,0.049168,0.032256,0.016035,0.0027355,-0.0065516,-0.011715,-0.013342,-0.012395,-0.0099292,-0.0068807,-0.003948,-0.0015558
-0.004241,-0.0065078,-0.008578,-0.0097999,-0.009368,-0.0064536,-0.00040696,0.0089858,0.021239,0.034962,0.047794,0.056551,0.057645,0.047749,0.024658,-0.011818,-0.059125,-0.11165,-0.16097,-0.19689,-0.20903,-0.18896,-0.13244,-0.041135,0.076389,0.20506,0.32506,0.41486,0.45512,0.43264,0.34359,0.1953,0.0059391,-0.19788,-0.38539,-0.52692,-0.59931,-0.5902,-0.50043,-0.34396,-0.14534,0.064689,0.25472,0.39808,0.47713,0.48566,0.42909,0.3225,0.18716,0.046286,-0.079079,-0.17327,-0.22784,-0.24186,-0.22083,-0.17467,-0.11524,-0.054026,-0.00032599,0.039833,0.063947,0.072624,0.068727,0.056332,0.03973,0.022656,0.0078264,-0.0032215,-0.010033,-0.01298,-0.012933,-0.010956,-0.0080555,-0.0050334,-0.0024183
-0.0040458,-0.0066863,-0.009327,-0.011289,-0.011681,-0.0095187,-0.0039318,0.0055548,0.018712,0.034335,0.050104,0.062655,0.067955,0.061963,0.041559,0.0055644,-0.044331,-0.10302,-0.16204,-0.21038,-0.23615,-0.22875,-0.18141,-0.093405,0.028533,0.17008,0.31074,0.42683,0.49547,0.49911,0.42943,0.28996,0.096533,-0.12459,-0.34074,-0.51838,-0.62909,-0.65473,-0.5909,-0.44771,-0.24802,-0.02317,0.19262,0.36829,0.48101,0.51959,0.48542,0.39115,0.25748,0.10875,-0.031516,-0.14444,-0.21826,-0.24918,-0.24071,-0.2018,-0.14437,-0.080765,-0.02162,0.025515,0.056734,0.071571,0.072235,0.062571,0.046989,0.029582,0.013531,0.00083977,-0.0076499,-0.012039,-0.013058,-0.011736,-0.0091252,-0.0061168,-0.0033417
-0.0036644,-0.0066399,-0.0098449,-0.012595,-0.013932,-0.012728,-0.0078889,0.0013462,0.015056,0.0323,0.05089,0.067384,0.077381,0.076167,0.059669,0.025604,-0.025409,-0.089054,-0.15712,-0.2181,-0.25877,-0.2664,-0.23157,-0.15075,-0.028308,0.12285,0.28225,0.42454,0.52364,0.55757,0.51312,0.38923,0.19841,-0.034456,-0.27576,-0.48872,-0.63986,-0.70502,-0.67382,-0.55157,-0.35821,-0.12465,0.11295,0.31957,0.46725,0.53936,0.53258,0.45626,0.32961,0.17739,0.025095,-0.10536,-0.1988,-0.24823,-0.25471,-0.22574,-0.17283,-0.10885,-0.045607,0.0078617,0.046173,0.067622,0.073575,0.067459,0.05366,0.036527,0.019663,0.0055395,-0.0045822,-0.010486,-0.012707,-0.012198,-0.010024,-0.0071464,-0.0042905
-0.0030917,-0.0063431,-0.010079,-0.013634,-0.016007,-0.015948,-0.012146,-0.0035388,0.010303,0.028776,0.049926,0.070345,0.085374,0.089693,0.078288,0.04769,-0.002736,-0.069739,-0.1457,-0.21897,-0.27527,-0.29989,-0.2807,-0.21111,-0.09258,0.064081,0.23915,0.40633,0.53679,0.6043,0.59045,0.48901,0.30819,0.07037,-0.19098,-0.43671,-0.62876,-0.73693,-0.74438,-0.65066,-0.47169,-0.23668,0.017269,0.25188,0.43429,0.54229,0.56723,0.51434,0.40041,0.24975,0.089222,-0.056595,-0.16914,-0.23803,-0.26146,-0.24496,-0.19918,-0.13712,-0.071494,-0.01271,0.032344,0.060605,0.072415,0.070601,0.059356,0.043166,0.025988,0.010736,-0.00088942,-0.0083164,-0.011838,-0.012282,-0.01069,-0.0080673,-0.0052232
-0.0023333,-0.0057819,-0.0099866,-0.014327,-0.017791,-0.019032,-0.01654,-0.0089489,0.0045523,0.023762,0.047064,0.071207,0.091405,0.10184,0.096612,0.071027,0.023053,-0.045381,-0.12759,-0.2122,-0.2842,-0.32721,-0.32643,-0.27202,-0.16213,-0.0047846,0.18184,0.3713,0.53267,0.63582,0.65715,0.58474,0.42166,0.18666,-0.088142,-0.3623,-0.59389,-0.74697,-0.79795,-0.73989,-0.58355,-0.35523,-0.091767,0.16624,0.38155,0.52639,0.58639,0.56191,0.46643,0.32289,0.15872,0.00067175,-0.12954,-0.21804,-0.25983,-0.25805,-0.22198,-0.1643,-0.098294,-0.03557,0.015527,0.050505,0.068534,0.071659,0.063706,0.049159,0.032233,0.016244,0.0033266,-0.0055631,-0.010433,-0.011941,-0.011065,-0.0088248,-0.0060949
-0.0014055,-0.0049562,-0.0095406,-0.01461,-0.019174,-0.021825,-0.020882,-0.014687,-0.0020308,0.017344,0.04225,0.069725,0.095005,0.11192,0.11377,0.094666,0.051081,-0.016601,-0.10298,-0.19733,-0.28443,-0.34651,-0.36633,-0.33075,-0.23428,-0.081579,0.11155,0.3194,0.50977,0.64921,0.70912,0.67164,0.53398,0.3102,0.029806,-0.2667,-0.53454,-0.73253,-0.83041,-0.81419,-0.68852,-0.47552,-0.21047,0.064834,0.30952,0.49054,0.58767,0.59578,0.52419,0.39354,0.23094,0.064645,-0.080837,-0.18821,-0.24909,-0.26383,-0.23984,-0.18902,-0.12487,-0.059895,-0.0037988,0.037483,0.061843,0.070381,0.06638,0.054169,0.038106,0.021842,0.0079239,-0.0022953,-0.0085053,-0.011151,-0.011104,-0.0093682,-0.0068598
-0.0003362,-0.0038809,-0.008731,-0.014435,-0.020059,-0.024175,-0.024971,-0.020522,-0.0092184,0.0096916,0.035535,0.065767,0.095806,0.11929,0.12889,0.11756,0.080268,0.01567,-0.07242,-0.17438,-0.2752,-0.35622,-0.39808,-0.38445,-0.30599,-0.1635,0.030363,0.25155,0.46754,0.64232,0.74275,0.74501,0.63997,0.43602,0.1588,-0.15244,-0.4513,-0.6922,-0.8385,-0.86894,-0.78125,-0.59224,-0.33427,-0.049091,0.2198,0.43467,0.56948,0.61324,0.57038,0.45828,0.30283,0.133,-0.024466,-0.14906,-0.22895,-0.2614,-0.25153,-0.20997,-0.14999,-0.084706,-0.024972,0.021882,0.052407,0.066625,0.067114,0.057884,0.043307,0.027283,0.012726,0.0013828,-0.0060967,-0.009908,-0.010777,-0.0096549,-0.0074741
0.00083696,-0.0025862,-0.0075676,-0.013776,-0.020369,-0.025944,-0.028605,-0.026198,-0.016731,0.0010599,0.027083,0.059331,0.093566,0.12344,0.14114,0.13864,0.10939,0.050237,-0.036854,-0.14377,-0.25623,-0.35521,-0.41967,-0.43034,-0.374,-0.24722,-0.058864,0.16964,0.40646,0.61399,0.7552,0.80059,0.7344,0.55862,0.29386,-0.023311,-0.34618,-0.6259,-0.82008,-0.90024,-0.85668,-0.69987,-0.45798,-0.17132,0.11516,0.35985,0.53123,0.61232,0.60206,0.51377,0.37115,0.20297,0.037598,-0.10167,-0.19963,-0.25027,-0.25606,-0.22593,-0.17243,-0.10892,-0.047174,0.0042154,0.04045,0.060381,0.065733,0.060043,0.047555,0.032311,0.017533,0.0053356,-0.003281,-0.0082354,-0.010072,-0.009653,-0.0078991
0.002068,-0.0011165,-0.0060809,-0.012633,-0.020057,-0.027019,-0.031594,-0.031452,-0.024255,-0.008226,0.017166,0.050551,0.088201,0.12397,0.1498,0.15683,0.13713,0.085699,0.002437,-0.1064,-0.22778,-0.34288,-0.42952,-0.4659,-0.43505,-0.32914,-0.15264,0.076467,0.32812,0.56417,0.74461,0.8348,0.81236,0.67234,0.42931,0.11584,-0.22253,-0.535,-0.77435,-0.90526,-0.9104,-0.79308,-0.57608,-0.29692,-0.00066104,0.26824,0.4734,0.59193,0.61695,0.55698,0.43261,0.27154,0.10293,-0.047651,-0.16188,-0.23041,-0.25281,-0.23588,-0.19102,-0.13143,-0.069478,-0.014855,0.026352,0.051774,0.062171,0.060455,0.050602,0.036677,0.02213,0.0094037,-0.00015883,-0.0061816,-0.008997,-0.0093452,-0.0081045
0.0033052,0.00047178,-0.0043205,-0.011033,-0.019104,-0.027318,-0.033774,-0.03603,-0.031455,-0.017787,0.0061498,0.039703,0.079794,0.12069,0.1543,0.1712,0.16221,0.12053,0.043897,-0.063594,-0.19064,-0.31921,-0.4266,-0.48903,-0.48609,-0.40553,-0.24705,-0.024402,0.23512,0.494,0.71033,0.84506,0.86957,0.7717,0.55919,0.25936,-0.084918,-0.42231,-0.70199,-0.8825,-0.93895,-0.86701,-0.68305,-0.42048,-0.12308,0.16308,0.39757,0.55201,0.61356,0.58538,0.48417,0.33561,0.16881,0.010933,-0.11694,-0.20227,-0.24154,-0.23907,-0.20475,-0.15115,-0.090901,-0.034555,0.010631,0.04107,0.056477,0.059015,0.052253,0.040155,0.026303,0.013412,0.0031466,-0.0038188,-0.0075815,-0.00873,-0.0080702
0.0044943,0.0021133,-0.0023537,-0.0090286,-0.017529,-0.026797,-0.035018,-0.039706,-0.038004,-0.027214,-0.0055225,0.027183,0.068599,0.11359,0.1543,0.18097,0.18341,0.15317,0.085784,-0.017033,-0.14611,-0.2848,-0.41057,-0.49825,-0.52451,-0.47281,-0.33794,-0.12882,0.131,0.40581,0.65295,0.83003,0.90272,0.85178,0.67756,0.40107,0.061137,-0.29197,-0.60517,-0.83189,-0.94011,-0.91767,-0.77378,-0.53649,-0.24695,0.048472,0.30642,0.49359,0.59133,0.59715,0.52318,0.39219,0.23235,0.071676,-0.066536,-0.16678,-0.22242,-0.23513,-0.21282,-0.16711,-0.11047,-0.05404,-0.0060827,0.02866,0.04882,0.055717,0.052383,0.042558,0.029853,0.017183,0.0064969,-0.0012391,-0.0058748,-0.0078227,-0.0077887
0.0055821,0.0037376,-0.00026088,-0.0066972,-0.015384,-0.025457,-0.035246,-0.042294,-0.043598,-0.036089,-0.017358,0.013496,0.05503,0.10288,0.14967,0.18558,0.19971,0.18213,0.12628,0.031351,-0.095949,-0.24089,-0.38178,-0.49279,-0.54826,-0.52781,-0.42125,-0.23231,0.020016,0.30295,0.57437,0.78967,0.90973,0.90857,0.77894,0.53475,0.20947,-0.1492,-0.48747,-0.7549,-0.9131,-0.94224,-0.84384,-0.63967,-0.3669,-0.070814,0.2035,0.41871,0.55074,0.59135,0.54758,0.43859,0.2907,0.13198,-0.012714,-0.12528,-0.1961,-0.22401,-0.21474,-0.1785,-0.12727,-0.072453,-0.023085,0.01504,0.039483,0.050654,0.050945,0.043752,0.032607,0.020545,0.0097466,0.0014504,-0.0039439,-0.0066551,-0.0072655
0.0065197,0.0052739,0.001869,-0.0041346,-0.012753,-0.023344,-0.034433,-0.043665,-0.047976,-0.044019,-0.028844,-0.00078369,0.03964,0.088975,0.14054,0.18475,0.21032,0.2061,0.16359,0.079481,-0.042239,-0.18922,-0.34125,-0.47264,-0.5561,-0.56793,-0.49325,-0.33037,-0.093111,0.18967,0.47766,0.72533,0.88987,0.93921,0.85864,0.65444,0.35367,6.1232e-17,-0.35367,-0.65444,-0.85864,-0.93921,-0.88987,-0.72533,-0.47766,-0.18967,0.093111,0.33037,0.49325,0.56793,0.5561,0.47264,0.34125,0.18922,0.042239,-0.079481,-0.16359,-0.2061,-0.21032,-0.18475,-0.14054,-0.088975,-0.03964,0.00078369,0.028844,0.044019,0.047976,0.043665,0.034433,0.023344,0.012753,0.0041346,-0.001869,-0.0052739,-0.0065197
0.0072655,0.0066551,0.0039439,-0.0014504,-0.0097466,-0.020545,-0.032607,-0.043752,-0.050945,-0.050654,-0.039483,-0.01504,0.023085,0.072453,0.12727,0.1785,0.21474,0.22401,0.1961,0.12528,0.012714,-0.13198,-0.2907,-0.43859,-0.54758,-0.59135,-0.55074,-0.41871,-0.2035,0.070814,0.3669,0.63967,0.84384,0.94224,0.9131,0.7549,0.48747,0.1492,-0.20947,-0.53475,-0.77894,-0.90857,-0.90973,-0.78967,-0.57437,-0.30295,-0.020016,0.23231,0.42125,0.52781,0.54826,0.49279,0.38178,0.24089,0.095949,-0.031351,-0.12628,-0.18213,-0.19971,-0.18558,-0.14967,-0.10288,-0.05503,-0.013496,0.017358,0.036089,0.043598,0.042294,0.035246,0.025457,0.015384,0.0066972,0.00026088,-0.0037376,-0.0055821
0.0077887,0.0078227,0.0058748,0.0012391,-0.0064969,-0.017183,-0.029853,-0.042558,-0.052383,-0.055717,-0.04882,-0.02866,0.0060827,0.05404,0.11047,0.16711,0.21282,0.23513,0.22242,0.16678,0.066536,-0.071676,-0.23235,-0.39219,-0.52318,-0.59715,-0.59133,-0.49359,-0.30642,-0.048472,0.24695,0.53649,0.77378,0.91767,0.94011,0.83189,0.60517,0.29197,-0.061137,-0.40107,-0.67756,-0.85178,-0.90272,-0.83003,-0.65295,-0.40581,-0.131,0.12882,0.33794,0.47281,0.52451,0.49825,0.41057,0.2848,0.14611,0.017033,-0.085784,-0.15317,-0.18341,-0.18097,-0.1543,-0.11359,-0.068599,-0.027183,0.0055225,0.027214,0.038004,0.039706,0.035018,0.026797,0.017529,0.0090286,0.0023537,-0.0021133,-0.0044943
0.0080702,0.00873,0.0075815,0.0038188,-0.0031466,-0.013412,-0.026303,-0.040155,-0.052253,-0.059015,-0.056477,-0.04107,-0.010631,0.034555,0.090901,0.15115,0.20475,0.23907,0.24154,0.20227,0.11694,-0.010933,-0.16881,-0.33561,-0.48417,-0.58538,-0.61356,-0.55201,-0.39757,-0.16308,0.12308,0.42048,0.68305,0.86701,0.93895,0.8825,0.70199,0.42231,0.084918,-0.25936,-0.55919,-0.7717,-0.86957,-0.84506,-0.71033,-0.494,-0.23512,0.024402,0.24705,0.40553,0.48609,0.48903,0.4266,0.31921,0.19064,0.063594,-0.043897,-0.12053,-0.16221,-0.1712,-0.1543,-0.12069,-0.079794,-0.039703,-0.0061498,0.017787,0.031455,0.03603,0.033774,0.027318,0.019104,0.011033,0.0043205,-0.00047178,-0.0033052
0.0081045,0.0093452,0.008997,0.0061816,0.00015883,-0.0094037,-0.02213,-0.036677,-0.050602,-0.060455,-0.062171,-0.051774,-0.026352,0.014855,0.069478,0.13143,0.19102,0.23588,0.25281,0.23041,0.16188,0.047651,-0.10293,-0.27154,-0.43261,-0.55698,-0.61695,-0.59193,-0.4734,-0.26824,0.00066104,0.29692,0.57608,0.79308,0.9104,0.90526,0.77435,0.535,0.22253,-0.11584,-0.42931,-0.67234,-0.81236,-0.8348,-0.74461,-0.56417,-0.32812,-0.076467,0.15264,0.32914,0.43505,0.4659,0.42952,0.34288,0.22778,0.1064,-0.002437,-0.085699,-0.13713,-0.15683,-0.1498,-0.12397,-0.088201,-0.050551,-0.017166,0.008226,0.024255,0.031452,0.031594,0.027019,0.020057,0.012633,0.0060809,0.0011165,-0.002068
0.0078991,0.009653,0.010072,0.0082354,0.003281,-0.0053356,-0.017533,-0.032311,-0.047555,-0.060043,-0.065733,-0.060381,-0.04045,-0.0042154,0.047174,0.10892,0.17243,0.22593,0.25606,0.25027,0.19963,0.10167,-0.037598,-0.20297,-0.37115,-0.51377,-0.60206,-0.61232,-0.53123,-0.35985,-0.11516,0.17132,0.45798,0.69987,0.85668,0.90024,0.82008,0.6259,0.34618,0.023311,-0.29386,-0.55862,-0.7344,-0.80059,-0.7552,-0.61399,-0.40646,-0.16964,0.058864,0.24722,0.374,0.43034,0.41967,0.35521,0.25623,0.14377,0.036854,-0.050237,-0.10939,-0.13864,-0.14114,-0.12344,-0.093566,-0.059331,-0.027083,-0.0010599,0.016731,0.026198,0.028605,0.025944,0.020369,0.013776,0.0075676,0.0025862,-0.00083696
0.0074741,0.0096549,0.010777,0.009908,0.0060967,-0.0013828,-0.012726,-0.027283,-0.043307,-0.057884,-0.067114,-0.066625,-0.052407,-0.021882,0.024972,0.084706,0.14999,0.20997,0.25153,0.2614,0.22895,0.14906,0.024466,-0.133,-0.30283,-0.45828,-0.57038,-0.61324,-0.56948,-0.43467,-0.2198,0.049091,0.33427,0.59224,0.78125,0.86894,0.8385,0.6922,0.4513,0.15244,-0.1588,-0.43602,-0.63997,-0.74501,-0.74275,-0.64232,-0.46754,-0.25155,-0.030363,0.1635,0.30599,0.38445,0.39808,0.35622,0.2752,0.17438,0.07242,-0.01567,-0.080268,-0.11756,-0.12889,-0.11929,-0.095806,-0.065767,-0.035535,-0.0096916,0.0092184,0.020522,0.024971,0.024175,0.020059,0.014435,0.008731,0.0038809,0.0003362
0.0068598,0.0093682,0.011104,0.011151,0.0085053,0.0022953,-0.0079239,-0.021842,-0.038106,-0.054169,-0.06638,-0.070381,-0.061843,-0.037483,0.0037988,0.059895,0.12487,0.18902,0.23984,0.26383,0.24909,0.18821,0.080837,-0.064645,-0.23094,-0.39354,-0.52419,-0.59578,-0.58767,-0.49054,-0.30952,-0.064834,0.21047,0.47552,0.68852,0.81419,0.83041,0.73253,0.53454,0.2667,-0.029806,-0.3102,-0.53398,-0.67164,-0.70912,-0.64921,-0.50977,-0.3194,-0.11155,0.081579,0.23428,0.33075,0.36633,0.34651,0.28443,0.19733,0.10298,0.016601,-0.051081,-0.094666,-0.11377,-0.11192,-0.095005,-0.069725,-0.04225,-0.017344,0.0020308,0.014687,0.020882,0.021825,0.019174,0.01461,0.0095406,0.0049562,0.0014055
0.0060949,0.0088248,0.011065,0.011941,0.010433,0.0055631,-0.0033266,-0.016244,-0.032233,-0.049159,-0.063706,-0.071659,-0.068534,-0.050505,-0.015527,0.03557,0.098294,0.1643,0.22198,0.25805,0.25983,0.21804,0.12954,-0.00067175,-0.15872,-0.32289,-0.46643,-0.56191,-0.58639,-0.52639,-0.38155,-0.16624,0.091767,0.35523,0.58355,0.73989,0.79795,0.74697,0.59389,0.3623,0.088142,-0.18666,-0.42166,-0.58474,-0.65715,-0.63582,-0.53267,-0.3713,-0.18184,0.0047846,0.16213,0.27202,0.32643,0.32721,0.2842,0.2122,0.12759,0.045381,-0.023053,-0.071027,-0.096612,-0.10184,-0.091405,-0.071207,-0.047064,-0.023762,-0.0045523,0.0089489,0.01654,0.019032,0.017791,0.014327,0.0099866,0.0057819,0.0023333
0.0052232,0.0080673,0.01069,0.012282,0.011838,0.0083164,0.00088942,-0.010736,-0.025988,-0.043166,-0.059356,-0.070601,-0.072415,-0.060605,-0.032344,0.01271,0.071494,0.13712,0.19918,0.24496,0.26146,0.23803,0.16914,0.056595,-0.089222,-0.24975,-0.40041,-0.51434,-0.56723,-0.54229,-0.43429,-0.25188,-0.017269,0.23668,0.47169,0.65066,0.74438,0.73693,0.62876,0.43671,0.19098,-0.07037,-0.30819,-0.48901,-0.59045,-0.6043,-0.53679,-0.40633,-0.23915,-0.064081,0.09258,0.21111,0.2807,0.29989,0.27527,0.21897,0.1457,0.069739,0.002736,-0.04769,-0.078288,-0.089693,-0.085374,-0.070345,-0.049926,-0.028776,-0.010303,0.0035388,0.012146,0.015948,0.016007,0.013634,0.010079,0.0063431,0.0030917
0.0042905,0.0071464,0.010024,0.012198,0.012707,0.010486,0.0045822,-0.0055395,-0.019663,-0.036527,-0.05366,-0.067459,-0.073575,-0.067622,-0.046173,-0.0078617,0.045607,0.10885,0.17283,0.22574,0.25471,0.24823,0.1988,0.10536,-0.025095,-0.17739,-0.32961,-0.45626,-0.53258,-0.53936,-0.46725,-0.31957,-0.11295,0.12465,0.35821,0.55157,0.67382,0.70502,0.63986,0.48872,0.27576,0.034456,-0.19841,-0.38923,-0.51312,-0.55757,-0.52364,-0.42454,-0.28225,-0.12285,0.028308,0.15075,0.23157,0.2664,0.25877,0.2181,0.15712,0.089054,0.025409,-0.025604,-0.059669,-0.076167,-0.077381,-0.067384,-0.05089,-0.0323,-0.015056,-0.0013462,0.0078889,0.012728,0.013932,0.012595,0.0098449,0.0066399,0.0036644
0.0033417,0.0061168,0.0091252,0.011736,0.013058,0.012039,0.0076499,-0.00083977,-0.013531,-0.029582,-0.046989,-0.062571,-0.072235,-0.071571,-0.056734,-0.025515,0.02162,0.080765,0.14437,0.2018,0.24071,0.24918,0.21826,0.14444,0.031516,-0.10875,-0.25748,-0.39115,-0.48542,-0.51959,-0.48101,-0.36829,-0.19262,0.02317,0.24802,0.44771,0.5909,0.65473,0.62909,0.51838,0.34074,0.12459,-0.096533,-0.28996,-0.42943,-0.49911,-0.49547,-0.42683,-0.31074,-0.17008,-0.028533,0.093405,0.18141,0.22875,0.23615,0.21038,0.16204,0.10302,0.044331,-0.0055644,-0.041559,-0.061963,-0.067955,-0.062655,-0.050104,-0.034335,-0.018712,-0.0055548,0.0039318,0.0095187,0.011681,0.011289,0.009327,0.0066863,0.0040458
0.0024183,0.0050334,0.0080555,0.010956,0.012933,0.01298,0.010033,0.0032215,-0.0078264,-0.022656,-0.03973,-0.056332,-0.068727,-0.072624,-0.063947,-0.039833,0.00032599,0.054026,0.11524,0.17467,0.22083,0.24186,0.22784,0.17327,0.079079,-0.046286,-0.18716,-0.3225,-0.42909,-0.48566,-0.47713,-0.39808,-0.25472,-0.064689,0.14534,0.34396,0.50043,0.5902,0.59931,0.52692,0.38539,0.19788,-0.0059391,-0.1953,-0.34359,-0.43264,-0.45512,-0.41486,-0.32506,-0.20506,-0.076389,0.041135,0.13244,0.18896,0.20903,0.19689,0.16097,0.11165,0.059125,0.011818,-0.024658,-0.047749,-0.057645,-0.056551,-0.047794,-0.034962,-0.021239,-0.0089858,0.00040696,0.0064536,0.009368,0.0097999,0.008578,0.0065078,0.004241
0.0015558,0.003948,0.0068807,0.0099292,0.012395,0.013342,0.011715,0.0065516,-0.0027355,-0.016035,-0.032256,-0.049168,-0.06346,-0.071087,-0.067915,-0.050622,-0.01771,0.029586,0.086722,0.14586,0.19663,0.22758,0.22833,0.19188,0.11669,0.0081371,-0.12138,-0.2536,-0.36706,-0.4407,-0.45788,-0.40998,-0.29876,-0.1369,0.053563,0.24463,0.40712,0.51584,0.55406,0.51653,0.4103,0.25331,0.070946,-0.10863,-0.25943,-0.3619,-0.40575,-0.39086,-0.32631,-0.22782,-0.11434,-0.0044859,0.086554,0.14897,0.17908,0.17888,0.15469,0.11521,0.069671,0.026136,-0.009527,-0.034121,-0.046991,-0.049494,-0.04424,-0.034323,-0.022668,-0.01159,-0.0025903,0.0036432,0.0070966,0.0082114,0.0076572,0.0061391,0.0042645
0.00078243,0.0029065,0.0056639,0.0087316,0.01152,0.013186,0.012717,0.0091067,0.0016083,-0.0099582,-0.024911,-0.0415,-0.056886,-0.067365,-0.068897,-0.057892,-0.032159,0.0081672,0.059941,0.11681,0.16967,0.20785,0.22091,0.20083,0.14409,0.053291,-0.062299,-0.18739,-0.30269,-0.38805,-0.42611,-0.40586,-0.32528,-0.19248,-0.02489,0.15331,0.31526,0.43607,0.49728,0.49013,0.41702,0.29089,0.1327,-0.032558,-0.18028,-0.29043,-0.35061,-0.35741,-0.31615,-0.239,-0.14211,-0.042417,0.045281,0.11047,0.14793,0.15772,0.14414,0.11424,0.076084,0.037192,0.0034311,-0.021573,-0.036485,-0.041904,-0.039756,-0.032613,-0.023083,-0.013366,-0.0050036,0.001172,0.004957,0.0066037,0.0066258,0.0056207,0.0041378
0.00011811,0.0019465,0.0044624,0.0074377,0.010394,0.012593,0.013094,0.010889,0.0051277,-0.0046039,-0.017985,-0.033724,-0.049467,-0.061925,-0.067276,-0.061836,-0.042921,-0.0097542,0.03578,0.088773,0.1415,0.18428,0.20701,0.20112,0.16157,0.088586,-0.011463,-0.12626,-0.23902,-0.33102,-0.38492,-0.38815,-0.33565,-0.23145,-0.088602,0.072732,0.22852,0.35502,0.433,0.45112,0.40784,0.31157,0.17886,0.031222,-0.10875,-0.22136,-0.29285,-0.31727,-0.29665,-0.23978,-0.15995,-0.072149,0.0097048,0.074875,0.11707,0.13473,0.13037,0.10941,0.078681,0.044984,0.013978,-0.010482,-0.026548,-0.034177,-0.034662,-0.030054,-0.022611,-0.014357,-0.0068141,-0.00090373,0.0030207,0.0050472,0.005543,0.0049958,0.0038876
-0.00042556,0.0010965,0.003325,0.0061174,0.0091025,0.011655,0.012925,0.011942,0.0077993,-8.9541e-05,-0.011709,-0.026188,-0.04165,-0.055262,-0.06352,-0.062795,-0.050102,-0.023951,0.014865,0.062789,0.11349,0.15845,0.18822,0.19406,0.1699,0.11403,0.030229,-0.072056,-0.17865,-0.27271,-0.33752,-0.35969,-0.33189,-0.2547,-0.13712,0.0046659,0.1498,0.27633,0.3651,0.40308,0.3856,0.31707,0.20985,0.081874,-0.046735,-0.15724,-0.23534,-0.27318,-0.27005,-0.23171,-0.16864,-0.093673,-0.019533,0.043261,0.087773,0.11118,0.11446,0.10152,0.077936,0.049678,0.022035,-0.0010962,-0.017518,-0.026665,-0.029269,-0.026887,-0.021408,-0.014641,-0.0080369,-0.0025563,0.0013389,0.0036004,0.0044628,0.0043071,0.0035435
-0.000845,0.00037486,0.00229,0.0048316,0.0077283,0.010468,0.012307,0.012338,0.0096471,0.0035286,-0.0062466,-0.019174,-0.033834,-0.047863,-0.058139,-0.061217,-0.05398,-0.034425,-0.0024384,0.039636,0.08682,0.13185,0.16613,0.18115,0.17022,0.13014,0.062483,-0.025958,-0.12364,-0.21582,-0.28696,-0.32347,-0.31648,-0.2638,-0.17084,-0.050011,0.081165,0.203,0.29709,0.34955,0.35339,0.30962,0.22682,0.11937,0.0046707,-0.10003,-0.18049,-0.22766,-0.23866,-0.2166,-0.1693,-0.10741,-0.042215,0.01633,0.061031,0.088163,0.097442,0.091408,0.074428,0.051581,0.027663,0.0064601,-0.0096322,-0.019653,-0.023857,-0.023346,-0.019644,-0.014321,-0.0087157,-0.0037841,-5.7735e-05,0.0023073,0.0034311,0.0035948,0.0031355
-0.0011437,-0.00020944,0.0013845,0.0036301,0.0063454,0.0091279,0.011344,0.012176,0.010735,0.0062499,-0.0016922,-0.012897,-0.026358,-0.040175,-0.05165,-0.057613,-0.054963,-0.041369,-0.016009,0.019826,0.062416,0.10577,0.1423,0.16398,0.16392,0.13786,0.085548,0.011446,-0.075433,-0.16259,-0.23597,-0.2824,-0.29211,-0.26083,-0.1909,-0.091263,0.023841,0.13727,0.23194,0.29381,0.31433,0.29181,0.23149,0.14439,0.045086,-0.05099,-0.13022,-0.18294,-0.20468,-0.19632,-0.16329,-0.11412,-0.0585,-0.0055662,0.037563,0.066593,0.080251,0.079902,0.06879,0.051097,0.031042,0.012178,-0.0030339,-0.013358,-0.018664,-0.019651,-0.017495,-0.013517,-0.0089161,-0.004608,-0.0011584,0.0011973,0.0024842,0.0028937,0.0026925
-0.0013308,-0.00065617,0.00062423,0.0025501,0.0050161,0.0077211,0.010144,0.011566,0.011155,0.0081208,0.0019221,-0.0074957,-0.019489,-0.032591,-0.044543,-0.052516,-0.053544,-0.045134,-0.025941,0.0036094,0.04093,0.081251,0.11807,0.1441,0.15249,0.13838,0.10011,0.04012,-0.034892,-0.11467,-0.18688,-0.23919,-0.26153,-0.24814,-0.19892,-0.11976,-0.021751,0.080625,0.17198,0.23873,0.27142,0.26634,0.22592,0.15813,0.074769,-0.010774,-0.085897,-0.14085,-0.17008,-0.17272,-0.15213,-0.11481,-0.068858,-0.022398,0.017792,0.047148,0.063673,0.067765,0.061665,0.048688,0.032439,0.016148,0.0022254,-0.0079249,-0.013878,-0.015992,-0.015126,-0.012353,-0.0087177,-0.0050664,-0.0019696,0.00028525,0.001648,0.0022328,0.0022405
-0.0014199,-0.00097236,1.4682e-05,0.0016159,0.0037893,0.0063237,0.0088056,0.010622,0.01102,0.0092245,0.0046192,-0.0030395,-0.013413,-0.025429,-0.037257,-0.046445,-0.050256,-0.046172,-0.032505,-0.0089939,0.022747,0.059085,0.094626,0.12291,0.13746,0.13311,0.10719,0.060498,-0.002322,-0.073159,-0.14151,-0.19619,-0.22731,-0.22822,-0.19693,-0.13674,-0.055876,0.033808,0.11887,0.18662,0.22733,0.23585,0.21238,0.1622,0.094499,0.020556,-0.048328,-0.10274,-0.13653,-0.1475,-0.13731,-0.11062,-0.073988,-0.034406,0.0018767,0.030278,0.048327,0.055662,0.053662,0.044841,0.032181,0.018534,0.0061736,-0.0034268,-0.0096327,-0.012525,-0.012685,-0.010952,-0.0082075,-0.0052105,-0.0025118,-0.00042698,0.00093813,0.0016335,0.0018014
-0.0014273,-0.0011706,-0.00044765,0.00083979,0.0026994,0.0049972,0.0074185,0.0094573,0.010451,0.0096694,0.0064663,0.0004647,-0.0082414,-0.018925,-0.030158,-0.039878,-0.045635,-0.045001,-0.036098,-0.018159,0.0080096,0.03979,0.072852,0.10164,0.12024,0.12347,0.108,0.073368,0.022447,-0.038613,-0.10114,-0.1553,-0.19175,-0.20345,-0.18706,-0.1438,-0.079355,-0.0030872,0.073602,0.13924,0.18429,0.20275,0.19311,0.1584,0.10544,0.043416,-0.017822,-0.069511,-0.10532,-0.12215,-0.12026,-0.10276,-0.074736,-0.042043,-0.010258,0.016216,0.034654,0.044135,0.045325,0.040025,0.030622,0.019555,0.0089024,0.00012576,-0.0060085,-0.009368,-0.010299,-0.0094271,-0.0074731,-0.0050988,-0.002816,-0.00094836,0.00036065,0.0011103,0.0013924
-0.0013702,-0.0012674,-0.00077341,0.00022321,0.0017669,0.0037872,0.0060572,0.0081726,0.0095672,0.009578,0.0075627,0.0030621,-0.0040173,-0.013238,-0.023534,-0.033225,-0.040184,-0.042155,-0.037201,-0.02421,-0.0033504,0.023632,0.053394,0.081306,0.10212,0.11086,0.10388,0.079767,0.039967,-0.011114,-0.066556,-0.11794,-0.15678,-0.17603,-0.1715,-0.14277,-0.093417,-0.030514,0.03656,0.097744,0.14406,0.16914,0.17025,0.14862,0.10899,0.05859,0.0057474,-0.041645,-0.077395,-0.097861,-0.10225,-0.092391,-0.07202,-0.045906,-0.018873,0.0050002,0.022921,0.033589,0.03711,0.034673,0.028114,0.019461,0.010551,0.002774,-0.0030378,-0.0065992,-0.0080645,-0.0078746,-0.006597,-0.0047919,-0.0029199,-0.0012963,-8.6549e-05,0.00067076,0.0010259
-0.001266,-0.0012813,-0.00097836,-0.00024114,0.00099986,0.0027243,0.00478,0.0068559,0.008483,0.0090768,0.0080279,0.0048368,-0.00072332,-0.0084481,-0.017587,-0.026818,-0.034347,-0.038148,-0.036328,-0.027571,-0.011568,0.010658,0.03664,0.06264,0.084133,0.096543,0.096133,0.080868,0.051063,0.0096478,-0.038059,-0.085083,-0.12392,-0.14785,-0.15226,-0.13554,-0.099544,-0.049337,0.0076138,0.062745,0.1079,0.13672,0.1457,0.13468,0.10667,0.067115,0.022851,-0.01923,-0.053315,-0.075532,-0.084358,-0.080563,-0.066756,-0.046672,-0.024365,-0.0034888,0.013239,0.024299,0.029377,0.02916,0.024994,0.01851,0.011287,0.0045994,-0.00071159,-0.0042603,-0.0060533,-0.006374,-0.0056527,-0.0043487,-0.0028641,-0.0014939,-0.00041208,0.00031658,0.00070936
-0.0011311,-0.0012314,-0.0010814,-0.00056722,0.00039574,0.0018243,0.003628,0.0055781,0.0072978,0.0082874,0.0079897,0.0058997,0.0017038,-0.0045723,-0.012443,-0.020907,-0.028497,-0.033449,-0.033992,-0.028721,-0.016996,0.00073247,0.022751,0.046144,0.067126,0.081621,0.086003,0.077879,0.056732,0.02428,-0.015572,-0.057221,-0.094233,-0.12045,-0.13115,-0.12394,-0.099332,-0.060701,-0.013774,0.034377,0.076568,0.10676,0.12104,0.11825,0.099981,0.070164,0.034207,-0.0020426,-0.033322,-0.05577,-0.067403,-0.068195,-0.059805,-0.045042,-0.027214,-0.0094931,0.0055842,0.01641,0.022383,0.023788,0.021555,0.016952,0.011293,0.0057101,0.0010118,-0.0023615,-0.0043085,-0.0049852,-0.0047018,-0.003823,-0.0026894,-0.0015674,-0.0006293,4.4427e-05,0.00044616
-0.00097955,-0.001136,-0.0011029,-0.00077339,-5.6312e-05,0.0010911,0.0026269,0.0043922,0.006095,0.0073202,0.0075753,0.0063755,0.0033603,-0.0015736,-0.0081536,-0.015658,-0.022925,-0.028462,-0.030671,-0.028154,-0.020062,-0.0064151,0.011696,0.032088,0.051688,0.066974,0.074577,0.071964,0.058046,0.033589,0.0012949,-0.034485,-0.068399,-0.094988,-0.10967,-0.10963,-0.094368,-0.065903,-0.028431,0.012384,0.05041,0.080115,0.097505,0.10074,0.090348,0.06895,0.040687,0.010371,-0.017382,-0.038908,-0.051989,-0.056029,-0.051926,-0.041692,-0.027937,-0.013335,-0.00017119,0.0099628,0.016286,0.018786,0.018047,0.015015,0.010751,0.0062294,0.0021977,-0.00088647,-0.0028495,-0.0037485,-0.0037926,-0.0032611,-0.0024339,-0.0015442,-0.00075445,-0.00015273,0.00023595
-0.0008234,-0.0010116,-0.0010628,-0.00088032,-0.00037293,0.00051831,0.0017877,0.0033341,0.0049397,0.0062699,0.0069028,0.0063922,0.0043626,0.0006243,-0.0047142,-0.011165,-0.017838,-0.023512,-0.026787,-0.026342,-0.021223,-0.011144,0.0032988,0.020547,0.038189,0.053268,0.062766,0.064178,0.056066,0.038483,0.013149,-0.016691,-0.046716,-0.072232,-0.088997,-0.094017,-0.086131,-0.066277,-0.037364,-0.0037772,0.029399,0.057274,0.075987,0.083324,0.079013,0.064637,0.043227,0.018624,-0.0052468,-0.025043,-0.038491,-0.044624,-0.043756,-0.037235,-0.027048,-0.015382,-0.0042297,0.0049075,0.011162,0.014311,0.014664,0.012893,0.0098285,0.0062841,0.0029256,0.00020026,-0.0016758,-0.0026868,-0.0029601,-0.0027006,-0.0021314,-0.0014504,-0.00080508,-0.0002844,7.5588e-05
-0.0006719,-0.00087251,-0.00097976,-0.00090921,-0.00057425,9.2258e-05,0.0011103,0.0024239,0.0038785,0.005213,0.0060764,0.0060725,0.0048349,0.0021236,-0.002073,-0.0074544,-0.013369,-0.018843,-0.022692,-0.023714,-0.020933,-0.013863,-0.0027245,0.01144,0.026802,0.040955,0.051282,0.055426,0.05178,0.0399,0.020729,-0.003425,-0.029184,-0.052629,-0.069977,-0.078266,-0.075927,-0.063102,-0.041653,-0.014844,0.013233,0.038388,0.057052,0.066866,0.067018,0.058281,0.042756,0.02341,0.0034821,-0.014082,-0.027089,-0.034363,-0.035795,-0.032199,-0.025026,-0.016012,-0.0068388,0.0011301,0.0070128,0.01045,0.011546,0.010746,0.0086764,0.0059966,0.0032812,0.00094723,-0.0007709,-0.0018076,-0.0022265,-0.00217,-0.0018101,-0.0013099,-0.00079864,-0.00036142,-4.0089e-05
-0.00053177,-0.00073014,-0.00087017,-0.00088034,-0.00068184,-0.00020551,0.00058519,0.0016684,0.0029412,0.0042072,0.0051828,0.0055273,0.0049004,0.0030403,-0.00014654,-0.0045049,-0.0095807,-0.014624,-0.018662,-0.020637,-0.019611,-0.014988,-0.0067182,0.004567,0.017539,0.030297,0.04064,0.046439,0.046059,0.038735,0.024827,0.0058762,-0.01557,-0.036336,-0.053153,-0.063245,-0.064844,-0.057538,-0.042368,-0.021655,0.0014134,0.023351,0.040981,0.051971,0.055182,0.050788,0.040141,0.025445,0.0092948,-0.0057941,-0.017801,-0.025469,-0.028405,-0.027012,-0.022295,-0.015586,-0.0082654,-0.0015267,0.003785,0.0072361,0.0087845,0.0086946,0.0074195,0.0054775,0.0033497,0.0014098,-0.00010768,-0.0011065,-0.001603,-0.001689,-0.0014923,-0.0011431,-0.0007514,-0.00039499,-0.00011744
-0.00040731,-0.00059317,-0.00074767,-0.00081197,-0.00071697,-0.00039594,0.00019683,0.0010639,0.0021429,0.0032923,0.0042897,0.0048514,0.0046731,0.0034931,0.0011673,-0.002256,-0.006482,-0.010954,-0.014895,-0.017407,-0.017628,-0.01492,-0.0090527,-0.00034454,0.010288,0.021394,0.031175,0.037774,0.039628,0.035798,0.026229,0.011855,-0.0054792,-0.023278,-0.038804,-0.049558,-0.053737,-0.050577,-0.040504,-0.025071,-0.0066766,0.011864,0.027816,0.038994,0.044101,0.042895,0.036144,0.025413,0.012719,0.00014469,-0.010519,-0.018029,-0.021821,-0.022,-0.019209,-0.014433,-0.0087743,-0.0032428,0.0013874,0.0046568,0.0064256,0.0068222,0.0061563,0.0048221,0.0032105,0.0016453,0.00034783,-0.0005699,-0.0010915,-0.0012694,-0.0011941,-0.00096667,-0.00067774,-0.00039584,-0.00016337
-0.00030077,-0.00046762,-0.00062293,-0.00071974,-0.00069937,-0.00050055,-7.405e-05,0.00059879,0.0014865,0.002492,0.003447,0.0041216,0.0042534,0.0035956,0.0019787,-0.00062337,-0.0040391,-0.0078733,-0.011524,-0.014251,-0.015292,-0.014019,-0.010095,-0.003608,0.004852,0.014217,0.023061,0.029818,0.033058,0.031784,0.025663,0.015172,0.00158,-0.013215,-0.026988,-0.037569,-0.043234,-0.043026,-0.036937,-0.025918,-0.011702,0.0035052,0.017422,0.028085,0.034167,0.03516,0.031401,0.023936,0.01428,0.0041063,-0.005048,-0.012022,-0.01617,-0.017388,-0.016044,-0.012836,-0.0086117,-0.0042042,-0.00029486,0.0026657,0.0044806,0.0051796,0.0049591,0.0041076,0.0029335,0.0017083,0.00063238,-0.00017856,-0.00068704,-0.00091614,-0.0009264,-0.00079335,-0.00058966,-0.00037373,-0.0001847
-0.00021272,-0.00035715,-0.0005038,-0.0006163,-0.00064633,-0.00053987,-0.00024824,0.00025671,0.00096569,0.0018168,0.0026872,0.0033963,0.0037248,0.0034502,0.0023964,0.00048983,-0.0021894,-0.0053758,-0.0086189,-0.011326,-0.012847,-0.012595,-0.010183,-0.0055456,0.00098075,0.0086431,0.016346,0.022806,0.026769,0.027254,0.02377,0.01646,0.0061401,-0.0057987,-0.0176,-0.02744,-0.033748,-0.035499,-0.032398,-0.024941,-0.014322,-0.0022127,0.0095377,0.01923,0.025594,0.027979,0.026414,0.021544,0.014463,0.0064747,-0.0011425,-0.0073502,-0.011486,-0.013318,-0.013008,-0.011022,-0.0079943,-0.0045889,-0.0013864,0.0011952,0.002933,0.0037899,0.0038762,0.0033933,0.0025771,0.0016487,0.00078251,8.9995e-05,-0.00037971,-0.000629,-0.00069503,-0.00063209,-0.00049666,-0.00033702,-0.00018782
-0.00014245,-0.00026347,-0.00039551,-0.00051133,-0.00057229,-0.00053238,-0.00034629,1.8602e-05,0.00056798,0.0012666,0.0020287,0.0027169,0.0031531,0.0031444,0.0025212,0.0011836,-0.00085282,-0.003423,-0.0062026,-0.0087309,-0.01047,-0.010898,-0.0096178,-0.0064659,-0.0015962,0.0044902,0.01098,0.016851,0.021042,0.022641,0.021084,0.01629,0.008729,-0.0006219,-0.010419,-0.019175,-0.025516,-0.028432,-0.027463,-0.022779,-0.015148,-0.0057947,0.003828,0.012295,0.018453,0.021597,0.021554,0.018671,0.013696,0.0076181,0.0014666,-0.0038628,-0.0077383,-0.0098562,-0.010238,-0.0091686,-0.0071036,-0.0045581,-0.0020112,0.00016605,0.0017472,0.0026544,0.0029348,0.0027212,0.0021876,0.0015091,0.00083222,0.00025909,-0.00015665,-0.00040381,-0.00050205,-0.00048855,-0.0004058,-0.00029252,-0.00017836
-8.8388e-05,-0.00018674,-0.00030106,-0.00041168,-0.00048862,-0.00049391,-0.00038726,-0.00013525,0.00027706,0.00083375,0.0014782,0.0021094,0.0025871,0.0027495,0.0024418,0.0015536,5.8119e-05,-0.0019544,-0.004261,-0.0065149,-0.0082845,-0.0091211,-0.0086469,-0.0066471,-0.0031475,0.0015435,0.0068443,0.011967,0.016038,0.018252,0.018028,0.015151,0.0098369,0.0027367,-0.0051559,-0.012662,-0.018623,-0.022103,-0.022563,-0.019952,-0.01472,-0.0077249,-7.514e-05,0.0070714,0.012708,0.016139,0.017076,0.015647,0.012338,0.0078695,0.0030467,-0.0013825,-0.0048457,-0.0070135,-0.007814,-0.0074002,-0.0060832,-0.0042501,-0.0022846,-0.00050435,0.00087645,0.0017585,0.0021456,0.0021181,0.0017995,0.0013241,0.00081145,0.00035112,-3.7271e-06,-0.00023388,-0.00034657,-0.00036563,-0.00032188,-0.00024548,-0.00016101
-4.8428e-05,-0.00012602,-0.00022167,-0.00032178,-0.0004038,-0.00043732,-0.00038787,-0.0002237,7.4997e-05,0.00050557,0.0010336,0.0015875,0.0020602,0.0023202,0.0022321,0.001686,0.00063034,-0.00089807,-0.0027549,-0.004688,-0.0063611,-0.0074015,-0.0074681,-0.0063274,-0.0039228,-0.00042063,0.0037824,0.0080974,0.011827,0.014284,0.014918,0.013441,0.0098949,0.0046817,-0.0014909,-0.0077175,-0.013048,-0.016657,-0.01799,-0.016861,-0.013488,-0.0084409,-0.0025383,0.0033063,0.0082447,0.011634,0.013128,0.012713,0.010674,0.0075144,0.0038469,0.00027624,-0.0027001,-0.0047578,-0.0057709,-0.0057985,-0.0050406,-0.0037777,-0.0023082,-0.00089533,0.00026858,0.0010771,0.0015064,0.0015984,0.0014366,0.0011206,0.00074532,0.00038639,9.3217e-05,-0.00011115,-0.00022562,-0.00026401,-0.00024778,-0.00019971,-0.00013952
-2.0242e-05,-7.9658e-05,-0.00015721,-0.00024401,-0.00032367,-0.00037253,-0.00036209,-0.00026377,-5.6069e-05,0.00026681,0.00068658,0.001155,0.0015927,0.001896,0.0019508,0.0016549,0.00094467,-0.00017877,-0.0016299,-0.0032326,-0.0047326,-0.0058299,-0.0062293,-0.0057013,-0.0041418,-0.0016171,0.0016179,0.005138,0.0084033,0.010846,0.011973,0.011468,0.0092637,0.0055789,0.00089511,-0.0041132,-0.0086918,-0.012138,-0.013925,-0.013797,-0.01181,-0.0083181,-0.0039032,0.00073534,0.0049054,0.0080394,0.009781,0.010026,0.0089162,0.0067862,0.0040865,0.001292,-0.00118,-0.0030302,-0.0041076,-0.0044087,-0.0040505,-0.0032284,-0.0021673,-0.0010788,-0.00012862,0.0005795,0.0010062,0.0011666,0.0011134,0.00091813,0.00065381,0.00038232,0.00014739,-2.7123e-05,-0.00013497,-0.00018284,-0.00018487,-0.00015769,-0.00011671
-1.4989e-06,-4.5598e-05,-0.00010663,-0.0001792,-0.00025185,-0.00030676,-0.00032103,-0.00027005,-0.00013277,0.0001014,0.00042538,0.00080854,0.0011943,0.0015031,0.001642,0.0015206,0.0010722,0.00027605,-0.00082454,-0.0021125,-0.0034017,-0.0044576,-0.0050339,-0.0049194,-0.0039881,-0.0022404,0.00017401,0.0029602,0.0057126,0.0079765,0.0093281,0.0094561,0.0082307,0.0057423,0.0023003,-0.0016103,-0.0054074,-0.0085133,-0.010456,-0.010951,-0.0099556,-0.0076635,-0.0044709,-0.00089702,0.0025102,0.0052693,0.0070416,0.0076757,0.0072144,0.0058659,0.0039493,0.0018268,-0.00016293,-0.0017568,-0.0027988,-0.003247,-0.0031596,-0.0026658,-0.0019298,-0.0011165,-0.00036394,0.00023315,0.00062852,0.00081973,0.00083709,0.0007297,0.00055202,0.0003532,0.00017044,2.6445e-05,-6.9827e-05,-0.00012019,-0.0001333,-0.00012088,-9.4558e-05
9.9773e-06,-2.1665e-05,-6.8285e-05,-0.00012702,-0.00019021,-0.00024483,-0.00027307,-0.00025447,-0.00016976,-6.2118e-06,0.0002364,0.00054036,0.0008669,0.0011569,0.0013368,0.0013299,0.0010726,0.00053209,-0.00027685,-0.0012814,-0.0023501,-0.003305,-0.0039472,-0.0040918,-0.0036085,-0.0024576,-0.00071423,0.0014267,0.0036703,0.0056633,0.0070539,0.0075568,0.007013,0.005429,0.0029873,2.3527e-05,-0.003027,-0.0057034,-0.0076004,-0.0084392,-0.008116,-0.0067161,-0.0044941,-0.0018227,0.00087714,0.0032107,0.0048743,0.0056988,0.0056641,0.0048864,0.0035825,0.0020199,0.00046564,-0.00085825,-0.0018039,-0.0023092,-0.0023923,-0.0021331,-0.0016471,-0.0010592,-0.00048053,6.3332e-06,0.00035431,0.00055049,0.00060939,0.000563,0.00045064,0.00031017,0.00017218,5.7037e-05,-2.53e-05,-7.3554e-05,-9.2454e-05,-8.9863e-05,-7.433e-05
