6.8946e-10,3.0388e-09,7.8527e-09,1.6756e-08,3.1972e-08,5.626e-08,9.2582e-08,1.4337e-07,2.092e-07,2.8675e-07,3.6598e-07,4.2679e-07,4.3543e-07,3.4163e-07,7.7546e-08,-4.3995e-07,-1.3023e-06,-2.5962e-06,-4.3846e-06,-6.6823e-06,-9.4293e-06,-1.2467e-05,-1.552e-05,-1.8201e-05,-2.0024e-05,-2.0452e-05,-1.8962e-05,-1.513e-05,-8.7181e-06,2.482e-07,1.1426e-05,2.4147e-05,3.7456e-05,5.0205e-05,6.1183e-05,6.927e-05,7.3596e-05,7.3661e-05,6.9416e-05,6.1267e-05,5.0024e-05,3.6789e-05,2.2802e-05,9.2805e-06,-2.7241e-06,-1.2439e-05,-1.943e-05,-2.3602e-05,-2.5163e-05,-2.4544e-05,-2.2306e-05,-1.9048e-05,-1.5327e-05,-1.1603e-05,-8.2114e-06,-5.3535e-06,-3.1141e-06,-1.4855e-06,-3.9786e-07,2.5194e-07,5.7628e-07,6.799e-07,6.4996e-07,5.5219e-07,4.3146e-07,3.1488e-07,2.1614e-07,1.3981e-07,8.5005e-08,4.8202e-08,2.5056e-08,1.1487e-08,4.1638e-09,6.2673e-10,-7.9377e-10
-3.4705e-09,-2.6585e-09,9.2423e-10,9.9461e-09,2.8588e-08,6.29e-08,1.2092e-07,2.1229e-07,3.4695e-07,5.326e-07,7.7035e-07,1.0486e-06,1.3351e-06,1.5682e-06,1.6486e-06,1.4347e-06,7.4332e-07,-6.3911e-07,-2.9336e-06,-6.3322e-06,-1.0949e-05,-1.6764e-05,-2.3569e-05,-3.0929e-05,-3.8164e-05,-4.4376e-05,-4.8517e-05,-4.9508e-05,-4.6387e-05,-3.8482e-05,-2.5561e-05,-7.9513e-06,1.3418e-05,3.706e-05,6.1066e-05,8.3322e-05,0.00010177,0.00011468,0.00012087,0.0001199,0.00011206,9.8375e-05,8.0393e-05,5.9992e-05,3.9108e-05,1.9503e-05,2.5666e-06,-1.0791e-05,-2.0178e-05,-2.5675e-05,-2.7736e-05,-2.7061e-05,-2.4454e-05,-2.0709e-05,-1.6515e-05,-1.2405e-05,-8.7404e-06,-5.7153e-06,-3.3901e-06,-1.7274e-06,-6.3072e-07,2.2167e-08,3.5466e-07,4.755e-07,4.7112e-07,4.0402e-07,3.1523e-07,2.2857e-07,1.5555e-07,9.9726e-08,6.0194e-08,3.4023e-08,1.7783e-08,8.365e-09,3.3082e-09
-1.1775e-08,-1.5845e-08,-1.8709e-08,-1.7171e-08,-5.3477e-09,2.6523e-08,9.332e-08,2.1592e-07,4.2117e-07,7.4002e-07,1.2029e-06,1.8314e-06,2.6253e-06,3.5453e-06,4.4926e-06,5.289e-06,5.6606e-06,5.2339e-06,3.549e-06,9.8904e-08,-5.6048e-06,-1.3938e-05,-2.5053e-05,-3.8763e-05,-5.4449e-05,-7.1008e-05,-8.6872e-05,-0.00010011,-0.00010864,-0.00011046,-0.00010398,-8.8323e-05,-6.3537e-05,-3.0743e-05,7.9077e-06,4.942e-05,9.0291e-05,0.00012694,0.00015615,0.00017553,0.00018373,0.00018066,0.00016738,0.00014593,0.00011898,8.9454e-05,6.0137e-05,3.3369e-05,1.0833e-05,-6.532e-06,-1.8497e-05,-2.5427e-05,-2.8105e-05,-2.754e-05,-2.4795e-05,-2.084e-05,-1.6471e-05,-1.2268e-05,-8.5904e-06,-5.613e-06,-3.3659e-06,-1.7849e-06,-7.5493e-07,-1.4441e-07,1.7125e-07,2.9673e-07,3.118e-07,2.7207e-07,2.1271e-07,1.5349e-07,1.0362e-07,6.584e-08,3.9417e-08,2.2161e-08,1.1596e-08
-2.3956e-08,-3.7552e-08,-5.5084e-08,-7.4607e-08,-9.0629e-08,-9.1671e-08,-5.7129e-08,4.6275e-08,2.6773e-07,6.7404e-07,1.3479e-06,2.3807e-06,3.8569e-06,5.8291e-06,8.2819e-06,1.1088e-05,1.3962e-05,1.6416e-05,1.7742e-05,1.7019e-05,1.3177e-05,5.1032e-06,-8.1771e-06,-2.7294e-05,-5.23e-05,-8.2467e-05,-0.00011615,-0.0001508,-0.00018304,-0.00020906,-0.00022499,-0.00022748,-0.00021424,-0.00018448,-0.0001392,-8.1239e-05,-1.5016e-05,5.3967e-05,0.00011979,0.00017687,0.00022067,0.00024821,0.00025839,0.00025197,0.00023137,0.00020013,0.00016242,0.00012242,8.3826e-05,4.9501e-05,2.1287e-05,3.7379e-09,-1.4423e-05,-2.2738e-05,-2.6101e-05,-2.5837e-05,-2.3235e-05,-1.9406e-05,-1.5207e-05,-1.1226e-05,-7.8029e-06,-5.0807e-06,-3.0617e-06,-1.6635e-06,-7.637e-07,-2.3327e-07,4.3887e-08,1.6119e-07,1.8724e-07,1.682e-07,1.3241e-07,9.5299e-08,6.3888e-08,4.0238e-08,2.388e-08
-3.6194e-08,-6.3458e-08,-1.0474e-07,-1.6287e-07,-2.3773e-07,-3.2257e-07,-3.9848e-07,-4.2682e-07,-3.4008e-07,-3.2537e-08,6.4703e-07,1.8966e-06,3.9515e-06,7.0583e-06,1.1428e-05,1.7168e-05,2.4185e-05,3.2092e-05,4.0104e-05,4.6971e-05,5.0974e-05,5.0001e-05,4.1731e-05,2.3941e-05,-5.1119e-06,-4.6241e-05,-9.8924e-05,-0.00016099,-0.00022854,-0.00029606,-0.00035692,-0.00040411,-0.0004311,-0.00043284,-0.00040658,-0.0003525,-0.00027384,-0.00017666,-6.9135e-05,3.9445e-05,0.00013988,0.0002242,0.00028659,0.00032395,0.00033605,0.00032529,0.00029604,0.00025388,0.00020475,0.00015415,0.00010663,6.5392e-05,3.2248e-05,7.7244e-06,-8.668e-06,-1.8107e-05,-2.212e-05,-2.2303e-05,-2.0108e-05,-1.6717e-05,-1.2996e-05,-9.5082e-06,-6.5545e-06,-4.2445e-06,-2.5595e-06,-1.4103e-06,-6.7999e-07,-2.5231e-07,-2.7414e-08,7.2048e-08,1.0096e-07,9.5134e-08,7.592e-08,5.4667e-08,3.6444e-08
-3.9134e-08,-7.9738e-08,-1.4886e-07,-2.591e-07,-4.2389e-07,-6.5346e-07,-9.4758e-07,-1.2837e-06,-1.6002e-06,-1.7748e-06,-1.6005e-06,-7.6382e-07,1.1675e-06,4.7371e-06,1.0562e-05,1.9248e-05,3.1266e-05,4.6767e-05,6.5374e-05,8.5973e-05,0.00010654,0.00012407,0.00013465,0.00013377,0.00011681,7.9704e-05,1.9786e-05,-6.3434e-05,-0.00016763,-0.00028732,-0.00041405,-0.00053694,-0.00064392,-0.0007231,-0.0007645,-0.00076145,-0.00071181,-0.00061839,-0.00048878,-0.00033441,-0.0001691,-7.2259e-06,0.00013804,0.00025632,0.00034099,0.00038967,0.00040393,0.00038859,0.00035065,0.00029804,0.00023856,0.00017894,0.00012432,7.8004e-05,4.1556e-05,1.5068e-05,-2.422e-06,-1.25e-05,-1.6993e-05,-1.767e-05,-1.6051e-05,-1.3313e-05,-1.0279e-05,-7.4548e-06,-5.0941e-06,-3.2759e-06,-1.9706e-06,-1.0936e-06,-5.4329e-07,-2.235e-07,-5.4873e-08,2.2002e-08,4.7978e-08,4.8965e-08,4.001e-08
-1.7574e-08,-6.0839e-08,-1.4697e-07,-3.0311e-07,-5.6573e-07,-9.7892e-07,-1.588e-06,-2.4263e-06,-3.4914e-06,-4.7106e-06,-5.8932e-06,-6.6748e-06,-6.461e-06,-4.3844e-06,7.0472e-07,1.0189e-05,2.5552e-05,4.8151e-05,7.8881e-05,0.00011777,0.00016354,0.0002132,0.00026188,0.00030279,0.00032768,0.00032758,0.00029402,0.00022041,0.00010351,-5.529e-05,-0.00024923,-0.00046612,-0.00068917,-0.00089866,-0.0010742,-0.0011976,-0.0012549,-0.0012392,-0.0011509,-0.00099845,-0.00079661,-0.00056486,-0.00032456,-9.6233e-05,0.00010283,0.00026038,0.00037002,0.00043118,0.0004483,0.00042939,0.00038445,0.00032385,0.00025706,0.00019173,0.00013323,8.4708e-05,4.7269e-05,2.0516e-05,3.0495e-06,-7.0258e-06,-1.1704e-05,-1.2801e-05,-1.1799e-05,-9.7947e-06,-7.5222e-06,-5.4106e-06,-3.6641e-06,-2.3376e-06,-1.3995e-06,-7.7844e-07,-3.9366e-07,-1.7203e-07,-5.5187e-08,-8.2615e-10,1.9329e-08
4.5807e-08,2.6717e-08,-3.8999e-08,-1.9375e-07,-5.029e-07,-1.0595e-06,-1.9849e-06,-3.4207e-06,-5.5069e-06,-8.3388e-06,-1.1899e-05,-1.5958e-05,-1.9958e-05,-2.2876e-05,-2.3111e-05,-1.842e-05,-5.9604e-06,1.7517e-05,5.5287e-05,0.00011006,0.00018321,0.00027394,0.00037846,0.00048943,0.00059579,0.00068332,0.00073575,0.00073671,0.00067207,0.00053259,0.00031621,2.9688e-05,-0.00031091,-0.00068113,-0.0010505,-0.001386,-0.0016561,-0.0018352,-0.001907,-0.0018663,-0.0017202,-0.0014863,-0.0011904,-0.00086252,-0.00053301,-0.00022885,2.9219e-05,0.00022829,0.00036361,0.00043774,0.00045886,0.00043863,0.00039009,0.00032575,0.0002563,0.00018981,0.00013154,8.4177e-05,4.8319e-05,2.3104e-05,6.8209e-06,-2.5747e-06,-7.0837e-06,-8.4327e-06,-7.9692e-06,-6.6504e-06,-5.0904e-06,-3.6346e-06,-2.4396e-06,-1.5431e-06,-9.1794e-07,-5.0992e-07,-2.6039e-07,-1.1804e-07,-4.3209e-08
1.6068e-07,2.1012e-07,2.358e-07,1.8888e-07,-1.8307e-08,-5.2859e-07,-1.556e-06,-3.3961e-06,-6.4211e-06,-1.1049e-05,-1.7672e-05,-2.653e-05,-3.7521e-05,-4.9959e-05,-6.2284e-05,-7.1793e-05,-7.444e-05,-6.4814e-05,-3.6384e-05,1.79e-05,0.00010461,0.00022848,0.00039083,0.00058795,0.00080988,0.0010399,0.0012547,0.0014266,0.0015259,0.0015252,0.0014035,0.0011505,0.00076969,0.00027992,-0.00028563,-0.00088239,-0.0014594,-0.0019658,-0.0023572,-0.0026013,-0.0026822,-0.0026016,-0.0023778,-0.0020426,-0.0016357,-0.0011998,-0.00077471,-0.00039291,-7.7094e-05,0.00016099,0.00031982,0.00040615,0.00043242,0.00041389,0.00036618,0.00030331,0.00023651,0.00017375,0.00011981,7.6811e-05,4.4835e-05,2.2696e-05,8.5546e-06,4.0289e-07,-3.6096e-06,-5.0068e-06,-4.9304e-06,-4.1614e-06,-3.1834e-06,-2.2592e-06,-1.5037e-06,-9.4262e-07,-5.565e-07,-3.0794e-07,-1.5789e-07
3.1342e-07,4.8412e-07,6.9769e-07,9.2254e-07,1.0781e-06,1.0028e-06,4.141e-07,-1.1358e-06,-4.2978e-06,-9.9406e-06,-1.9119e-05,-3.2962e-05,-5.2463e-05,-7.813e-05,-0.00010951,-0.00014462,-0.00017936,-0.00020698,-0.00021792,-0.00019997,-0.00013922,-2.161e-05,0.00016473,0.00042668,0.00076315,0.0011626,0.0016014,0.0020442,0.002446,0.0027563,0.0029254,0.0029117,0.0026882,0.002249,0.0016116,0.00081753,-7.1714e-05,-0.00098173,-0.0018343,-0.0025573,-0.0030937,-0.0034084,-0.0034913,-0.0033572,-0.0030414,-0.0025938,-0.0020708,-0.001528,-0.0010133,-0.00056289,-0.00019899,6.9768e-05,0.00024639,0.00034241,0.00037433,0.00036038,0.00031786,0.00026138,0.00020202,0.00014713,0.0001008,6.4515e-05,3.7998e-05,1.9915e-05,8.4906e-06,1.9224e-06,-1.371e-06,-2.6383e-06,-2.7809e-06,-2.395e-06,-1.8381e-06,-1.299e-06,-8.5785e-07,-5.3298e-07,-3.1203e-07
4.5041e-07,7.786e-07,1.2679e-06,1.9441e-06,2.7921e-06,3.7106e-06,4.4441e-06,4.4923e-06,3.0043e-06,-1.328e-06,-1.0343e-05,-2.6406e-05,-5.2266e-05,-9.0719e-05,-0.00014401,-0.00021295,-0.00029587,-0.00038734,-0.00047713,-0.00054947,-0.00058311,-0.00055249,-0.00043013,-0.00019045,0.00018548,0.00070463,0.0013573,0.0021136,0.0029231,0.0037168,0.0044136,0.0049292,0.0051876,0.0051322,0.0047359,0.0040077,0.0029936,0.0017726,0.0004479,-0.00086646,-0.0020598,-0.0030387,-0.0037375,-0.0041248,-0.0042042,-0.0040102,-0.0036005,-0.0030457,-0.0024191,-0.0017874,-0.0012041,-0.00070594,-0.00031219,-2.6743e-05,0.0001586,0.00025983,0.00029668,0.00028912,0.00025496,0.00020843,0.00015974,0.0001153,7.8386e-05,4.9964e-05,2.9533e-05,1.5806e-05,7.2314e-06,2.3222e-06,-1.705e-07,-1.1968e-06,-1.4197e-06,-1.2644e-06,-9.7874e-07,-6.9039e-07,-4.5292e-07
4.705e-07,9.3541e-07,1.7152e-06,2.9416e-06,4.7475e-06,7.2194e-06,1.0312e-05,1.3715e-05,1.6662e-05,1.7701e-05,1.4433e-05,3.2992e-06,-2.0528e-05,-6.3005e-05,-0.00013073,-0.00022998,-0.00036521,-0.00053704,-0.00073996,-0.00096008,-0.0011734,-0.0013453,-0.0014317,-0.0013828,-0.0011486,-0.00068711,2.7096e-05,0.00099395,0.0021815,0.003523,0.0049192,0.0062465,0.00737,0.0081604,0.0085122,0.0083597,0.0076889,0.0065413,0.0050109,0.0032323,0.0013633,-0.00043503,-0.0020189,-0.003278,-0.0041464,-0.0046056,-0.0046811,-0.0044335,-0.0039455,-0.0033087,-0.0026104,-0.0019251,-0.0013076,-0.00079221,-0.00039315,-0.00010873,7.4056e-05,0.00017457,0.00021423,0.00021329,0.00018879,0.00015372,0.00011691,8.3637e-05,5.6381e-05,3.5725e-05,2.1109e-05,1.1432e-05,5.458e-06,2.057e-06,3.168e-07,-4.3357e-07,-6.4814e-07,-6.099e-07,-4.7976e-07
2.4086e-07,7.1949e-07,1.6483e-06,3.3012e-06,6.0391e-06,1.0286e-05,1.6455e-05,2.4805e-05,3.5187e-05,4.6686e-05,5.7134e-05,6.2561e-05,5.6647e-05,3.0349e-05,-2.8102e-05,-0.00013258,-0.00029762,-0.00053592,-0.0008549,-0.0012525,-0.0017129,-0.0022027,-0.0026693,-0.0030413,-0.0032339,-0.0031569,-0.0027274,-0.001884,-0.00060208,0.0010945,0.0031267,0.0053607,0.0076184,0.0096951,0.011384,0.012505,0.012928,0.012592,0.01152,0.0098097,0.0076262,0.0051765,0.0026827,0.00035368,-0.0016391,-0.0031786,-0.0042097,-0.0047372,-0.0048158,-0.0045351,-0.0040024,-0.0033264,-0.002604,-0.001912,-0.0013027,-0.00080497,-0.00042698,-0.00016183,6.9877e-06,0.00010044,0.00013987,0.00014428,0.0001289,0.00010479,7.9186e-05,5.6161e-05,3.7525e-05,2.3605e-05,1.3903e-05,7.5718e-06,3.7099e-06,1.5269e-06,4.0589e-07,-9.288e-08,-2.5869e-07
-3.5241e-07,-1.114e-07,6.0139e-07,2.193e-06,5.2809e-06,1.073e-05,1.9643e-05,3.3275e-05,5.2796e-05,7.8874e-05,0.000111,0.00014659,0.00017982,0.00020049,0.00019299,0.0001359,2.559e-06,-0.00023688,-0.00061162,-0.0011445,-0.0018447,-0.0026999,-0.0036693,-0.0046783,-0.0056189,-0.0063546,-0.0067329,-0.006604,-0.005843,-0.0043748,-0.0021946,0.00061785,0.0038965,0.007399,0.010831,0.013881,0.016259,0.017736,0.018174,0.017549,0.015945,0.013547,0.010612,0.0074306,0.0042899,0.0014395,-0.00093426,-0.0027218,-0.0038913,-0.0044794,-0.0045732,-0.0042904,-0.003758,-0.0030955,-0.0024028,-0.0017534,-0.0011939,-0.00074589,-0.00041191,-0.00018117,-3.5564e-05,4.5469e-05,8.1512e-05,8.9125e-05,8.0999e-05,6.5982e-05,4.9616e-05,3.4908e-05,2.3115e-05,1.4422e-05,8.4501e-06,4.6072e-06,2.2919e-06,9.9395e-07,3.273e-07
-1.3202e-06,-1.6704e-06,-1.7581e-06,-1.1339e-06,9.908e-07,5.8778e-06,1.5388e-05,3.2045e-05,5.8967e-05,9.9548e-05,0.00015679,0.00023216,0.00032393,0.00042507,0.0005208,0.00058643,0.00058587,0.00047177,0.00018808,-0.0003243,-0.0011185,-0.0022299,-0.0036622,-0.0053743,-0.0072706,-0.0091973,-0.010948,-0.012279,-0.012938,-0.012697,-0.01139,-0.0089491,-0.0054287,-0.0010151,0.0039833,0.0091658,0.014086,0.018305,0.021453,0.023273,0.023652,0.022634,0.020403,0.017256,0.013552,0.0096673,0.0059432,0.0026538,-1.7662e-05,-0.0019845,-0.0032487,-0.0038823,-0.0040035,-0.0037516,-0.0032653,-0.0026666,-0.0020515,-0.0014861,-0.0010084,-0.00063316,-0.00035832,-0.00017121,-5.421e-05,1.1123e-05,4.1378e-05,4.9958e-05,4.6733e-05,3.8326e-05,2.8744e-05,2.0081e-05,1.3181e-05,8.1524e-06,4.7443e-06,2.5813e-06,1.2943e-06
-2.4767e-06,-3.7673e-06,-5.3266e-06,-6.8548e-06,-7.6443e-06,-6.3267e-06,-5.6298e-07,1.3286e-05,4.0424e-05,8.7674e-05,0.00016314,0.00027523,0.00043085,0.00063257,0.00087478,0.0011392,0.0013905,0.0015723,0.0016066,0.0013957,0.00083049,-0.00019628,-0.0017712,-0.0039374,-0.006672,-0.009867,-0.013319,-0.016734,-0.019745,-0.021952,-0.02297,-0.022484,-0.020311,-0.016434,-0.011031,-0.0044662,0.0027464,0.0099987,0.016666,0.022185,0.026126,0.028243,0.02849,0.027022,0.024151,0.020298,0.015925,0.011476,0.0073296,0.0037592,0.00092612,-0.0011188,-0.002416,-0.003071,-0.003225,-0.0030294,-0.0026244,-0.0021264,-0.0016213,-0.0011648,-0.00078603,-0.00049391,-0.00028352,-0.00014234,-5.4895e-05,-6.0099e-06,1.7311e-05,2.5152e-05,2.4669e-05,2.0506e-05,1.5385e-05,1.0689e-05,6.9577e-06,4.2648e-06,2.4625e-06
-3.3849e-06,-5.771e-06,-9.2718e-06,-1.4012e-05,-1.9781e-05,-2.569e-05,-2.9674e-05,-2.7835e-05,-1.3696e-05,2.2515e-05,9.4301e-05,0.00021872,0.00041516,0.00070261,0.0010951,0.0015954,0.0021866,0.0028239,0.003427,0.0038757,0.0040116,0.0036476,0.0025874,0.00065384,-0.0022754,-0.0062299,-0.011113,-0.016681,-0.02254,-0.028168,-0.032966,-0.036323,-0.037704,-0.03673,-0.03325,-0.027378,-0.019501,-0.010242,-0.00038269,0.0092284,0.017788,0.024635,0.029326,0.031675,0.031756,0.029863,0.026454,0.022067,0.017248,0.012486,0.0081609,0.0045253,0.0017016,-0.00030091,-0.0015588,-0.0022023,-0.0023844,-0.0022564,-0.0019502,-0.0015693,-0.0011861,-0.00084465,-0.00056607,-0.00035484,-0.00020518,-0.00010616,-4.5443e-05,-1.1538e-05,4.9825e-06,1.1166e-05,1.1851e-05,1.0085e-05,7.601e-06,5.2614e-06,3.3994e-06
-3.4025e-06,-6.6172e-06,-1.1932e-05,-2.0173e-05,-3.2122e-05,-4.8172e-05,-6.7729e-05,-8.8288e-05,-0.00010417,-0.00010496,-7.3903e-05,1.3433e-05,0.00018959,0.00049399,0.0009692,0.0016541,0.0025733,0.0037238,0.0050595,0.0064768,0.0078042,0.008801,0.0091673,0.0085704,0.0066855,0.0032504,-0.0018753,-0.0086539,-0.016829,-0.025911,-0.035201,-0.043848,-0.050942,-0.055633,-0.057253,-0.055416,-0.050095,-0.041642,-0.030751,-0.018379,-0.0056145,0.0064537,0.016877,0.02495,0.030282,0.032803,0.032741,0.03055,0.02682,0.022187,0.017245,0.012487,0.0082712,0.0048061,0.0021683,0.00032724,-0.00082036,-0.0014163,-0.0016122,-0.0015478,-0.0013388,-0.0010715,-0.00080318,-0.00056687,-0.0003769,-0.00023515,-0.00013629,-7.1798e-05,-3.2665e-05,-1.0882e-05,-1.1759e-07,4.2068e-06,5.1391e-06,4.545e-06,3.4615e-06
-1.8735e-06,-5.0584e-06,-1.1099e-05,-2.1664e-05,-3.8905e-05,-6.5271e-05,-0.00010301,-0.00015318,-0.00021409,-0.00027901,-0.00033319,-0.00035052,-0.00029047,-9.6095e-05,0.00030538,0.00099808,0.0020676,0.003585,0.0055852,0.0080409,0.010837,0.013748,0.016433,0.018439,0.019239,0.018284,0.015085,0.0093045,0.00084023,-0.010099,-0.02296,-0.036861,-0.05066,-0.063075,-0.07284,-0.078878,-0.080452,-0.077279,-0.069584,-0.05807,-0.043829,-0.028193,-0.012558,0.0017916,0.01383,0.022889,0.02869,0.03133,0.031207,0.028923,0.025171,0.02064,0.015929,0.011504,0.0076704,0.004586,0.0022818,0.00069716,-0.00028393,-0.00080083,-0.00099133,-0.00097561,-0.00084823,-0.00067655,-0.00050342,-0.00035216,-0.00023214,-0.00014391,-8.3305e-05,-4.4321e-05,-2.0924e-05,-7.9665e-06,-1.5078e-06,1.2128e-06,1.9829e-06
1.5469e-06,-1.7915e-07,-4.7785e-06,-1.4611e-05,-3.3201e-05,-6.5395e-05,-0.00011726,-0.00019544,-0.00030577,-0.00045069,-0.00062538,-0.00081248,-0.0009758,-0.0010539,-0.00095494,-0.00055531,0.00029604,0.0017645,0.0040067,0.0071368,0.011185,0.016055,0.021483,0.027015,0.032011,0.035683,0.037166,0.035632,0.030421,0.021172,0.0079442,-0.0087177,-0.027781,-0.047798,-0.067054,-0.083771,-0.096336,-0.10352,-0.10464,-0.099674,-0.089227,-0.074457,-0.056901,-0.038259,-0.020173,-0.0040394,0.0091359,0.018799,0.024844,0.027552,0.027477,0.025333,0.021868,0.017771,0.013605,0.0097773,0.0065314,0.0039716,0.0020932,0.00081953,3.6096e-05,-0.0003817,-0.00054952,-0.00056331,-0.00049528,-0.00039479,-0.00029198,-0.00020252,-0.00013231,-8.1407e-05,-4.6943e-05,-2.5079e-05,-1.2109e-05,-4.972e-06,-1.4004e-06
6.526e-06,7.9418e-06,7.6818e-06,3.2533e-06,-9.6246e-06,-3.7687e-05,-9.0703e-05,-0.0001817,-0.0003264,-0.00054136,-0.00084019,-0.0012273,-0.0016892,-0.0021832,-0.0026253,-0.0028794,-0.0027511,-0.0019902,-0.00030609,0.0025999,0.006986,0.013006,0.020639,0.029623,0.039406,0.049138,0.057707,0.063831,0.066206,0.063691,0.055505,0.041404,0.021798,-0.0022095,-0.028894,-0.056082,-0.081405,-0.10259,-0.11778,-0.12572,-0.12599,-0.11895,-0.10572,-0.08796,-0.067625,-0.046712,-0.027003,-0.0098857,0.0037496,0.013531,0.019551,0.022257,0.022324,0.020518,0.017583,0.014163,0.01075,0.007675,0.005119,0.0031412,0.0017146,0.00076042,0.00017752,-0.00013617,-0.00027045,-0.00029656,-0.000266,-0.00021271,-0.00015664,-0.0001078,-6.9803e-05,-4.2589e-05,-2.4418e-05,-1.3047e-05,-6.3807e-06
1.1819e-05,1.769e-05,2.4495e-05,3.0558e-05,3.2149e-05,2.2284e-05,-1.0726e-05,-8.475e-05,-0.00022491,-0.00046356,-0.00083824,-0.0013865,-0.0021367,-0.0030939,-0.0042213,-0.005419,-0.0065031,-0.0071904,-0.0070956,-0.0057472,-0.0026285,0.0027538,0.010776,0.021591,0.035016,0.050454,0.066852,0.08273,0.096292,0.10561,0.10889,0.1047,0.092313,0.071806,0.044211,0.011441,-0.023898,-0.05881,-0.09028,-0.11566,-0.133,-0.14126,-0.14042,-0.13139,-0.11583,-0.09588,-0.073819,-0.051807,-0.031623,-0.01453,-0.00122,0.0081487,0.013852,0.016463,0.016713,0.015356,0.013082,0.010449,0.0078604,0.0055691,0.0036993,0.0022783,0.0012702,0.00060492,0.00020157,-1.6772e-05,-0.00011468,-0.00014134,-0.00013106,-0.00010568,-7.768e-05,-5.3107e-05,-3.4089e-05,-2.0616e-05,-1.1736e-05
1.5364e-05,2.5842e-05,4.0954e-05,6.0963e-05,8.4486e-05,0.00010693,0.00011828,0.00010024,2.3032e-05,-0.00015743,-0.00050106,-0.0010821,-0.001983,-0.0032811,-0.0050279,-0.0072197,-0.0097625,-0.012435,-0.014856,-0.016475,-0.016576,-0.014334,-0.0089014,0.00045792,0.014212,0.032396,0.054468,0.07923,0.10483,0.1289,0.14874,0.16169,0.16549,0.15862,0.14061,0.11219,0.075316,0.032917,-0.011409,-0.05386,-0.090911,-0.11974,-0.13857,-0.14676,-0.14485,-0.13435,-0.11741,-0.096538,-0.074186,-0.052503,-0.033129,-0.017104,-0.0048834,0.0035774,0.0086926,0.011096,0.011505,0.010611,0.0090028,0.0071357,0.00532,0.0037376,0.002468,0.0015196,0.00085741,0.00042628,0.00016704,2.6307e-05,-3.8925e-05,-6.0252e-05,-5.9002e-05,-4.8342e-05,-3.5584e-05,-2.4204e-05,-1.5411e-05
1.4815e-05,2.824e-05,5.0125e-05,8.3572e-05,0.00013129,0.00019409,0.00026836,0.00034218,0.00039025,0.00036765,0.00020365,-0.00020304,-0.00098496,-0.0022995,-0.0043122,-0.0071668,-0.010942,-0.015594,-0.020899,-0.026393,-0.031339,-0.034725,-0.035317,-0.031775,-0.022826,-0.0074912,0.014675,0.043362,0.077356,0.1145,0.15182,0.18578,0.21267,0.22913,0.2326,0.22175,0.19677,0.15936,0.11263,0.060657,0.0079933,-0.040921,-0.082307,-0.11346,-0.133,-0.14088,-0.13825,-0.12716,-0.11014,-0.089855,-0.068753,-0.048812,-0.031419,-0.017349,-0.0068254,0.00035453,0.0046759,0.0067634,0.0072634,0.00676,0.0057267,0.0045095,0.0033331,0.002321,0.0015216,0.00093393,0.00052996,0.00027046,0.00011584,3.1902e-05,-7.9126e-06,-2.247e-05,-2.4128e-05,-2.031e-05,-1.5041e-05
8.4712e-06,2.1231e-05,4.4932e-05,8.5711e-05,0.0001513,0.00025019,0.00038953,0.00057132,0.00078625,0.001005,0.0011673,0.0011698,0.00085538,7.5355e-06,-0.0016456,-0.0044117,-0.0085941,-0.01443,-0.022007,-0.031168,-0.041414,-0.051839,-0.061098,-0.067461,-0.068944,-0.06354,-0.049515,-0.025752,0.0079239,0.050498,0.099667,0.15192,0.20284,0.24757,0.28143,0.30056,0.30245,0.28639,0.25356,0.20695,0.15092,0.090654,0.031437,-0.021959,-0.065834,-0.097895,-0.11736,-0.12483,-0.12204,-0.1114,-0.095631,-0.07736,-0.058833,-0.041742,-0.02717,-0.015626,-0.0071467,-0.001439,0.0019842,0.0036807,0.0041876,0.003964,0.0033645,0.0026364,0.0019331,0.001334,0.00086743,0.00052965,0.00030091,0.00015594,7.0417e-05,2.4094e-05,1.7866e-06,-6.9801e-06,-8.8768e-06
-3.6989e-06,3.4855e-06,2.1212e-05,5.7745e-05,0.00012523,0.00024009,0.00042236,0.00069325,0.0010698,0.0015556,0.0021273,0.0027161,0.0031864,0.0033153,0.0027766,0.0011391,-0.0021138,-0.007535,-0.015629,-0.026733,-0.040876,-0.057625,-0.075968,-0.09424,-0.11016,-0.12096,-0.12369,-0.1156,-0.094575,-0.05963,-0.011265,0.048325,0.11528,0.18439,0.24961,0.30481,0.34458,0.36496,0.36397,0.34194,0.30137,0.24663,0.18327,0.11729,0.054379,-0.00077108,-0.044883,-0.0763,-0.094927,-0.10198,-0.099571,-0.090313,-0.076866,-0.06163,-0.046526,-0.032898,-0.021523,-0.012688,-0.0063096,-0.0020706,0.00046285,0.0017459,0.0021912,0.0021343,0.0018236,0.0014251,0.0010376,0.00070978,0.00045751,0.00027747,0.00015732,8.2185e-05,3.8325e-05,1.4675e-05,3.182e-06
-1.9384e-05,-2.2505e-05,-1.9347e-05,-1.5746e-06,4.4846e-05,0.00014163,0.00031976,0.00061981,0.0010896,0.0017775,0.0027197,0.0039197,0.00532,0.0067666,0.0079726,0.0084856,0.0076729,0.0047354,-0.0012358,-0.011151,-0.025761,-0.045453,-0.070027,-0.098499,-0.12897,-0.15859,-0.18375,-0.20037,-0.20439,-0.19237,-0.16212,-0.11323,-0.04742,0.031421,0.11748,0.20364,0.2823,0.34637,0.39017,0.41018,0.40544,0.37765,0.33077,0.27042,0.20304,0.13505,0.072035,0.018246,-0.023734,-0.052993,-0.070083,-0.076656,-0.075025,-0.06773,-0.05719,-0.045444,-0.034025,-0.023929,-0.015667,-0.0093697,-0.0048981,-0.0019632,-0.00021621,0.00068368,0.00103,0.0010515,0.00091048,0.00071177,0.0005153,0.00034957,0.00022332,0.00013438,7.5852e-05,3.9741e-05,1.8893e-05
-3.4058e-05,-5.0102e-05,-6.7796e-05,-8.1557e-05,-7.9578e-05,-4.036e-05,7.1359e-05,0.00030857,0.00074456,0.0014719,0.0025955,0.0042156,0.0064001,0.0091418,0.012304,0.015561,0.018338,0.019775,0.018723,0.013806,0.0035485,-0.013415,-0.038061,-0.07066,-0.11048,-0.15554,-0.20256,-0.24705,-0.28369,-0.30689,-0.31156,-0.29388,-0.25208,-0.18694,-0.10196,-0.003197,0.10141,0.20292,0.29255,0.36279,0.40831,0.42659,0.41808,0.38597,0.33553,0.27331,0.20615,0.14035,0.081003,0.031585,-0.0061341,-0.031953,-0.046916,-0.052892,-0.052144,-0.046962,-0.03938,-0.031019,-0.023022,-0.016079,-0.010503,-0.0063277,-0.0034102,-0.0015188,-0.0003987,0.0001854,0.00042716,0.00047152,0.00041785,0.00032813,0.00023668,0.00015936,0.0001009,6.02e-05,3.3771e-05
-4.2125e-05,-6.9904e-05,-0.00010925,-0.00016008,-0.00021742,-0.00026722,-0.00028027,-0.00020476,4.1886e-05,0.00057989,0.0015698,0.0032069,0.0057016,0.0092427,0.013938,0.019737,0.026331,0.033065,0.038857,0.042172,0.041065,0.033334,0.016776,-0.01045,-0.049393,-0.099877,-0.16014,-0.22666,-0.2942,-0.3562,-0.40542,-0.43481,-0.4386,-0.41316,-0.35782,-0.2752,-0.17107,-0.053829,0.066565,0.17981,0.27656,0.34959,0.39456,0.41038,0.39906,0.36511,0.31477,0.25496,0.19239,0.13276,0.080327,0.037671,0.0057662,-0.015744,-0.028174,-0.033376,-0.033378,-0.030082,-0.025088,-0.019599,-0.014416,-0.0099892,-0.0064947,-0.0039223,-0.0021526,-0.0010195,-0.00035271,-2.1815e-06,0.0001505,0.00019089,0.00017575,0.00013944,0.00010047,6.7226e-05,4.2201e-05
-3.8867e-05,-7.2736e-05,-0.00012717,-0.00020916,-0.00032415,-0.00047215,-0.00064119,-0.00079771,-0.0008739,-0.00075294,-0.0002545,0.00087504,0.0029618,0.0063849,0.011532,0.018719,0.028083,0.039443,0.052151,0.064963,0.075964,0.082587,0.081765,0.070239,0.045004,0.0038763,-0.053917,-0.12722,-0.21261,-0.30439,-0.39489,-0.47523,-0.53632,-0.5701,-0.5707,-0.53551,-0.46565,-0.3661,-0.24513,-0.11327,0.017996,0.13772,0.23684,0.3091,0.35164,0.36498,0.35251,0.31972,0.27322,0.21976,0.16538,0.11489,0.071548,0.037043,0.011712,-0.0051444,-0.014882,-0.019157,-0.019633,-0.017784,-0.014781,-0.011462,-0.0083562,-0.0057407,-0.0037088,-0.0022372,-0.0012401,-0.00060972,-0.00024144,-4.7032e-05,4.0712e-05,6.8786e-05,6.7449e-05,5.4518e-05,3.9386e-05
-2.2553e-05,-5.3355e-05,-0.00010948,-0.00020455,-0.0003553,-0.00057931,-0.00088989,-0.0012869,-0.0017422,-0.0021802,-0.0024526,-0.0023127,-0.001393,0.00080422,0.0048923,0.01155,0.021423,0.03498,0.052321,0.072957,0.095613,0.11807,0.13716,0.14888,0.14871,0.13223,0.095729,0.037052,-0.043727,-0.14377,-0.25733,-0.37598,-0.48938,-0.58645,-0.65674,-0.69186,-0.68681,-0.64073,-0.55715,-0.44359,-0.31058,-0.17026,-0.034764,0.085212,0.18164,0.24982,0.28857,0.29985,0.28809,0.25917,0.21949,0.17513,0.13116,0.091294,0.057832,0.031734,0.012905,0.0005236,-0.0066344,-0.0099142,-0.01058,-0.0096898,-0.0080481,-0.0062028,-0.0044838,-0.0030529,-0.0019575,-0.0011763,-0.00065483,-0.00032934,-0.00014076,-4.1118e-05,4.9567e-06,2.1471e-05,2.346e-05
4.1993e-06,-1.3405e-05,-5.4322e-05,-0.00013605,-0.00028386,-0.0005313,-0.00091829,-0.0014853,-0.0022611,-0.0032433,-0.0043682,-0.0054735,-0.0062541,-0.0062217,-0.0046765,-0.00071021,0.0067447,0.018802,0.036436,0.06023,0.090074,0.12487,0.16227,0.1986,0.22894,0.24746,0.24805,0.22519,0.17485,0.095531,-0.011099,-0.13978,-0.28186,-0.42597,-0.55926,-0.669,-0.74422,-0.77725,-0.76479,-0.70838,-0.61416,-0.49198,-0.35397,-0.21293,-0.080722,0.033105,0.12215,0.1835,0.21754,0.22733,0.21772,0.19444,0.16322,0.12911,0.096066,0.066768,0.042688,0.024267,0.011195,0.0026941,-0.0022225,-0.0045572,-0.0051986,-0.0048565,-0.0040461,-0.0031049,-0.002227,-0.0015028,-0.00095557,-0.00057095,-0.00031789,-0.00016197,-7.2473e-05,-2.5273e-05,-3.0987e-06
3.4541e-05,3.782e-05,2.7167e-05,-1.4227e-05,-0.00011415,-0.00031489,-0.00067583,-0.0012732,-0.0021945,-0.0035244,-0.0053183,-0.0075623,-0.010117,-0.012652,-0.014575,-0.01498,-0.012623,-0.005962,0.006719,0.027091,0.056457,0.095358,0.14315,0.19766,0.25491,0.30921,0.35345,0.37976,0.38052,0.34952,0.28312,0.18126,0.048016,-0.10834,-0.27601,-0.44091,-0.58835,-0.70491,-0.78022,-0.80828,-0.7882,-0.72417,-0.62467,-0.50115,-0.3664,-0.23286,-0.11116,-0.0091026,0.068819,0.12139,0.15018,0.15881,0.15204,0.13498,0.11236,0.088087,0.065041,0.045023,0.028893,0.016779,0.0083181,0.002876,-0.0002698,-0.0018063,-0.0023129,-0.002233,-0.0018759,-0.0014367,-0.0010236,-0.00068477,-0.00043159,-0.00025605,-0.00014216,-7.2897e-05,-3.3543e-05
5.9243e-05,8.5552e-05,0.00011281,0.00012993,0.00011443,2.6381e-05,-0.00019845,-0.00065502,-0.0014724,-0.0028106,-0.0048456,-0.0077378,-0.01158,-0.016318,-0.021661,-0.02697,-0.031163,-0.032662,-0.029402,-0.018955,0.001224,0.033404,0.079083,0.13843,0.20977,0.28921,0.37058,0.44565,0.5049,0.53855,0.5379,0.49682,0.41292,0.28848,0.13063,-0.049142,-0.23619,-0.41445,-0.56844,-0.68531,-0.75633,-0.77795,-0.75196,-0.68489,-0.58686,-0.46996,-0.34653,-0.22773,-0.12231,-0.036046,0.0284,0.07115,0.094476,0.10202,0.098029,0.086672,0.071593,0.055627,0.040729,0.028027,0.017983,0.010571,0.0054727,0.0022297,0.00035888,-0.00057437,-0.00092072,-0.00093825,-0.00080073,-0.00061412,-0.00043529,-0.00028883,-0.00018042,-0.00010618,-5.8656e-05
6.9771e-05,0.00011423,0.00017599,0.00025357,0.00033688,0.00040016,0.00039223,0.0002246,-0.00024107,-0.0012028,-0.0029205,-0.0057036,-0.0098761,-0.015712,-0.023336,-0.032594,-0.042899,-0.053085,-0.061293,-0.064947,-0.060852,-0.04546,-0.015315,0.032337,0.098852,0.18349,0.2829,0.39083,0.49836,0.59455,0.66757,0.70625,0.70168,0.64878,0.54741,0.40283,0.22544,0.029622,-0.16793,-0.35034,-0.50269,-0.6138,-0.67745,-0.69281,-0.66407,-0.59945,-0.50968,-0.40641,-0.30064,-0.20159,-0.11587,-0.047317,0.0029097,0.03578,0.053758,0.060107,0.058278,0.051443,0.042215,0.032518,0.023599,0.016123,0.010313,0.0060973,0.0032412,0.0014447,0.00041212,-0.00011072,-0.00032082,-0.00035815,-0.00031394,-0.00024221,-0.00017116,-0.00011276,-6.9813e-05
6.1478e-05,0.00011309,0.00019489,0.00031623,0.00048337,0.00069322,0.0009233,0.0011171,0.0011655,0.00088497,-2.0096e-06,-0.0018792,-0.0052309,-0.010608,-0.018556,-0.029487,-0.04352,-0.060266,-0.078617,-0.096565,-0.11111,-0.11832,-0.11358,-0.092122,-0.049666,0.016682,0.10758,0.22069,0.35028,0.48723,0.61967,0.73411,0.81705,0.85687,0.84556,0.78014,0.66341,0.5039,0.3149,0.11284,-0.084811,-0.26175,-0.40484,-0.50543,-0.56014,-0.57063,-0.54283,-0.48565,-0.40943,-0.32449,-0.23991,-0.16269,-0.097437,-0.046341,-0.009567,0.014231,0.02732,0.032344,0.03189,0.028201,0.023028,0.017597,0.012656,0.0085762,0.0054571,0.0032306,0.0017442,0.00082005,0.00029155,2.1377e-05,-9.3248e-05,-0.00012302,-0.00011269,-8.8018e-05,-6.2192e-05
3.5621e-05,8.045e-05,0.00016069,0.00029456,0.00050386,0.00081033,0.001228,0.0017501,0.0023284,0.002846,0.0030838,0.0026861,0.0011337,-0.0022645,-0.0083438,-0.018006,-0.032079,-0.051105,-0.075077,-0.10315,-0.13335,-0.16245,-0.18589,-0.19808,-0.19286,-0.1643,-0.10766,-0.020519,0.096364,0.23835,0.39678,0.55949,0.71189,0.83865,0.92569,0.96213,0.942,0.8652,0.73777,0.57111,0.38051,0.18316,-0.0041121,-0.16686,-0.29457,-0.38154,-0.42698,-0.43442,-0.41062,-0.36422,-0.30434,-0.23944,-0.17643,-0.12027,-0.07385,-0.038222,-0.013,0.0031626,0.01211,0.015798,0.016024,0.014263,0.011615,0.0088128,0.0062827,0.0042205,0.0026675,0.001576,0.00085785,0.00041664,0.00016598,3.717e-05,-1.9545e-05,-3.7397e-05,-3.6847e-05
-7.0803e-07,2.4881e-05,8.1567e-05,0.00019171,0.0003871,0.00070907,0.0012054,0.0019222,0.0028872,0.0040837,0.0054129,0.0066452,0.0073674,0.006934,0.0044381,-0.0012762,-0.01154,-0.027706,-0.0509,-0.081697,-0.11974,-0.16338,-0.20939,-0.25284,-0.28733,-0.30543,-0.29952,-0.26291,-0.19106,-0.082751,0.059068,0.2269,0.40902,0.59051,0.75485,0.88606,0.97074,1,0.97074,0.88606,0.75485,0.59051,0.40902,0.2269,0.059068,-0.082751,-0.19106,-0.26291,-0.29952,-0.30543,-0.28733,-0.25284,-0.20939,-0.16338,-0.11974,-0.081697,-0.0509,-0.027706,-0.01154,-0.0012762,0.0044381,0.006934,0.0073674,0.0066452,0.0054129,0.0040837,0.0028872,0.0019222,0.0012054,0.00070907,0.0003871,0.00019171,8.1567e-05,2.4881e-05,-7.0803e-07
-3.6847e-05,-3.7397e-05,-1.9545e-05,3.717e-05,0.00016598,0.00041664,0.00085785,0.001576,0.0026675,0.0042205,0.0062827,0.0088128,0.011615,0.014263,0.016024,0.015798,0.01211,0.0031626,-0.013,-0.038222,-0.07385,-0.12027,-0.17643,-0.23944,-0.30434,-0.36422,-0.41062,-0.43442,-0.42698,-0.38154,-0.29457,-0.16686,-0.0041121,0.18316,0.38051,0.57111,0.73777,0.8652,0.942,0.96213,0.92569,0.83865,0.71189,0.55949,0.39678,0.23835,0.096364,-0.020519,-0.10766,-0.1643,-0.19286,-0.19808,-0.18589,-0.16245,-0.13335,-0.10315,-0.075077,-0.051105,-0.032079,-0.018006,-0.0083438,-0.0022645,0.0011337,0.0026861,0.0030838,0.002846,0.0023284,0.0017501,0.001228,0.00081033,0.00050386,0.00029456,0.00016069,8.045e-05,3.5621e-05
-6.2192e-05,-8.8018e-05,-0.00011269,-0.00012302,-9.3248e-05,2.1377e-05,0.00029155,0.00082005,0.0017442,0.0032306,0.0054571,0.0085762,0.012656,0.017597,0.023028,0.028201,0.03189,0.032344,0.02732,0.014231,-0.009567,-0.046341,-0.097437,-0.16269,-0.23991,-0.32449,-0.40943,-0.48565,-0.54283,-0.57063,-0.56014,-0.50543,-0.40484,-0.26175,-0.084811,0.11284,0.3149,0.5039,0.66341,0.78014,0.84556,0.85687,0.81705,0.73411,0.61967,0.48723,0.35028,0.22069,0.10758,0.016682,-0.049666,-0.092122,-0.11358,-0.11832,-0.11111,-0.096565,-0.078617,-0.060266,-0.04352,-0.029487,-0.018556,-0.010608,-0.0052309,-0.0018792,-2.0096e-06,0.00088497,0.0011655,0.0011171,0.0009233,0.00069322,0.00048337,0.00031623,0.00019489,0.00011309,6.1478e-05
-6.9813e-05,-0.00011276,-0.00017116,-0.00024221,-0.00031394,-0.00035815,-0.00032082,-0.00011072,0.00041212,0.0014447,0.0032412,0.0060973,0.010313,0.016123,0.023599,0.032518,0.042215,0.051443,0.058278,0.060107,0.053758,0.03578,0.0029097,-0.047317,-0.11587,-0.20159,-0.30064,-0.40641,-0.50968,-0.59945,-0.66407,-0.69281,-0.67745,-0.6138,-0.50269,-0.35034,-0.16793,0.029622,0.22544,0.40283,0.54741,0.64878,0.70168,0.70625,0.66757,0.59455,0.49836,0.39083,0.2829,0.18349,0.098852,0.032337,-0.015315,-0.04546,-0.060852,-0.064947,-0.061293,-0.053085,-0.042899,-0.032594,-0.023336,-0.015712,-0.0098761,-0.0057036,-0.0029205,-0.0012028,-0.00024107,0.0002246,0.00039223,0.00040016,0.00033688,0.00025357,0.00017599,0.00011423,6.9771e-05
-5.8656e-05,-0.00010618,-0.00018042,-0.00028883,-0.00043529,-0.00061412,-0.00080073,-0.00093825,-0.00092072,-0.00057437,0.00035888,0.0022297,0.0054727,0.010571,0.017983,0.028027,0.040729,0.055627,0.071593,0.086672,0.098029,0.10202,0.094476,0.07115,0.0284,-0.036046,-0.12231,-0.22773,-0.34653,-0.46996,-0.58686,-0.68489,-0.75196,-0.77795,-0.75633,-0.68531,-0.56844,-0.41445,-0.23619,-0.049142,0.13063,0.28848,0.41292,0.49682,0.5379,0.53855,0.5049,0.44565,0.37058,0.28921,0.20977,0.13843,0.079083,0.033404,0.001224,-0.018955,-0.029402,-0.032662,-0.031163,-0.02697,-0.021661,-0.016318,-0.01158,-0.0077378,-0.0048456,-0.0028106,-0.0014724,-0.00065502,-0.00019845,2.6381e-05,0.00011443,0.00012993,0.00011281,8.5552e-05,5.9243e-05
-3.3543e-05,-7.2897e-05,-0.00014216,-0.00025605,-0.00043159,-0.00068477,-0.0010236,-0.0014367,-0.0018759,-0.002233,-0.0023129,-0.0018063,-0.0002698,0.002876,0.0083181,0.016779,0.028893,0.045023,0.065041,0.088087,0.11236,0.13498,0.15204,0.15881,0.15018,0.12139,0.068819,-0.0091026,-0.11116,-0.23286,-0.3664,-0.50115,-0.62467,-0.72417,-0.7882,-0.80828,-0.78022,-0.70491,-0.58835,-0.44091,-0.27601,-0.10834,0.048016,0.18126,0.28312,0.34952,0.38052,0.37976,0.35345,0.30921,0.25491,0.19766,0.14315,0.095358,0.056457,0.027091,0.006719,-0.005962,-0.012623,-0.01498,-0.014575,-0.012652,-0.010117,-0.0075623,-0.0053183,-0.0035244,-0.0021945,-0.0012732,-0.00067583,-0.00031489,-0.00011415,-1.4227e-05,2.7167e-05,3.782e-05,3.4541e-05
-3.0987e-06,-2.5273e-05,-7.2473e-05,-0.00016197,-0.00031789,-0.00057095,-0.00095557,-0.0015028,-0.002227,-0.0031049,-0.0040461,-0.0048565,-0.0051986,-0.0045572,-0.0022225,0.0026941,0.011195,0.024267,0.042688,0.066768,0.096066,0.12911,0.16322,0.19444,0.21772,0.22733,0.21754,0.1835,0.12215,0.033105,-0.080722,-0.21293,-0.35397,-0.49198,-0.61416,-0.70838,-0.76479,-0.77725,-0.74422,-0.669,-0.55926,-0.42597,-0.28186,-0.13978,-0.011099,0.095531,0.17485,0.22519,0.24805,0.24746,0.22894,0.1986,0.16227,0.12487,0.090074,0.06023,0.036436,0.018802,0.0067447,-0.00071021,-0.0046765,-0.0062217,-0.0062541,-0.0054735,-0.0043682,-0.0032433,-0.0022611,-0.0014853,-0.00091829,-0.0005313,-0.00028386,-0.00013605,-5.4322e-05,-1.3405e-05,4.1993e-06
2.346e-05,2.1471e-05,4.9567e-06,-4.1118e-05,-0.00014076,-0.00032934,-0.00065483,-0.0011763,-0.0019575,-0.0030529,-0.0044838,-0.0062028,-0.0080481,-0.0096898,-0.01058,-0.0099142,-0.0066344,0.0005236,0.012905,0.031734,0.057832,0.091294,0.13116,0.17513,0.21949,0.25917,0.28809,0.29985,0.28857,0.24982,0.18164,0.085212,-0.034764,-0.17026,-0.31058,-0.44359,-0.55715,-0.64073,-0.68681,-0.69186,-0.65674,-0.58645,-0.48938,-0.37598,-0.25733,-0.14377,-0.043727,0.037052,0.095729,0.13223,0.14871,0.14888,0.13716,0.11807,0.095613,0.072957,0.052321,0.03498,0.021423,0.01155,0.0048923,0.00080422,-0.001393,-0.0023127,-0.0024526,-0.0021802,-0.0017422,-0.0012869,-0.00088989,-0.00057931,-0.0003553,-0.00020455,-0.00010948,-5.3355e-05,-2.2553e-05
3.9386e-05,5.4518e-05,6.7449e-05,6.8786e-05,4.0712e-05,-4.7032e-05,-0.00024144,-0.00060972,-0.0012401,-0.0022372,-0.0037088,-0.0057407,-0.0083562,-0.011462,-0.014781,-0.017784,-0.019633,-0.019157,-0.014882,-0.0051444,0.011712,0.037043,0.071548,0.11489,0.16538,0.21976,0.27322,0.31972,0.35251,0.36498,0.35164,0.3091,0.23684,0.13772,0.017996,-0.11327,-0.24513,-0.3661,-0.46565,-0.53551,-0.5707,-0.5701,-0.53632,-0.47523,-0.39489,-0.30439,-0.21261,-0.12722,-0.053917,0.0038763,0.045004,0.070239,0.081765,0.082587,0.075964,0.064963,0.052151,0.039443,0.028083,0.018719,0.011532,0.0063849,0.0029618,0.00087504,-0.0002545,-0.00075294,-0.0008739,-0.00079771,-0.00064119,-0.00047215,-0.00032415,-0.00020916,-0.00012717,-7.2736e-05,-3.8867e-05
4.2201e-05,6.7226e-05,0.00010047,0.00013944,0.00017575,0.00019089,0.0001505,-2.1815e-06,-0.00035271,-0.0010195,-0.0021526,-0.0039223,-0.0064947,-0.0099892,-0.014416,-0.019599,-0.025088,-0.030082,-0.033378,-0.033376,-0.028174,-0.015744,0.0057662,0.037671,0.080327,0.13276,0.19239,0.25496,0.31477,0.36511,0.39906,0.41038,0.39456,0.34959,0.27656,0.17981,0.066565,-0.053829,-0.17107,-0.2752,-0.35782,-0.41316,-0.4386,-0.43481,-0.40542,-0.3562,-0.2942,-0.22666,-0.16014,-0.099877,-0.049393,-0.01045,0.016776,0.033334,0.041065,0.042172,0.038857,0.033065,0.026331,0.019737,0.013938,0.0092427,0.0057016,0.0032069,0.0015698,0.00057989,4.1886e-05,-0.00020476,-0.00028027,-0.00026722,-0.00021742,-0.00016008,-0.00010925,-6.9904e-05,-4.2125e-05
3.3771e-05,6.02e-05,0.0001009,0.00015936,0.00023668,0.00032813,0.00041785,0.00047152,0.00042716,0.0001854,-0.0003987,-0.0015188,-0.0034102,-0.0063277,-0.010503,-0.016079,-0.023022,-0.031019,-0.03938,-0.046962,-0.052144,-0.052892,-0.046916,-0.031953,-0.0061341,0.031585,0.081003,0.14035,0.20615,0.27331,0.33553,0.38597,0.41808,0.42659,0.40831,0.36279,0.29255,0.20292,0.10141,-0.003197,-0.10196,-0.18694,-0.25208,-0.29388,-0.31156,-0.30689,-0.28369,-0.24705,-0.20256,-0.15554,-0.11048,-0.07066,-0.038061,-0.013415,0.0035485,0.013806,0.018723,0.019775,0.018338,0.015561,0.012304,0.0091418,0.0064001,0.0042156,0.0025955,0.0014719,0.00074456,0.00030857,7.1359e-05,-4.036e-05,-7.9578e-05,-8.1557e-05,-6.7796e-05,-5.0102e-05,-3.4058e-05
1.8893e-05,3.9741e-05,7.5852e-05,0.00013438,0.00022332,0.00034957,0.0005153,0.00071177,0.00091048,0.0010515,0.00103,0.00068368,-0.00021621,-0.0019632,-0.0048981,-0.0093697,-0.015667,-0.023929,-0.034025,-0.045444,-0.05719,-0.06773,-0.075025,-0.076656,-0.070083,-0.052993,-0.023734,0.018246,0.072035,0.13505,0.20304,0.27042,0.33077,0.37765,0.40544,0.41018,0.39017,0.34637,0.2823,0.20364,0.11748,0.031421,-0.04742,-0.11323,-0.16212,-0.19237,-0.20439,-0.20037,-0.18375,-0.15859,-0.12897,-0.098499,-0.070027,-0.045453,-0.025761,-0.011151,-0.0012358,0.0047354,0.0076729,0.0084856,0.0079726,0.0067666,0.00532,0.0039197,0.0027197,0.0017775,0.0010896,0.00061981,0.00031976,0.00014163,4.4846e-05,-1.5746e-06,-1.9347e-05,-2.2505e-05,-1.9384e-05
3.182e-06,1.4675e-05,3.8325e-05,8.2185e-05,0.00015732,0.00027747,0.00045751,0.00070978,0.0010376,0.0014251,0.0018236,0.0021343,0.0021912,0.0017459,0.00046285,-0.0020706,-0.0063096,-0.012688,-0.021523,-0.032898,-0.046526,-0.06163,-0.076866,-0.090313,-0.099571,-0.10198,-0.094927,-0.0763,-0.044883,-0.00077108,0.054379,0.11729,0.18327,0.24663,0.30137,0.34194,0.36397,0.36496,0.34458,0.30481,0.24961,0.18439,0.11528,0.048325,-0.011265,-0.05963,-0.094575,-0.1156,-0.12369,-0.12096,-0.11016,-0.09424,-0.075968,-0.057625,-0.040876,-0.026733,-0.015629,-0.007535,-0.0021138,0.0011391,0.0027766,0.0033153,0.0031864,0.0027161,0.0021273,0.0015556,0.0010698,0.00069325,0.00042236,0.00024009,0.00012523,5.7745e-05,2.1212e-05,3.4855e-06,-3.6989e-06
-8.8768e-06,-6.9801e-06,1.7866e-06,2.4094e-05,7.0417e-05,0.00015594,0.00030091,0.00052965,0.00086743,0.001334,0.0019331,0.0026364,0.0033645,0.003964,0.0041876,0.0036807,0.0019842,-0.001439,-0.0071467,-0.015626,-0.02717,-0.041742,-0.058833,-0.07736,-0.095631,-0.1114,-0.12204,-0.12483,-0.11736,-0.097895,-0.065834,-0.021959,0.031437,0.090654,0.15092,0.20695,0.25356,0.28639,0.30245,0.30056,0.28143,0.24757,0.20284,0.15192,0.099667,0.050498,0.0079239,-0.025752,-0.049515,-0.06354,-0.068944,-0.067461,-0.061098,-0.051839,-0.041414,-0.031168,-0.022007,-0.01443,-0.0085941,-0.0044117,-0.0016456,7.5355e-06,0.00085538,0.0011698,0.0011673,0.001005,0.00078625,0.00057132,0.00038953,0.00025019,0.0001513,8.5711e-05,4.4932e-05,2.1231e-05,8.4712e-06
-1.5041e-05,-2.031e-05,-2.4128e-05,-2.247e-05,-7.9126e-06,3.1902e-05,0.00011584,0.00027046,0.00052996,0.00093393,0.0015216,0.002321,0.0033331,0.0045095,0.0057267,0.00676,0.0072634,0.0067634,0.0046759,0.00035453,-0.0068254,-0.017349,-0.031419,-0.048812,-0.068753,-0.089855,-0.11014,-0.12716,-0.13825,-0.14088,-0.133,-0.11346,-0.082307,-0.040921,0.0079933,0.060657,0.11263,0.15936,0.19677,0.22175,0.2326,0.22913,0.21267,0.18578,0.15182,0.1145,0.077356,0.043362,0.014675,-0.0074912,-0.022826,-0.031775,-0.035317,-0.034725,-0.031339,-0.026393,-0.020899,-0.015594,-0.010942,-0.0071668,-0.0043122,-0.0022995,-0.00098496,-0.00020304,0.00020365,0.00036765,0.00039025,0.00034218,0.00026836,0.00019409,0.00013129,8.3572e-05,5.0125e-05,2.824e-05,1.4815e-05
-1.5411e-05,-2.4204e-05,-3.5584e-05,-4.8342e-05,-5.9002e-05,-6.0252e-05,-3.8925e-05,2.6307e-05,0.00016704,0.00042628,0.00085741,0.0015196,0.002468,0.0037376,0.00532,0.0071357,0.0090028,0.010611,0.011505,0.011096,0.0086926,0.0035774,-0.0048834,-0.017104,-0.033129,-0.052503,-0.074186,-0.096538,-0.11741,-0.13435,-0.14485,-0.14676,-0.13857,-0.11974,-0.090911,-0.05386,-0.011409,0.032917,0.075316,0.11219,0.14061,0.15862,0.16549,0.16169,0.14874,0.1289,0.10483,0.07923,0.054468,0.032396,0.014212,0.00045792,-0.0089014,-0.014334,-0.016576,-0.016475,-0.014856,-0.012435,-0.0097625,-0.0072197,-0.0050279,-0.0032811,-0.001983,-0.0010821,-0.00050106,-0.00015743,2.3032e-05,0.00010024,0.00011828,0.00010693,8.4486e-05,6.0963e-05,4.0954e-05,2.5842e-05,1.5364e-05
-1.1736e-05,-2.0616e-05,-3.4089e-05,-5.3107e-05,-7.768e-05,-0.00010568,-0.00013106,-0.00014134,-0.00011468,-1.6772e-05,0.00020157,0.00060492,0.0012702,0.0022783,0.0036993,0.0055691,0.0078604,0.010449,0.013082,0.015356,0.016713,0.016463,0.013852,0.0081487,-0.00122,-0.01453,-0.031623,-0.051807,-0.073819,-0.09588,-0.11583,-0.13139,-0.14042,-0.14126,-0.133,-0.11566,-0.09028,-0.05881,-0.023898,0.011441,0.044211,0.071806,0.092313,0.1047,0.10889,0.10561,0.096292,0.08273,0.066852,0.050454,0.035016,0.021591,0.010776,0.0027538,-0.0026285,-0.0057472,-0.0070956,-0.0071904,-0.0065031,-0.005419,-0.0042213,-0.0030939,-0.0021367,-0.0013865,-0.00083824,-0.00046356,-0.00022491,-8.475e-05,-1.0726e-05,2.2284e-05,3.2149e-05,3.0558e-05,2.4495e-05,1.769e-05,1.1819e-05
-6.3807e-06,-1.3047e-05,-2.4418e-05,-4.2589e-05,-6.9803e-05,-0.0001078,-0.00015664,-0.00021271,-0.000266,-0.00029656,-0.00027045,-0.00013617,0.00017752,0.00076042,0.0017146,0.0031412,0.005119,0.007675,0.01075,0.014163,0.017583,0.020518,0.022324,0.022257,0.019551,0.013531,0.0037496,-0.0098857,-0.027003,-0.046712,-0.067625,-0.08796,-0.10572,-0.11895,-0.12599,-0.12572,-0.11778,-0.10259,-0.081405,-0.056082,-0.028894,-0.0022095,0.021798,0.041404,0.055505,0.063691,0.066206,0.063831,0.057707,0.049138,0.039406,0.029623,0.020639,0.013006,0.006986,0.0025999,-0.00030609,-0.0019902,-0.0027511,-0.0028794,-0.0026253,-0.0021832,-0.0016892,-0.0012273,-0.00084019,-0.00054136,-0.0003264,-0.0001817,-9.0703e-05,-3.7687e-05,-9.6246e-06,3.2533e-06,7.6818e-06,7.9418e-06,6.526e-06
-1.4004e-06,-4.972e-06,-1.2109e-05,-2.5079e-05,-4.6943e-05,-8.1407e-05,-0.00013231,-0.00020252,-0.00029198,-0.00039479,-0.00049528,-0.00056331,-0.00054952,-0.0003817,3.6096e-05,0.00081953,0.0020932,0.0039716,0.0065314,0.0097773,0.013605,0.017771,0.021868,0.025333,0.027477,0.027552,0.024844,0.018799,0.0091359,-0.0040394,-0.020173,-0.038259,-0.056901,-0.074457,-0.089227,-0.099674,-0.10464,-0.10352,-0.096336,-0.083771,-0.067054,-0.047798,-0.027781,-0.0087177,0.0079442,0.021172,0.030421,0.035632,0.037166,0.035683,0.032011,0.027015,0.021483,0.016055,0.011185,0.0071368,0.0040067,0.0017645,0.00029604,-0.00055531,-0.00095494,-0.0010539,-0.0009758,-0.00081248,-0.00062538,-0.00045069,-0.00030577,-0.00019544,-0.00011726,-6.5395e-05,-3.3201e-05,-1.4611e-05,-4.7785e-06,-1.7915e-07,1.5469e-06
1.9829e-06,1.2128e-06,-1.5078e-06,-7.9665e-06,-2.0924e-05,-4.4321e-05,-8.3305e-05,-0.00014391,-0.00023214,-0.00035216,-0.00050342,-0.00067655,-0.00084823,-0.00097561,-0.00099133,-0.00080083,-0.00028393,0.00069716,0.0022818,0.004586,0.0076704,0.011504,0.015929,0.02064,0.025171,0.028923,0.031207,0.03133,0.02869,0.022889,0.01383,0.0017916,-0.012558,-0.028193,-0.043829,-0.05807,-0.069584,-0.077279,-0.080452,-0.078878,-0.07284,-0.063075,-0.05066,-0.036861,-0.02296,-0.010099,0.00084023,0.0093045,0.015085,0.018284,0.019239,0.018439,0.016433,0.013748,0.010837,0.0080409,0.0055852,0.003585,0.0020676,0.00099808,0.00030538,-9.6095e-05,-0.00029047,-0.00035052,-0.00033319,-0.00027901,-0.00021409,-0.00015318,-0.00010301,-6.5271e-05,-3.8905e-05,-2.1664e-05,-1.1099e-05,-5.0584e-06,-1.8735e-06
3.4615e-06,4.545e-06,5.1391e-06,4.2068e-06,-1.1759e-07,-1.0882e-05,-3.2665e-05,-7.1798e-05,-0.00013629,-0.00023515,-0.0003769,-0.00056687,-0.00080318,-0.0010715,-0.0013388,-0.0015478,-0.0016122,-0.0014163,-0.00082036,0.00032724,0.0021683,0.0048061,0.0082712,0.012487,0.017245,0.022187,0.02682,0.03055,0.032741,0.032803,0.030282,0.02495,0.016877,0.0064537,-0.0056145,-0.018379,-0.030751,-0.041642,-0.050095,-0.055416,-0.057253,-0.055633,-0.050942,-0.043848,-0.035201,-0.025911,-0.016829,-0.0086539,-0.0018753,0.0032504,0.0066855,0.0085704,0.0091673,0.008801,0.0078042,0.0064768,0.0050595,0.0037238,0.0025733,0.0016541,0.0009692,0.00049399,0.00018959,1.3433e-05,-7.3903e-05,-0.00010496,-0.00010417,-8.8288e-05,-6.7729e-05,-4.8172e-05,-3.2122e-05,-2.0173e-05,-1.1932e-05,-6.6172e-06,-3.4025e-06
3.3994e-06,5.2614e-06,7.601e-06,1.0085e-05,1.1851e-05,1.1166e-05,4.9825e-06,-1.1538e-05,-4.5443e-05,-0.00010616,-0.00020518,-0.00035484,-0.00056607,-0.00084465,-0.0011861,-0.0015693,-0.0019502,-0.0022564,-0.0023844,-0.0022023,-0.0015588,-0.00030091,0.0017016,0.0045253,0.0081609,0.012486,0.017248,0.022067,0.026454,0.029863,0.031756,0.031675,0.029326,0.024635,0.017788,0.0092284,-0.00038269,-0.010242,-0.019501,-0.027378,-0.03325,-0.03673,-0.037704,-0.036323,-0.032966,-0.028168,-0.02254,-0.016681,-0.011113,-0.0062299,-0.0022754,0.00065384,0.0025874,0.0036476,0.0040116,0.0038757,0.003427,0.0028239,0.0021866,0.0015954,0.0010951,0.00070261,0.00041516,0.00021872,9.4301e-05,2.2515e-05,-1.3696e-05,-2.7835e-05,-2.9674e-05,-2.569e-05,-1.9781e-05,-1.4012e-05,-9.2718e-06,-5.771e-06,-3.3849e-06
2.4625e-06,4.2648e-06,6.9577e-06,1.0689e-05,1.5385e-05,2.0506e-05,2.4669e-05,2.5152e-05,1.7311e-05,-6.0099e-06,-5.4895e-05,-0.00014234,-0.00028352,-0.00049391,-0.00078603,-0.0011648,-0.0016213,-0.0021264,-0.0026244,-0.0030294,-0.003225,-0.003071,-0.002416,-0.0011188,0.00092612,0.0037592,0.0073296,0.011476,0.015925,0.020298,0.024151,0.027022,0.02849,0.028243,0.026126,0.022185,0.016666,0.0099987,0.0027464,-0.0044662,-0.011031,-0.016434,-0.020311,-0.022484,-0.02297,-0.021952,-0.019745,-0.016734,-0.013319,-0.009867,-0.006672,-0.0039374,-0.0017712,-0.00019628,0.00083049,0.0013957,0.0016066,0.0015723,0.0013905,0.0011392,0.00087478,0.00063257,0.00043085,0.00027523,0.00016314,8.7674e-05,4.0424e-05,1.3286e-05,-5.6298e-07,-6.3267e-06,-7.6443e-06,-6.8548e-06,-5.3266e-06,-3.7673e-06,-2.4767e-06
1.2943e-06,2.5813e-06,4.7443e-06,8.1524e-06,1.3181e-05,2.0081e-05,2.8744e-05,3.8326e-05,4.6733e-05,4.9958e-05,4.1378e-05,1.1123e-05,-5.421e-05,-0.00017121,-0.00035832,-0.00063316,-0.0010084,-0.0014861,-0.0020515,-0.0026666,-0.0032653,-0.0037516,-0.0040035,-0.0038823,-0.0032487,-0.0019845,-1.7662e-05,0.0026538,0.0059432,0.0096673,0.013552,0.017256,0.020403,0.022634,0.023652,0.023273,0.021453,0.018305,0.014086,0.0091658,0.0039833,-0.0010151,-0.0054287,-0.0089491,-0.01139,-0.012697,-0.012938,-0.012279,-0.010948,-0.0091973,-0.0072706,-0.0053743,-0.0036622,-0.0022299,-0.0011185,-0.0003243,0.00018808,0.00047177,0.00058587,0.00058643,0.0005208,0.00042507,0.00032393,0.00023216,0.00015679,9.9548e-05,5.8967e-05,3.2045e-05,1.5388e-05,5.8778e-06,9.908e-07,-1.1339e-06,-1.7581e-06,-1.6704e-06,-1.3202e-06
3.273e-07,9.9395e-07,2.2919e-06,4.6072e-06,8.4501e-06,1.4422e-05,2.3115e-05,3.4908e-05,4.9616e-05,6.5982e-05,8.0999e-05,8.9125e-05,8.1512e-05,4.5469e-05,-3.5564e-05,-0.00018117,-0.00041191,-0.00074589,-0.0011939,-0.0017534,-0.0024028,-0.0030955,-0.003758,-0.0042904,-0.0045732,-0.0044794,-0.0038913,-0.0027218,-0.00093426,0.0014395,0.0042899,0.0074306,0.010612,0.013547,0.015945,0.017549,0.018174,0.017736,0.016259,0.013881,0.010831,0.007399,0.0038965,0.00061785,-0.0021946,-0.0043748,-0.005843,-0.006604,-0.0067329,-0.0063546,-0.0056189,-0.0046783,-0.0036693,-0.0026999,-0.0018447,-0.0011445,-0.00061162,-0.00023688,2.559e-06,0.0001359,0.00019299,0.00020049,0.00017982,0.00014659,0.000111,7.8874e-05,5.2796e-05,3.3275e-05,1.9643e-05,1.073e-05,5.2809e-06,2.193e-06,6.0139e-07,-1.114e-07,-3.5241e-07
-2.5869e-07,-9.288e-08,4.0589e-07,1.5269e-06,3.7099e-06,7.5718e-06,1.3903e-05,2.3605e-05,3.7525e-05,5.6161e-05,7.9186e-05,0.00010479,0.0001289,0.00014428,0.00013987,0.00010044,6.9877e-06,-0.00016183,-0.00042698,-0.00080497,-0.0013027,-0.001912,-0.002604,-0.0033264,-0.0040024,-0.0045351,-0.0048158,-0.0047372,-0.0042097,-0.0031786,-0.0016391,0.00035368,0.0026827,0.0051765,0.0076262,0.0098097,0.01152,0.012592,0.012928,0.012505,0.011384,0.0096951,0.0076184,0.0053607,0.0031267,0.0010945,-0.00060208,-0.001884,-0.0027274,-0.0031569,-0.0032339,-0.0030413,-0.0026693,-0.0022027,-0.0017129,-0.0012525,-0.0008549,-0.00053592,-0.00029762,-0.00013258,-2.8102e-05,3.0349e-05,5.6647e-05,6.2561e-05,5.7134e-05,4.6686e-05,3.5187e-05,2.4805e-05,1.6455e-05,1.0286e-05,6.0391e-06,3.3012e-06,1.6483e-06,7.1949e-07,2.4086e-07
-4.7976e-07,-6.099e-07,-6.4814e-07,-4.3357e-07,3.168e-07,2.057e-06,5.458e-06,1.1432e-05,2.1109e-05,3.5725e-05,5.6381e-05,8.3637e-05,0.00011691,0.00015372,0.00018879,0.00021329,0.00021423,0.00017457,7.4056e-05,-0.00010873,-0.00039315,-0.00079221,-0.0013076,-0.0019251,-0.0026104,-0.0033087,-0.0039455,-0.0044335,-0.0046811,-0.0046056,-0.0041464,-0.003278,-0.0020189,-0.00043503,0.0013633,0.0032323,0.0050109,0.0065413,0.0076889,0.0083597,0.0085122,0.0081604,0.00737,0.0062465,0.0049192,0.003523,0.0021815,0.00099395,2.7096e-05,-0.00068711,-0.0011486,-0.0013828,-0.0014317,-0.0013453,-0.0011734,-0.00096008,-0.00073996,-0.00053704,-0.00036521,-0.00022998,-0.00013073,-6.3005e-05,-2.0528e-05,3.2992e-06,1.4433e-05,1.7701e-05,1.6662e-05,1.3715e-05,1.0312e-05,7.2194e-06,4.7475e-06,2.9416e-06,1.7152e-06,9.3541e-07,4.705e-07
-4.5292e-07,-6.9039e-07,-9.7874e-07,-1.2644e-06,-1.4197e-06,-1.1968e-06,-1.705e-07,2.3222e-06,7.2314e-06,1.5806e-05,2.9533e-05,4.9964e-05,7.8386e-05,0.0001153,0.00015974,0.00020843,0.00025496,0.00028912,0.00029668,0.00025983,0.0001586,-2.6743e-05,-0.00031219,-0.00070594,-0.0012041,-0.0017874,-0.0024191,-0.0030457,-0.0036005,-0.0040102,-0.0042042,-0.0041248,-0.0037375,-0.0030387,-0.0020598,-0.00086646,0.0004479,0.0017726,0.0029936,0.0040077,0.0047359,0.0051322,0.0051876,0.0049292,0.0044136,0.0037168,0.0029231,0.0021136,0.0013573,0.00070463,0.00018548,-0.00019045,-0.00043013,-0.00055249,-0.00058311,-0.00054947,-0.00047713,-0.00038734,-0.00029587,-0.00021295,-0.00014401,-9.0719e-05,-5.2266e-05,-2.6406e-05,-1.0343e-05,-1.328e-06,3.0043e-06,4.4923e-06,4.4441e-06,3.7106e-06,2.7921e-06,1.9441e-06,1.2679e-06,7.786e-07,4.5041e-07
-3.1203e-07,-5.3298e-07,-8.5785e-07,-1.299e-06,-1.8381e-06,-2.395e-06,-2.7809e-06,-2.6383e-06,-1.371e-06,1.9224e-06,8.4906e-06,1.9915e-05,3.7998e-05,6.4515e-05,0.0001008,0.00014713,0.00020202,0.00026138,0.00031786,0.00036038,0.00037433,0.00034241,0.00024639,6.9768e-05,-0.00019899,-0.00056289,-0.0010133,-0.001528,-0.0020708,-0.0025938,-0.0030414,-0.0033572,-0.0034913,-0.0034084,-0.0030937,-0.0025573,-0.0018343,-0.00098173,-7.1714e-05,0.00081753,0.0016116,0.002249,0.0026882,0.0029117,0.0029254,0.0027563,0.002446,0.0020442,0.0016014,0.0011626,0.00076315,0.00042668,0.00016473,-2.161e-05,-0.00013922,-0.00019997,-0.00021792,-0.00020698,-0.00017936,-0.00014462,-0.00010951,-7.813e-05,-5.2463e-05,-3.2962e-05,-1.9119e-05,-9.9406e-06,-4.2978e-06,-1.1358e-06,4.141e-07,1.0028e-06,1.0781e-06,9.2254e-07,6.9769e-07,4.8412e-07,3.1342e-07
-1.5789e-07,-3.0794e-07,-5.565e-07,-9.4262e-07,-1.5037e-06,-2.2592e-06,-3.1834e-06,-4.1614e-06,-4.9304e-06,-5.0068e-06,-3.6096e-06,4.0289e-07,8.5546e-06,2.2696e-05,4.4835e-05,7.6811e-05,0.00011981,0.00017375,0.00023651,0.00030331,0.00036618,0.00041389,0.00043242,0.00040615,0.00031982,0.00016099,-7.7094e-05,-0.00039291,-0.00077471,-0.0011998,-0.0016357,-0.0020426,-0.0023778,-0.0026016,-0.0026822,-0.0026013,-0.0023572,-0.0019658,-0.0014594,-0.00088239,-0.00028563,0.00027992,0.00076969,0.0011505,0.0014035,0.0015252,0.0015259,0.0014266,0.0012547,0.0010399,0.00080988,0.00058795,0.00039083,0.00022848,0.00010461,1.79e-05,-3.6384e-05,-6.4814e-05,-7.444e-05,-7.1793e-05,-6.2284e-05,-4.9959e-05,-3.7521e-05,-2.653e-05,-1.7672e-05,-1.1049e-05,-6.4211e-06,-3.3961e-06,-1.556e-06,-5.2859e-07,-1.8307e-08,1.8888e-07,2.358e-07,2.1012e-07,1.6068e-07
-4.3209e-08,-1.1804e-07,-2.6039e-07,-5.0992e-07,-9.1794e-07,-1.5431e-06,-2.4396e-06,-3.6346e-06,-5.0904e-06,-6.6504e-06,-7.9692e-06,-8.4327e-06,-7.0837e-06,-2.5747e-06,6.8209e-06,2.3104e-05,4.8319e-05,8.4177e-05,0.00013154,0.00018981,0.0002563,0.00032575,0.00039009,0.00043863,0.00045886,0.00043774,0.00036361,0.00022829,2.9219e-05,-0.00022885,-0.00053301,-0.00086252,-0.0011904,-0.0014863,-0.0017202,-0.0018663,-0.001907,-0.0018352,-0.0016561,-0.001386,-0.0010505,-0.00068113,-0.00031091,2.9688e-05,0.00031621,0.00053259,0.00067207,0.00073671,0.00073575,0.00068332,0.00059579,0.00048943,0.00037846,0.00027394,0.00018321,0.00011006,5.5287e-05,1.7517e-05,-5.9604e-06,-1.842e-05,-2.3111e-05,-2.2876e-05,-1.9958e-05,-1.5958e-05,-1.1899e-05,-8.3388e-06,-5.5069e-06,-3.4207e-06,-1.9849e-06,-1.0595e-06,-5.029e-07,-1.9375e-07,-3.8999e-08,2.6717e-08,4.5807e-08
1.9329e-08,-8.2615e-10,-5.5187e-08,-1.7203e-07,-3.9366e-07,-7.7844e-07,-1.3995e-06,-2.3376e-06,-3.6641e-06,-5.4106e-06,-7.5222e-06,-9.7947e-06,-1.1799e-05,-1.2801e-05,-1.1704e-05,-7.0258e-06,3.0495e-06,2.0516e-05,4.7269e-05,8.4708e-05,0.00013323,0.00019173,0.00025706,0.00032385,0.00038445,0.00042939,0.0004483,0.00043118,0.00037002,0.00026038,0.00010283,-9.6233e-05,-0.00032456,-0.00056486,-0.00079661,-0.00099845,-0.0011509,-0.0012392,-0.0012549,-0.0011976,-0.0010742,-0.00089866,-0.00068917,-0.00046612,-0.00024923,-5.529e-05,0.00010351,0.00022041,0.00029402,0.00032758,0.00032768,0.00030279,0.00026188,0.0002132,0.00016354,0.00011777,7.8881e-05,4.8151e-05,2.5552e-05,1.0189e-05,7.0472e-07,-4.3844e-06,-6.461e-06,-6.6748e-06,-5.8932e-06,-4.7106e-06,-3.4914e-06,-2.4263e-06,-1.588e-06,-9.7892e-07,-5.6573e-07,-3.0311e-07,-1.4697e-07,-6.0839e-08,-1.7574e-08
4.001e-08,4.8965e-08,4.7978e-08,2.2002e-08,-5.4873e-08,-2.235e-07,-5.4329e-07,-1.0936e-06,-1.9706e-06,-3.2759e-06,-5.0941e-06,-7.4548e-06,-1.0279e-05,-1.3313e-05,-1.6051e-05,-1.767e-05,-1.6993e-05,-1.25e-05,-2.422e-06,1.5068e-05,4.1556e-05,7.8004e-05,0.00012432,0.00017894,0.00023856,0.00029804,0.00035065,0.00038859,0.00040393,0.00038967,0.00034099,0.00025632,0.00013804,-7.2259e-06,-0.0001691,-0.00033441,-0.00048878,-0.00061839,-0.00071181,-0.00076145,-0.0007645,-0.0007231,-0.00064392,-0.00053694,-0.00041405,-0.00028732,-0.00016763,-6.3434e-05,1.9786e-05,7.9704e-05,0.00011681,0.00013377,0.00013465,0.00012407,0.00010654,8.5973e-05,6.5374e-05,4.6767e-05,3.1266e-05,1.9248e-05,1.0562e-05,4.7371e-06,1.1675e-06,-7.6382e-07,-1.6005e-06,-1.7748e-06,-1.6002e-06,-1.2837e-06,-9.4758e-07,-6.5346e-07,-4.2389e-07,-2.591e-07,-1.4886e-07,-7.9738e-08,-3.9134e-08
3.6444e-08,5.4667e-08,7.592e-08,9.5134e-08,1.0096e-07,7.2048e-08,-2.7414e-08,-2.5231e-07,-6.7999e-07,-1.4103e-06,-2.5595e-06,-4.2445e-06,-6.5545e-06,-9.5082e-06,-1.2996e-05,-1.6717e-05,-2.0108e-05,-2.2303e-05,-2.212e-05,-1.8107e-05,-8.668e-06,7.7244e-06,3.2248e-05,6.5392e-05,0.00010663,0.00015415,0.00020475,0.00025388,0.00029604,0.00032529,0.00033605,0.00032395,0.00028659,0.0002242,0.00013988,3.9445e-05,-6.9135e-05,-0.00017666,-0.00027384,-0.0003525,-0.00040658,-0.00043284,-0.0004311,-0.00040411,-0.00035692,-0.00029606,-0.00022854,-0.00016099,-9.8924e-05,-4.6241e-05,-5.1119e-06,2.3941e-05,4.1731e-05,5.0001e-05,5.0974e-05,4.6971e-05,4.0104e-05,3.2092e-05,2.4185e-05,1.7168e-05,1.1428e-05,7.0583e-06,3.9515e-06,1.8966e-06,6.4703e-07,-3.2537e-08,-3.4008e-07,-4.2682e-07,-3.9848e-07,-3.2257e-07,-2.3773e-07,-1.6287e-07,-1.0474e-07,-6.3458e-08,-3.6194e-08
2.388e-08,4.0238e-08,6.3888e-08,9.5299e-08,1.3241e-07,1.682e-07,1.8724e-07,1.6119e-07,4.3887e-08,-2.3327e-07,-7.637e-07,-1.6635e-06,-3.0617e-06,-5.0807e-06,-7.8029e-06,-1.1226e-05,-1.5207e-05,-1.9406e-05,-2.3235e-05,-2.5837e-05,-2.6101e-05,-2.2738e-05,-1.4423e-05,3.7379e-09,2.1287e-05,4.9501e-05,8.3826e-05,0.00012242,0.00016242,0.00020013,0.00023137,0.00025197,0.00025839,0.00024821,0.00022067,0.00017687,0.00011979,5.3967e-05,-1.5016e-05,-8.1239e-05,-0.0001392,-0.00018448,-0.00021424,-0.00022748,-0.00022499,-0.00020906,-0.00018304,-0.0001508,-0.00011615,-8.2467e-05,-5.23e-05,-2.7294e-05,-8.1771e-06,5.1032e-06,1.3177e-05,1.7019e-05,1.7742e-05,1.6416e-05,1.3962e-05,1.1088e-05,8.2819e-06,5.8291e-06,3.8569e-06,2.3807e-06,1.3479e-06,6.7404e-07,2.6773e-07,4.6275e-08,-5.7129e-08,-9.1671e-08,-9.0629e-08,-7.4607e-08,-5.5084e-08,-3.7552e-08,-2.3956e-08
1.1596e-08,2.2161e-08,3.9417e-08,6.584e-08,1.0362e-07,1.5349e-07,2.1271e-07,2.7207e-07,3.118e-07,2.9673e-07,1.7125e-07,-1.4441e-07,-7.5493e-07,-1.7849e-06,-3.3659e-06,-5.613e-06,-8.5904e-06,-1.2268e-05,-1.6471e-05,-2.084e-05,-2.4795e-05,-2.754e-05,-2.8105e-05,-2.5427e-05,-1.8497e-05,-6.532e-06,1.0833e-05,3.3369e-05,6.0137e-05,8.9454e-05,0.00011898,0.00014593,0.00016738,0.00018066,0.00018373,0.00017553,0.00015615,0.00012694,9.0291e-05,4.942e-05,7.9077e-06,-3.0743e-05,-6.3537e-05,-8.8323e-05,-0.00010398,-0.00011046,-0.00010864,-0.00010011,-8.6872e-05,-7.1008e-05,-5.4449e-05,-3.8763e-05,-2.5053e-05,-1.3938e-05,-5.6048e-06,9.8904e-08,3.549e-06,5.2339e-06,5.6606e-06,5.289e-06,4.4926e-06,3.5453e-06,2.6253e-06,1.8314e-06,1.2029e-06,7.4002e-07,4.2117e-07,2.1592e-07,9.332e-08,2.6523e-08,-5.3477e-09,-1.7171e-08,-1.8709e-08,-1.5845e-08,-1.1775e-08
3.3082e-09,8.365e-09,1.7783e-08,3.4023e-08,6.0194e-08,9.9726e-08,1.5555e-07,2.2857e-07,3.1523e-07,4.0402e-07,4.7112e-07,4.755e-07,3.5466e-07,2.2167e-08,-6.3072e-07,-1.7274e-06,-3.3901e-06,-5.7153e-06,-8.7404e-06,-1.2405e-05,-1.6515e-05,-2.0709e-05,-2.4454e-05,-2.7061e-05,-2.7736e-05,-2.5675e-05,-2.0178e-05,-1.0791e-05,2.5666e-06,1.9503e-05,3.9108e-05,5.9992e-05,8.0393e-05,9.8375e-05,0.00011206,0.0001199,0.00012087,0.00011468,0.00010177,8.3322e-05,6.1066e-05,3.706e-05,1.3418e-05,-7.9513e-06,-2.5561e-05,-3.8482e-05,-4.6387e-05,-4.9508e-05,-4.8517e-05,-4.4376e-05,-3.8164e-05,-3.0929e-05,-2.3569e-05,-1.6764e-05,-1.0949e-05,-6.3322e-06,-2.9336e-06,-6.3911e-07,7.4332e-07,1.4347e-06,1.6486e-06,1.5682e-06,1.3351e-06,1.0486e-06,7.7035e-07,5.326e-07,3.4695e-07,2.1229e-07,1.2092e-07,6.29e-08,2.8588e-08,9.9461e-09,9.2423e-10,-2.6585e-09,-3.4705e-09
-7.9377e-10,6.2673e-10,4.1638e-09,1.1487e-08,2.5056e-08,4.8202e-08,8.5005e-08,1.3981e-07,2.1614e-07,3.1488e-07,4.3146e-07,5.5219e-07,6.4996e-07,6.799e-07,5.7628e-07,2.5194e-07,-3.9786e-07,-1.4855e-06,-3.1141e-06,-5.3535e-06,-8.2114e-06,-1.1603e-05,-1.5327e-05,-1.9048e-05,-2.2306e-05,-2.4544e-05,-2.5163e-05,-2.3602e-05,-1.943e-05,-1.2439e-05,-2.7241e-06,9.2805e-06,2.2802e-05,3.6789e-05,5.0024e-05,6.1267e-05,6.9416e-05,7.3661e-05,7.3596e-05,6.927e-05,6.1183e-05,5.0205e-05,3.7456e-05,2.4147e-05,1.1426e-05,2.482e-07,-8.7181e-06,-1.513e-05,-1.8962e-05,-2.0452e-05,-2.0024e-05,-1.8201e-05,-1.552e-05,-1.2467e-05,-9.4293e-06,-6.6823e-06,-4.3846e-06,-2.5962e-06,-1.3023e-06,-4.3995e-07,7.7546e-08,3.4163e-07,4.3543e-07,4.2679e-07,3.6598e-07,2.8675e-07,2.092e-07,1.4337e-07,9.2582e-08,5.626e-08,3.1972e-08,1.6756e-08,7.8527e-09,3.0388e-09,6.8946e-10
